{
  "ambient.wind.wind": {
    "category": "ambient",
    "sounds": [
      "ambient/wind/wind1"
    ]
  },
  "ambient.rain.rain": {
    "category": "ambient",
    "sounds": [
      "ambient/rain/rain1"
    ]
  },
  "ambient.night.other_world_ambient": {
    "category": "ambient",
    "sounds": [
      "ambient/night/other_world_ambient"
    ]
  },
  "ambient.desert.desert": {
    "category": "ambient",
    "sounds": [
      "ambient/desert/desert1",
      "ambient/desert/desert2"
    ]
  },
  "ambient.cave.shallow": {
    "category": "ambient",
    "sounds": [
      "ambient/cave/cave_shallow1",
      "ambient/cave/cave_shallow2"
    ]
  },
  "ambient.cave.cave_deep": {
    "category": "ambient",
    "sounds": [
      "ambient/cave/cave_deep1"
    ]
  },

  "block.concrete.concrete_footstep": {
    "category": "ambient",
    "sounds": [
      "block/concrete/concrete_footstep1",
      "block/concrete/concrete_footstep2",
      "block/concrete/concrete_footstep3",
      "block/concrete/concrete_footstep4",
      "block/concrete/concrete_footstep5",
      "block/concrete/concrete_footstep6",
      "block/concrete/concrete_footstep7",
      "block/concrete/concrete_footstep8",
      "block/concrete/concrete_footstep9"
    ]
  },
  "block.dirt.dirt_footstep": {
    "category": "ambient",
    "sounds": [
      "block/dirt/dirt_footstep1",
      "block/dirt/dirt_footstep2",
      "block/dirt/dirt_footstep3",
      "block/dirt/dirt_footstep4",
      "block/dirt/dirt_footstep5",
      "block/dirt/dirt_footstep6",
      "block/dirt/dirt_footstep7",
      "block/dirt/dirt_footstep8",
      "block/dirt/dirt_footstep9"
    ]
  },
  "block.glass.glass_footstep": {
    "category": "ambient",
    "sounds": [
      "block/glass/glass_footstep1",
      "block/glass/glass_footstep2",
      "block/glass/glass_footstep3",
      "block/glass/glass_footstep4",
      "block/glass/glass_footstep5"
    ]
  },
  "block.grass.grass_footstep": {
    "category": "ambient",
    "sounds": [
      "block/grass/grass_footstep1",
      "block/grass/grass_footstep2",
      "block/grass/grass_footstep3",
      "block/grass/grass_footstep4",
      "block/grass/grass_footstep5",
      "block/grass/grass_footstep6",
      "block/grass/grass_footstep7",
      "block/grass/grass_footstep8",
      "block/grass/grass_footstep9"
    ]
  },
  "block.gravel.gravel_footstep": {
    "category": "ambient",
    "sounds": [
      "block/gravel/gravel_footstep1",
      "block/gravel/gravel_footstep2",
      "block/gravel/gravel_footstep3",
      "block/gravel/gravel_footstep4",
      "block/gravel/gravel_footstep5",
      "block/gravel/gravel_footstep6",
      "block/gravel/gravel_footstep7",
      "block/gravel/gravel_footstep8",
      "block/gravel/gravel_footstep9"
    ]
  },
  "block.hardwood.hardwood_footstep": {
    "category": "ambient",
    "sounds": [
      "block/hardwood/hardwood_footstep1",
      "block/hardwood/hardwood_footstep2",
      "block/hardwood/hardwood_footstep3",
      "block/hardwood/hardwood_footstep4",
      "block/hardwood/hardwood_footstep5",
      "block/hardwood/hardwood_footstep6",
      "block/hardwood/hardwood_footstep7",
      "block/hardwood/hardwood_footstep8",
      "block/hardwood/hardwood_footstep9"
    ]
  },
  "block.ice.ice_footstep": {
    "category": "ambient",
    "sounds": [
      "block/ice/ice_footstep1",
      "block/ice/ice_footstep2",
      "block/ice/ice_footstep3",
      "block/ice/ice_footstep4",
      "block/ice/ice_footstep5",
      "block/ice/ice_footstep6",
      "block/ice/ice_footstep7",
      "block/ice/ice_footstep8",
      "block/ice/ice_footstep9"
    ]
  },
  "block.metal.metal_footstep": {
    "category": "ambient",
    "sounds": [
      "block/metal/metal_footstep1",
      "block/metal/metal_footstep2",
      "block/metal/metal_footstep3",
      "block/metal/metal_footstep4",
      "block/metal/metal_footstep5",
      "block/metal/metal_footstep6",
      "block/metal/metal_footstep7",
      "block/metal/metal_footstep8",
      "block/metal/metal_footstep9"
    ]
  },
  "block.mud.mud_footstep": {
    "category": "ambient",
    "sounds": [
      "block/mud/mud_footstep1",
      "block/mud/mud_footstep2",
      "block/mud/mud_footstep3",
      "block/mud/mud_footstep4",
      "block/mud/mud_footstep5",
      "block/mud/mud_footstep6",
      "block/mud/mud_footstep7",
      "block/mud/mud_footstep8",
      "block/mud/mud_footstep9"
    ]
  },
  "block.sand.sand_footstep": {
    "category": "ambient",
    "sounds": [
      "block/sand/sand_footstep1",
      "block/sand/sand_footstep2",
      "block/sand/sand_footstep3",
      "block/sand/sand_footstep4",
      "block/sand/sand_footstep5",
      "block/sand/sand_footstep6",
      "block/sand/sand_footstep7",
      "block/sand/sand_footstep8",
      "block/sand/sand_footstep9"
    ]
  },
  "block.snow.snow_footstep": {
    "category": "ambient",
    "sounds": [
      "block/snow/snow_footstep1",
      "block/snow/snow_footstep2",
      "block/snow/snow_footstep3",
      "block/snow/snow_footstep4",
      "block/snow/snow_footstep5",
      "block/snow/snow_footstep6",
      "block/snow/snow_footstep7",
      "block/snow/snow_footstep8",
      "block/snow/snow_footstep9"
    ]
  },
  "block.stone.stone_footstep": {
    "category": "ambient",
    "sounds": [
      "block/stone/stone_footstep1",
      "block/stone/stone_footstep2",
      "block/stone/stone_footstep3",
      "block/stone/stone_footstep4",
      "block/stone/stone_footstep5",
      "block/stone/stone_footstep6",
      "block/stone/stone_footstep7",
      "block/stone/stone_footstep8",
      "block/stone/stone_footstep9"
    ]
  },
  "block.water.water_footstep": {
    "category": "ambient",
    "sounds": [
      "block/water/water_footstep1",
      "block/water/water_footstep2",
      "block/water/water_footstep3",
      "block/water/water_footstep4",
      "block/water/water_footstep5",
      "block/water/water_footstep6",
      "block/water/water_footstep7",
      "block/water/water_footstep8",
      "block/water/water_footstep9"
    ]
  },
  "block.wood.wood_footstep": {
    "category": "ambient",
    "sounds": [
      "block/wood/wood_footstep1",
      "block/wood/wood_footstep2",
      "block/wood/wood_footstep3",
      "block/wood/wood_footstep4",
      "block/wood/wood_footstep5",
      "block/wood/wood_footstep6",
      "block/wood/wood_footstep7",
      "block/wood/wood_footstep8",
      "block/wood/wood_footstep9"
    ]
  },

  "block.chest.chest_open": {
    "category": "ambient",
    "sounds": [
      "block/chest/chest_open1",
      "block/chest/chest_open2",
      "block/chest/chest_open3"
    ]
  },
  "block.door.door_locked": {
    "category": "ambient",
    "sounds": [
      "block/door/door_locked"
    ]
  },

  "damage.death.slight_scream": {
    "category": "ambient",
    "sounds": [
      "damage/death/slight_scream1",
      "damage/death/slight_scream2",
      "damage/death/slight_scream3",
      "damage/death/slight_scream4",
      "damage/death/slight_scream5",
      "damage/death/slight_scream6",
      "damage/death/slight_scream7",
      "damage/death/slight_scream8",
      "damage/death/slight_scream9"
    ]
  },

  "interface.button.button_accept": {
    "category": "ambient",
    "sounds": [
      "interface/button/button_accept"
    ]
  },
  "interface.button.button_backward": {
    "category": "ambient",
    "sounds": [
      "interface/button/button_backward"
    ]
  },
  "interface.button.button_click": {
    "category": "ambient",
    "sounds": [
      "interface/button/button_click"
    ]
  },
  "interface.button.button_decline": {
    "category": "ambient",
    "sounds": [
      "interface/button/button_decline"
    ]
  },
  "interface.button.button_hover": {
    "category": "ambient",
    "sounds": [
      "interface/button/button_hover"
    ]
  },
  "interface.button.button_not_available": {
    "category": "ambient",
    "sounds": [
      "interface/button/button_not_available"
    ]
  },

  "interface.inventory.armor_pick_down": {
    "category": "ambient",
    "sounds": [
      "interface/inventory/armor_pick_down"
    ]
  },
  "interface.inventory.armor_pick_up": {
    "category": "ambient",
    "sounds": [
      "interface/inventory/armor_pick_up"
    ]
  },
  "interface.inventory.armor_put_down": {
    "category": "ambient",
    "sounds": [
      "interface/inventory/armor_put_down"
    ]
  },
  "interface.inventory.armor_put_on": {
    "category": "ambient",
    "sounds": [
      "interface/inventory/armor_put_on"
    ]
  },
  "interface.inventory.item_pick_down": {
    "category": "ambient",
    "sounds": [
      "interface/inventory/item_pick_down"
    ]
  },
  "interface.inventory.item_pick_up": {
    "category": "ambient",
    "sounds": [
      "interface/inventory/item_pick_up"
    ]
  },
  "interface.inventory.healing_item_pick_down": {
    "category": "ambient",
    "sounds": [
      "interface/inventory/healing_item_pick_down"
    ]
  },
  "interface.inventory.healing_item_pick_up": {
    "category": "ambient",
    "sounds": [
      "interface/inventory/healing_item_pick_up"
    ]
  },
  "interface.inventory.heavy_weapon_pick_down": {
    "category": "ambient",
    "sounds": [
      "interface/inventory/heavy_weapon_pick_down"
    ]
  },
  "interface.inventory.heavy_weapon_pick_up": {
    "category": "ambient",
    "sounds": [
      "interface/inventory/heavy_weapon_pick_up"
    ]
  },
  "interface.inventory.light_weapon_pick_down": {
    "category": "ambient",
    "sounds": [
      "interface/inventory/light_weapon_pick_down"
    ]
  },
  "interface.inventory.light_weapon_pick_up": {
    "category": "ambient",
    "sounds": [
      "interface/inventory/light_weapon_pick_up"
    ]
  },
  "interface.inventory.medium_weapon_pick_down": {
    "category": "ambient",
    "sounds": [
      "interface/inventory/medium_weapon_pick_down"
    ]
  },
  "interface.inventory.medium_weapon_pick_up": {
    "category": "ambient",
    "sounds": [
      "interface/inventory/medium_weapon_pick_up"
    ]
  },
  "interface.inventory.melee_pick_down": {
    "category": "ambient",
    "sounds": [
      "interface/inventory/melee_pick_down"
    ]
  },
  "interface.inventory.melee_pick_up": {
    "category": "ambient",
    "sounds": [
      "interface/inventory/melee_pick_up"
    ]
  },
  "interface.modification.modification_remove": {
    "category": "ambient",
    "sounds": [
      "interface/modification/modification_remove"
    ]
  },
  "interface.modification.modification_add": {
    "category": "ambient",
    "sounds": [
      "interface/modification/modification_add"
    ]
  },
  "interface.notification.letter_recieved": {
    "category": "ambient",
    "sounds": [
      "interface/notification/letter_recieved"
    ]
  },
  "interface.notification.letter_sended": {
    "category": "ambient",
    "sounds": [
      "interface/notification/letter_sended"
    ]
  },
  "interface.notification.new_achievement": {
    "category": "ambient",
    "sounds": [
      "interface/notification/new_achievement"
    ]
  },
  "interface.notification.skill_researched": {
    "category": "ambient",
    "sounds": [
      "interface/notification/skill_researched"
    ]
  },

  "weapon.arkonista.arkonista_no_ammo": {
    "category": "ambient",
    "sounds": [
      "weapon/a_no_ammo/dry_shot_04"
    ]
  },
  "weapon.arkonista.arkonista_load": {
    "category": "ambient",
    "sounds": [
      "weapon/a_reload/load/load1"
    ]
  },
  "weapon.arkonista.arkonista_unload": {
    "category": "ambient",
    "sounds": [
      "weapon/a_reload/unload/unload1"
    ]
  },
  "weapon.arkonista.arkonista_shoot": {
    "category": "ambient",
    "sounds": [
      "weapon/arkonista/shoot/sci_fi_blaster_9"
    ]
  },

  "weapon.asr37.asr37_no_ammo": {
    "category": "ambient",
    "sounds": [
      "weapon/a_no_ammo/dry_shot_05"
    ]
  },
  "weapon.asr37.asr37_load": {
    "category": "ambient",
    "sounds": [
      "weapon/a_reload/load/load1"
    ]
  },
  "weapon.asr37.asr37_unload": {
    "category": "ambient",
    "sounds": [
      "weapon/a_reload/unload/unload1"
    ]
  },
  "weapon.asr37.asr37_shoot": {
    "category": "ambient",
    "sounds": [
      "weapon/asr37/shoot/m16_single_shot_suppressed_5"
    ]
  },

  "weapon.azallet.azallet_shoot": {
    "category": "ambient",
    "sounds": [
      "weapon/azallet/shoot/heavy_sword_woosh_5"
    ]
  },

  "weapon.barracuda.barracuda_no_ammo": {
    "category": "ambient",
    "sounds": [
      "weapon/a_no_ammo/dry_shot_03"
    ]
  },
  "weapon.barracuda.barracuda_load": {
    "category": "ambient",
    "sounds": [
      "weapon/a_reload/load/single_load1"
    ]
  },
  "weapon.barracuda.barracuda_unload": {
    "category": "ambient",
    "sounds": [
      "weapon/a_reload/unload/unload1"
    ]
  },
  "weapon.barracuda.barracuda_shoot": {
    "category": "ambient",
    "sounds": [
      "weapon/barracuda/shoot/shotgun_boom_101"
    ]
  },

  "weapon.bonecrusher.bonecrusher_no_ammo": {
    "category": "ambient",
    "sounds": [
      "weapon/a_no_ammo/dry_shot_03"
    ]
  },
  "weapon.bonecrusher.bonecrusher_load": {
    "category": "ambient",
    "sounds": [
      "weapon/a_reload/load/single_load1"
    ]
  },
  "weapon.bonecrusher.bonecrusher_unload": {
    "category": "ambient",
    "sounds": [
      "weapon/a_reload/unload/unload1"
    ]
  },
  "weapon.bonecrusher.bonecrusher_shoot": {
    "category": "ambient",
    "sounds": [
      "weapon/bonecrusher/shoot/shotgun_boom_102"
    ]
  },

  "weapon.contributor.contributor_no_ammo": {
    "category": "ambient",
    "sounds": [
      "weapon/a_no_ammo/dry_shot_01"
    ]
  },
  "weapon.contributor.contributor_load": {
    "category": "ambient",
    "sounds": [
      "weapon/a_reload/load/load1"
    ]
  },
  "weapon.contributor.contributor_unload": {
    "category": "ambient",
    "sounds": [
      "weapon/a_reload/unload/unload1"
    ]
  },
  "weapon.contributor.contributor_shoot": {
    "category": "ambient",
    "sounds": [
      "weapon/contributor/shoot/smg_single_shot_3"
    ]
  },

  "weapon.crasher.crasher_shoot": {
    "category": "ambient",
    "sounds": [
      "weapon/crasher/shoot/sword_woosh_8"
    ]
  },

  "weapon.devourer.devourer_no_ammo": {
    "category": "ambient",
    "sounds": [
      "weapon/a_no_ammo/dry_shot_05"
    ]
  },
  "weapon.devourer.devourer_load": {
    "category": "ambient",
    "sounds": [
      "weapon/a_reload/load/load2"
    ]
  },
  "weapon.devourer.devourer_unload": {
    "category": "ambient",
    "sounds": [
      "weapon/a_reload/unload/unload1"
    ]
  },
  "weapon.devourer.devourer_charge": {
    "category": "ambient",
    "sounds": [
      "weapon/devourer/shoot/device_7_start"
    ]
  },
  "weapon.devourer.devourer_shoot": {
    "category": "ambient",
    "sounds": [
      "weapon/devourer/shoot/weapon_13_shoot_1"
    ]
  },

  "weapon.duo.duo_no_ammo": {
    "category": "ambient",
    "sounds": [
      "weapon/a_no_ammo/dry_shot_05"
    ]
  },
  "weapon.duo.duo_load": {
    "category": "ambient",
    "sounds": [
      "weapon/a_reload/load/load1"
    ]
  },
  "weapon.duo.duo_unload": {
    "category": "ambient",
    "sounds": [
      "weapon/a_reload/unload/unload1"
    ]
  },
  "weapon.duo.duo_shoot": {
    "category": "ambient",
    "sounds": [
      "weapon/duo/shoot/weapon_07_shoot_1"
    ]
  },

  "weapon.flick.flick_no_ammo": {
    "category": "ambient",
    "sounds": [
      "weapon/a_no_ammo/dry_shot_05"
    ]
  },
  "weapon.flick.flick_load": {
    "category": "ambient",
    "sounds": [
      "weapon/a_reload/load/single_load1"
    ]
  },
  "weapon.flick.flick_unload": {
    "category": "ambient",
    "sounds": [
      "weapon/a_reload/unload/unload1"
    ]
  },
  "weapon.flick.flick_shoot": {
    "category": "ambient",
    "sounds": [
      "weapon/flick/shoot/weapon_04_shoot_2"
    ]
  },

  "weapon.hyperion.hyperion_no_ammo": {
    "category": "ambient",
    "sounds": [
      "weapon/a_no_ammo/dry_shot_04"
    ]
  },
  "weapon.hyperion.hyperion_load": {
    "category": "ambient",
    "sounds": [
      "weapon/a_reload/load/single_load1"
    ]
  },
  "weapon.hyperion.hyperion_unload": {
    "category": "ambient",
    "sounds": [
      "weapon/a_reload/unload/unload1"
    ]
  },
  "weapon.hyperion.hyperion_shoot": {
    "category": "ambient",
    "sounds": [
      "weapon/hyperion/shoot/your_file"
    ]
  },

  "weapon.incarn09.incarn09_no_ammo": {
    "category": "ambient",
    "sounds": [
      "weapon/a_no_ammo/dry_shot_01"
    ]
  },
  "weapon.incarn09.incarn09_load": {
    "category": "ambient",
    "sounds": [
      "weapon/a_reload/load/load1"
    ]
  },
  "weapon.incarn09.incarn09_unload": {
    "category": "ambient",
    "sounds": [
      "weapon/a_reload/unload/unload1"
    ]
  },
  "weapon.incarn09.incarn09_shoot": {
    "category": "ambient",
    "sounds": [
      "weapon/incarn09/shoot/pistol_shot_05"
    ]
  },

  "weapon.isaac.isaac_no_ammo": {
    "category": "ambient",
    "sounds": [
      "weapon/a_no_ammo/dry_shot_02"
    ]
  },
  "weapon.isaac.isaac_load": {
    "category": "ambient",
    "sounds": [
      "weapon/a_reload/load/single_load1"
    ]
  },
  "weapon.isaac.isaac_unload": {
    "category": "ambient",
    "sounds": [
      "weapon/a_reload/unload/unload1"
    ]
  },
  "weapon.isaac.isaac_shoot": {
    "category": "ambient",
    "sounds": [
      "weapon/isaac/shoot/your_file"
    ]
  },

  "weapon.keeper.keeper_no_ammo": {
    "category": "ambient",
    "sounds": [
      "weapon/a_no_ammo/dry_shot_03"
    ]
  },
  "weapon.keeper.keeper_load": {
    "category": "ambient",
    "sounds": [
      "weapon/a_reload/load/load1"
    ]
  },
  "weapon.keeper.keeper_unload": {
    "category": "ambient",
    "sounds": [
      "weapon/a_reload/unload/unload1"
    ]
  },
  "weapon.keeper.keeper_shoot": {
    "category": "ambient",
    "sounds": [
      "weapon/keeper/shoot/pistol_single_shot_2"
    ]
  },

  "weapon.osiris.osiris_no_ammo": {
    "category": "ambient",
    "sounds": [
      "weapon/a_no_ammo/dry_shot_05"
    ]
  },
  "weapon.osiris.osiris_load": {
    "category": "ambient",
    "sounds": [
      "weapon/a_reload/load/load2"
    ]
  },
  "weapon.osiris.osiris_unload": {
    "category": "ambient",
    "sounds": [
      "weapon/a_reload/unload/unload1"
    ]
  },
  "weapon.osiris.osiris_shoot": {
    "category": "ambient",
    "sounds": [
      "weapon/osiris/shoot/sci_fi_sniper_7"
    ]
  },

  "weapon.prospector.prospector_shoot": {
    "category": "ambient",
    "sounds": [
      "weapon/prospector/shoot/sword_woosh_8"
    ]
  },

  "weapon.prowler.prowler_no_ammo": {
    "category": "ambient",
    "sounds": [
      "weapon/a_no_ammo/dry_shot_02"
    ]
  },
  "weapon.prowler.prowler_load": {
    "category": "ambient",
    "sounds": [
      "weapon/a_reload/load/load1"
    ]
  },
  "weapon.prowler.prowler_unload": {
    "category": "ambient",
    "sounds": [
      "weapon/a_reload/unload/unload1"
    ]
  },
  "weapon.prowler.prowler_shoot": {
    "category": "ambient",
    "sounds": [
      "weapon/prowler/shoot/smg_single_shot_4"
    ]
  },

  "weapon.radzeg.radzeg_shoot": {
    "category": "ambient",
    "sounds": [
      "weapon/radzeg/shoot/sword_woosh_8"
    ]
  },

  "weapon.radZinger.radZinger_no_ammo": {
    "category": "ambient",
    "sounds": [
      "weapon/a_no_ammo/dry_shot_02"
    ]
  },
  "weapon.radZinger.radZinger_load": {
    "category": "ambient",
    "sounds": [
      "weapon/a_reload/load/load2"
    ]
  },
  "weapon.radZinger.radZinger_unload": {
    "category": "ambient",
    "sounds": [
      "weapon/a_reload/unload/unload1"
    ]
  },
  "weapon.radZinger.radZinger_shoot": {
    "category": "ambient",
    "sounds": [
      "weapon/radZinger/shoot/m16_single_shot_2"
    ]
  },

  "weapon.ragnarok.ragnarok_no_ammo": {
    "category": "ambient",
    "sounds": [
      "weapon/a_no_ammo/dry_shot_01"
    ]
  },
  "weapon.ragnarok.ragnarok_load": {
    "category": "ambient",
    "sounds": [
      "weapon/a_reload/load/load2"
    ]
  },
  "weapon.ragnarok.ragnarok_unload": {
    "category": "ambient",
    "sounds": [
      "weapon/a_reload/unload/unload1"
    ]
  },
  "weapon.ragnarok.ragnarok_shoot": {
    "category": "ambient",
    "sounds": [
      "weapon/ragnarok/shoot/pistol_single_shot"
    ]
  },

  "weapon.seeker.seeker_no_ammo": {
    "category": "ambient",
    "sounds": [
      "weapon/a_no_ammo/dry_shot_04"
    ]
  },
  "weapon.seeker.seeker_load": {
    "category": "ambient",
    "sounds": [
      "weapon/a_reload/load/single_load1"
    ]
  },
  "weapon.seeker.seeker_unload": {
    "category": "ambient",
    "sounds": [
      "weapon/a_reload/unload/unload1"
    ]
  },
  "weapon.seeker.seeker_shoot": {
    "category": "ambient",
    "sounds": [
      "weapon/seeker/shoot/sci_fi_sniper_10"
    ]
  },

  "weapon.slash.slash_no_ammo": {
    "category": "ambient",
    "sounds": [
      "weapon/a_no_ammo/dry_shot_03"
    ]
  },
  "weapon.slash.slash_load": {
    "category": "ambient",
    "sounds": [
      "weapon/a_reload/load/load2"
    ]
  },
  "weapon.slash.slash_unload": {
    "category": "ambient",
    "sounds": [
      "weapon/a_reload/unload/unload1"
    ]
  },
  "weapon.slash.slash_shoot": {
    "category": "ambient",
    "sounds": [
      "weapon/slash/shoot/smg_single_shot_suppressed_2"
    ]
  },

  "weapon.spitter.spitter_no_ammo": {
    "category": "ambient",
    "sounds": [
      "weapon/a_no_ammo/dry_shot_05"
    ]
  },
  "weapon.spitter.spitter_load": {
    "category": "ambient",
    "sounds": [
      "weapon/a_reload/load/load1"
    ]
  },
  "weapon.spitter.spitter_unload": {
    "category": "ambient",
    "sounds": [
      "weapon/a_reload/unload/unload1"
    ]
  },
  "weapon.spitter.spitter_shoot": {
    "category": "ambient",
    "sounds": [
      "weapon/spitter/shoot/sci_fi_sniper_9"
    ]
  },

  "weapon.vertmunt.vertmunt_no_ammo": {
    "category": "ambient",
    "sounds": [
      "weapon/a_no_ammo/dry_shot_02"
    ]
  },
  "weapon.vertmunt.vertmunt_load": {
    "category": "ambient",
    "sounds": [
      "weapon/a_reload/load/single_load1"
    ]
  },
  "weapon.vertmunt.vertmunt_unload": {
    "category": "ambient",
    "sounds": [
      "weapon/a_reload/unload/unload1"
    ]
  },
  "weapon.vertmunt.vertmunt_shoot": {
    "category": "ambient",
    "sounds": [
      "weapon/vertmunt/shoot/shotgun_boom_103"
    ]
  },

  "weapon.wasp.wasp_no_ammo": {
    "category": "ambient",
    "sounds": [
      "weapon/a_no_ammo/dry_shot_05"
    ]
  },
  "weapon.wasp.wasp_load": {
    "category": "ambient",
    "sounds": [
      "weapon/a_reload/load/load1"
    ]
  },
  "weapon.wasp.wasp_unload": {
    "category": "ambient",
    "sounds": [
      "weapon/a_reload/unload/unload1"
    ]
  },
  "weapon.wasp.wasp_shoot": {
    "category": "ambient",
    "sounds": [
      "weapon/wasp/shoot/weapon_03_shoot_3"
    ]
  }
}