# Blender v2.83.0 OBJ File: ''
# www.blender.org
mtllib squareduct_1.mtl
v 0.467743 0.334729 0.206550
v 0.467699 0.261215 0.280849
v 0.467743 0.250282 0.260481
v -0.114244 0.615078 -0.198377
v -0.271039 0.301230 -0.198377
v 0.125049 0.167749 -0.198249
v 0.197554 0.270838 -0.198377
v -0.275138 -0.000960 0.202964
v -0.275138 -0.000960 -0.201836
v 0.124537 -0.000960 -0.201836
v 0.125049 0.167749 0.199377
v 0.197554 0.270838 0.199377
v 0.303750 0.335177 0.207191
v 0.124537 -0.000960 0.202964
v 0.467743 0.334729 -0.205551
v 0.303750 0.335177 -0.206063
v 0.154000 0.750353 -0.206191
v -0.114244 0.615078 0.199377
v -0.271039 0.301230 0.199377
v 0.154000 0.750353 0.207191
v 0.467743 0.749584 0.206679
v 0.467743 0.749584 -0.205551
v 0.180645 0.009288 -0.284845
v -0.327404 0.009288 -0.284845
v -0.306395 0.009288 -0.260762
v 0.158612 0.009288 -0.260762
v -0.348925 0.009288 -0.274597
v -0.324842 0.009288 -0.250258
v 0.164504 0.774179 0.262659
v 0.457944 0.772898 0.262659
v 0.457944 0.792370 0.251386
v 0.162455 0.792882 0.251770
v 0.457944 0.803643 0.231787
v 0.044858 0.769568 0.251770
v 0.050494 0.751377 0.262659
v 0.457944 0.310614 0.262659
v 0.292989 0.310261 0.262659
v 0.296705 0.290662 0.251642
v 0.457944 0.290854 0.251258
v 0.299010 0.279341 0.232939
v 0.161430 0.803643 -0.232067
v 0.161430 0.803643 0.232939
v 0.041784 0.780072 0.232939
v -0.110144 0.695013 0.232939
v -0.103483 0.686046 0.251770
v -0.092723 0.671186 0.262659
v 0.220228 0.248242 0.262659
v 0.233423 0.234994 0.251770
v 0.296705 0.290662 -0.250770
v 0.299010 0.279341 -0.231940
v 0.241237 0.227220 -0.232067
v 0.241237 0.227220 0.232939
v 0.177571 0.139759 0.251642
v 0.158355 0.143538 0.262659
v -0.284362 0.423695 0.262659
v -0.250031 0.497994 0.262659
v 0.189100 0.137581 0.232939
v 0.189100 0.137581 -0.231940
v 0.233423 0.234994 -0.250770
v 0.177571 0.139759 -0.250770
v -0.299734 0.434968 0.251770
v -0.308445 0.441629 0.232939
v -0.335602 0.306995 0.232939
v -0.266428 0.506961 0.251770
v -0.324329 0.305906 0.251770
v -0.305883 0.304081 0.262659
v -0.325354 0.009288 0.251130
v -0.306907 0.009288 0.261506
v -0.276163 0.512085 0.232939
v -0.335602 0.009288 0.232683
v -0.335602 0.009288 -0.231811
v -0.276163 0.512085 -0.232067
v -0.308445 0.441629 -0.232067
v -0.335602 0.306995 -0.232067
v -0.110144 0.695013 -0.232067
v -0.266428 0.506961 -0.250770
v -0.299734 0.434968 -0.250770
v 0.220228 0.248243 -0.261787
v 0.158355 0.143538 -0.261787
v -0.284362 0.423695 -0.261787
v -0.092723 0.671186 -0.261787
v -0.250031 0.497994 -0.261787
v -0.305883 0.304081 -0.261787
v -0.324329 0.305906 -0.250770
v 0.177571 0.009288 -0.250386
v -0.358660 0.009288 -0.254101
v 0.218691 -0.000960 0.259969
v 0.207674 -0.000960 0.280080
v 0.187563 -0.000960 0.290841
v -0.333040 -0.000960 0.290841
v -0.353024 -0.000960 0.280080
v -0.363784 -0.000960 0.259969
v -0.333040 -0.000960 -0.291506
v 0.187563 -0.000960 -0.291506
v 0.457944 0.795444 0.285461
v 0.457944 0.816453 0.275725
v 0.457944 0.826701 0.255101
v 0.189100 0.009288 -0.231811
v 0.211389 0.009288 -0.254229
v 0.457944 0.803643 -0.230915
v 0.457944 0.826701 -0.253845
v 0.467699 0.832850 -0.259737
v 0.467743 0.832850 0.260481
v 0.467743 0.250279 -0.259994
v 0.463192 0.801593 0.291610
v 0.467743 0.801593 0.291610
v 0.467743 0.821577 0.280593
v 0.463192 0.821577 0.280593
v 0.463192 0.832850 0.260609
v 0.463192 0.832850 -0.259737
v 0.463192 0.821577 -0.279721
v 0.457944 0.816453 -0.274853
v 0.463192 0.801593 -0.290738
v 0.467699 0.821577 -0.279721
v 0.467699 0.801593 -0.290738
v 0.463192 0.281407 -0.290738
v 0.467699 0.281327 -0.290738
v 0.463196 0.261279 -0.279977
v 0.467699 0.261215 -0.279721
v 0.457944 0.795444 -0.284845
v 0.457944 0.287396 -0.284845
v 0.457944 0.266451 -0.274853
v 0.463192 0.250294 -0.259866
v 0.457944 0.256355 -0.253845
v 0.463192 0.250297 0.260225
v 0.457944 0.256363 0.254716
v 0.463196 0.261215 0.280593
v 0.467743 0.281583 0.291610
v 0.463192 0.281407 0.291610
v 0.457944 0.266387 0.275469
v 0.457944 0.287459 0.285461
v 0.041784 0.780072 -0.232067
v -0.103483 0.686046 -0.250770
v 0.044858 0.769568 -0.250770
v 0.292989 0.310261 -0.261787
v 0.050494 0.751377 -0.261787
v 0.162455 0.792882 -0.250770
v 0.457944 0.792370 -0.250386
v 0.164504 0.774179 -0.261787
v 0.457944 0.772898 -0.261787
v 0.457944 0.310614 -0.261787
v 0.457944 0.290854 -0.250386
v 0.201654 0.009288 -0.274853
v 0.457944 0.279325 0.231787
v 0.457944 0.279325 -0.230915
v 0.158612 0.009288 0.261506
v 0.177571 0.009288 0.251130
v 0.189100 0.009288 0.232683
v 0.317969 0.256407 -0.258585
v 0.317969 0.256407 0.259456
v 0.310667 0.252714 0.259456
v 0.305672 0.262480 0.279568
v 0.313102 0.266179 0.279568
v 0.296705 0.280462 0.290585
v 0.304134 0.284129 0.290585
v 0.047932 0.772898 0.290585
v 0.055106 0.776485 0.290585
v 0.038965 0.790833 0.279568
v 0.046139 0.794419 0.279568
v 0.033841 0.800568 0.259456
v 0.033841 0.800568 -0.258585
v 0.041271 0.804155 0.259456
v 0.049470 0.801593 0.253564
v 0.054081 0.792882 0.274444
v 0.063305 0.773923 0.284436
v 0.306953 0.292231 0.284436
v 0.316304 0.273449 0.274444
v 0.311052 0.283969 -0.230786
v 0.311052 0.283969 0.231658
v 0.320788 0.264498 0.253564
v 0.306184 0.293737 0.251770
v 0.297089 0.311735 0.262659
v 0.073296 0.754452 0.262659
v 0.064073 0.772386 0.251770
v 0.059205 0.782122 0.231658
v 0.049470 0.801593 -0.252564
v 0.041271 0.804155 -0.258585
v 0.038965 0.790833 -0.278696
v 0.031023 0.792370 -0.252564
v 0.035635 0.783659 -0.273572
v 0.047932 0.772898 -0.289457
v 0.045114 0.764700 -0.283564
v 0.063305 0.773923 -0.283564
v 0.055106 0.776485 -0.289457
v 0.046139 0.794419 -0.278696
v 0.054081 0.792882 -0.273572
v 0.059205 0.782122 -0.230786
v 0.296705 0.280462 -0.289457
v 0.304134 0.284129 -0.289457
v 0.305672 0.262480 -0.278696
v 0.313102 0.266179 -0.278696
v 0.310667 0.252714 -0.258585
v 0.288506 0.283008 -0.283564
v 0.297986 0.264233 -0.273572
v 0.302469 0.255278 -0.252564
v 0.302469 0.255278 0.253564
v 0.297986 0.264233 0.274444
v 0.320788 0.264498 -0.252564
v 0.316304 0.273449 -0.273572
v 0.306953 0.292231 -0.283564
v 0.064073 0.772386 -0.250898
v 0.073296 0.754452 -0.261787
v 0.297089 0.311735 -0.261787
v 0.306184 0.293737 -0.250899
v -0.283849 0.412935 -0.261787
v -0.299734 0.424976 -0.250899
v -0.318180 0.438555 -0.273572
v -0.326379 0.444447 -0.252564
v -0.308445 0.431509 -0.230786
v -0.326379 0.444447 0.253564
v -0.308445 0.431509 0.231658
v -0.318180 0.438555 0.274444
v -0.299734 0.424976 0.251770
v -0.301271 0.426001 0.284436
v -0.283849 0.412934 0.262659
v 0.169116 0.127782 0.284436
v 0.151694 0.140848 0.262659
v 0.186025 0.115356 0.274444
v 0.167835 0.128806 0.251770
v 0.193968 0.109335 0.253564
v 0.202422 0.110744 -0.258585
v 0.193968 0.109335 -0.252564
v 0.186025 0.115356 -0.273572
v 0.202422 0.110744 0.259456
v 0.193711 0.117277 0.279568
v 0.177571 0.129190 0.290585
v -0.302296 0.434455 0.290585
v -0.318693 0.446497 0.279568
v -0.313569 0.453030 0.279568
v -0.305883 0.454952 0.274444
v -0.314081 0.460973 0.253564
v -0.297172 0.441117 0.290585
v 0.182438 0.135788 0.290585
v 0.198579 0.123810 0.279568
v 0.207290 0.117277 0.259456
v 0.206265 0.125796 -0.252564
v 0.207290 0.117277 -0.258585
v 0.198579 0.123810 -0.278696
v 0.206265 0.125796 0.253564
v 0.198323 0.131752 0.274444
v 0.181414 0.144306 0.284436
v -0.288973 0.442398 0.284436
v 0.188844 0.138798 0.231658
v 0.179876 0.145331 0.251770
v 0.163736 0.157309 0.262659
v -0.271552 0.429460 0.262659
v -0.287436 0.441501 0.251770
v -0.296147 0.447906 0.231658
v -0.327404 0.452902 0.259456
v -0.322280 0.459563 0.259456
v -0.314081 0.460973 -0.252564
v -0.296147 0.447906 -0.230786
v -0.305883 0.454952 -0.273572
v -0.287436 0.441501 -0.250899
v -0.322280 0.459563 -0.258585
v -0.313569 0.453030 -0.278696
v -0.318693 0.446497 -0.278696
v -0.327404 0.452902 -0.258585
v -0.288973 0.442398 -0.283564
v -0.297172 0.441117 -0.289457
v 0.181414 0.144306 -0.283564
v 0.182438 0.135788 -0.289457
v 0.198323 0.131753 -0.273572
v -0.271552 0.429460 -0.261787
v 0.163736 0.157309 -0.261787
v 0.179876 0.145331 -0.250899
v 0.188844 0.138798 -0.230786
v 0.193711 0.117277 -0.278696
v 0.177571 0.129191 -0.289457
v -0.302296 0.434456 -0.289457
v -0.301271 0.426001 -0.283564
v 0.169116 0.127782 -0.283564
v 0.176546 0.122337 0.231658
v 0.176546 0.122337 -0.230786
v 0.167835 0.128806 -0.250899
v 0.151694 0.140848 -0.261787
v 0.218691 -0.000960 -0.260506
v 0.218691 0.004036 -0.259353
v 0.218691 0.004036 0.260353
v 0.207674 0.004036 0.280849
v 0.187563 0.004036 0.291353
v -0.333552 0.004164 0.291353
v 0.187563 0.004036 -0.290482
v 0.207674 0.004036 -0.279977
v 0.211389 0.009288 0.254845
v 0.201654 0.009288 0.275469
v 0.180645 0.009288 0.285461
v -0.353024 -0.000960 -0.280490
v -0.363784 -0.000960 -0.260506
v -0.363784 0.004164 -0.259481
v -0.353024 0.004164 -0.279977
v -0.333040 0.004164 -0.290738
v 0.207674 -0.000960 -0.280490
v -0.353024 0.004164 0.280593
v -0.348925 0.009288 0.275469
v -0.358660 0.009288 0.254716
v -0.363784 0.004164 0.260353
v -0.328428 0.009288 0.285461
v 0.045114 0.764700 0.284436
v 0.035635 0.783659 0.274444
v 0.045883 0.763163 0.251770
v 0.041015 0.773155 0.231658
v 0.031023 0.792370 0.253564
v 0.041015 0.773155 -0.230786
v 0.288506 0.283008 0.284436
v 0.045883 0.763163 -0.250898
v 0.054850 0.745229 -0.261787
v 0.278770 0.302511 -0.261787
v 0.287738 0.284545 -0.250899
v 0.292733 0.274762 -0.230786
v 0.292733 0.274762 0.231658
v 0.287738 0.284545 0.251770
v 0.278770 0.302511 0.262659
v 0.054850 0.745229 0.262659
vt 0.073400 0.100600
vt 0.034500 0.065400
vt 0.044500 0.060100
vt 0.867700 0.534400
vt 0.867700 0.567600
vt 0.800800 0.567600
vt 0.800800 0.534400
vt 0.929700 0.607400
vt 0.867700 0.607400
vt 0.800800 0.607400
vt 0.706500 0.567600
vt 0.706500 0.534400
vt 0.706500 0.502900
vt 0.706500 0.607400
vt 0.706500 0.465300
vt 0.800800 0.465300
vt 0.800800 0.502900
vt 0.867700 0.502900
vt 0.929700 0.534400
vt 0.929700 0.567600
vt 0.997600 0.607400
vt 0.929700 0.502900
vt 0.997600 0.567600
vt 0.997600 0.534400
vt 0.997600 0.502900
vt 0.997600 0.465300
vt 0.929700 0.465300
vt 0.867700 0.465300
vt 0.320100 0.358400
vt 0.025700 0.357900
vt 0.038600 0.345200
vt 0.306900 0.345200
vt 0.013500 0.352500
vt 0.027500 0.339400
vt 0.510300 0.835800
vt 0.515600 0.978300
vt 0.506300 0.978300
vt 0.500500 0.835800
vt 0.496300 0.978300
vt 0.506300 0.778300
vt 0.515600 0.779500
vt 0.746600 0.978300
vt 0.746600 0.902700
vt 0.756300 0.902700
vt 0.756300 0.978300
vt 0.766100 0.902700
vt 0.270500 0.835800
vt 0.490500 0.835800
vt 0.496300 0.777500
vt 0.496300 0.713900
vt 0.506300 0.713900
vt 0.515600 0.713900
vt 0.750000 0.714100
vt 0.750000 0.669400
vt 0.758300 0.708700
vt 0.758300 0.668900
vt 0.767600 0.708700
vt 0.999500 0.708700
vt 0.990200 0.708700
vt 0.990200 0.669200
vt 0.767600 0.669200
vt 0.758300 0.623300
vt 0.750000 0.616200
vt 0.515600 0.579600
vt 0.512700 0.612800
vt 0.767600 0.625700
vt 0.990200 0.625700
vt 0.999500 0.669200
vt 0.999500 0.625700
vt 0.506300 0.579600
vt 0.496300 0.579600
vt 0.491700 0.515900
vt 0.502900 0.612800
vt 0.501500 0.515900
vt 0.511200 0.515900
vt 0.506300 0.373000
vt 0.515600 0.373000
vt 0.748500 0.437000
vt 0.492900 0.612800
vt 0.496300 0.373000
vt 0.262900 0.373000
vt 0.268100 0.612800
vt 0.262900 0.579600
vt 0.267600 0.515900
vt 0.262900 0.712200
vt 0.258100 0.612800
vt 0.253200 0.579600
vt 0.009800 0.665800
vt 0.009800 0.622100
vt 0.243400 0.579600
vt 0.243400 0.712200
vt 0.248500 0.612800
vt 0.247900 0.515900
vt 0.257600 0.515900
vt 0.253200 0.373000
vt 0.243400 0.373000
vt 0.009800 0.373000
vt 0.009800 0.437000
vt 0.000700 0.437000
vt 0.000700 0.373000
vt 0.007600 0.341300
vt 0.021100 0.328600
vt 0.073400 0.100600
vt 0.029200 0.074700
vt 0.034500 0.065400
vt 0.044500 0.060100
vt 0.273900 0.100600
vt 0.301500 0.060100
vt 0.311300 0.065400
vt 0.316900 0.074700
vt 0.073400 0.293500
vt 0.273900 0.293500
vt 0.301500 0.334000
vt 0.044500 0.334000
vt 0.317900 0.339400
vt 0.324700 0.328600
vt 0.337900 0.341300
vt 0.332000 0.353000
vt 0.320100 0.358400
vt 0.306900 0.345200
vt 0.317900 0.339400
vt 0.324700 0.328600
vt 0.337900 0.341300
vt 0.038600 0.345200
vt 0.025700 0.357900
vt 0.073400 0.293500
vt 0.273900 0.293500
vt 0.301500 0.334000
vt 0.044500 0.334000
vt 0.273900 0.100600
vt 0.301500 0.060100
vt 0.341800 0.344200
vt 0.344500 0.344700
vt 0.336900 0.357900
vt 0.335200 0.355500
vt 0.323500 0.361800
vt 0.022500 0.361300
vt 0.010800 0.355500
vt 0.013500 0.352500
vt 0.004900 0.343800
vt 0.323500 0.364300
vt 0.022500 0.364300
vt 0.008300 0.358400
vt 0.001700 0.344700
vt 0.004500 0.056600
vt 0.001700 0.056600
vt 0.010700 0.045400
vt 0.007500 0.042500
vt 0.007600 0.341300
vt 0.007600 0.060100
vt 0.013400 0.048300
vt 0.022300 0.039600
vt 0.025500 0.042500
vt 0.323500 0.039600
vt 0.319800 0.043000
vt 0.335000 0.045900
vt 0.022500 0.036600
vt 0.323500 0.036600
vt 0.336900 0.043900
vt 0.344500 0.056600
vt 0.341800 0.056600
vt 0.331300 0.048800
vt 0.337900 0.060100
vt 0.262900 0.777500
vt 0.253200 0.712200
vt 0.253200 0.778300
vt 0.000700 0.665800
vt 0.000700 0.622100
vt 0.009800 0.705300
vt 0.243400 0.779500
vt 0.260500 0.835800
vt 0.262900 0.978300
vt 0.000700 0.705300
vt 0.253200 0.978300
vt 0.251000 0.835800
vt 0.243400 0.978300
vt 0.009800 0.902700
vt 0.009800 0.978300
vt 0.000700 0.902700
vt 0.000700 0.978300
vt 0.332000 0.353000
vt 0.766100 0.978300
vt 0.990200 0.978300
vt 0.990200 0.902700
vt 0.999500 0.978300
vt 0.999500 0.902700
vt 0.748500 0.373000
vt 0.758300 0.437000
vt 0.758300 0.373000
vt 0.768100 0.437000
vt 0.768100 0.373000
vt 0.990200 0.437000
vt 0.990200 0.373000
vt 0.999500 0.373000
vt 0.999500 0.437000
vt 0.987800 0.339800
vt 0.987800 0.061000
vt 0.991700 0.061500
vt 0.985400 0.047400
vt 0.981900 0.051300
vt 0.969700 0.040000
vt 0.970700 0.044400
vt 0.683100 0.041000
vt 0.683100 0.045400
vt 0.671900 0.047900
vt 0.676300 0.051300
vt 0.667500 0.061500
vt 0.667000 0.340300
vt 0.671400 0.060500
vt 0.675800 0.064900
vt 0.682600 0.056200
vt 0.688500 0.051300
vt 0.969200 0.049300
vt 0.978500 0.054700
vt 0.972700 0.324700
vt 0.972700 0.076700
vt 0.982900 0.064900
vt 0.967300 0.065400
vt 0.957500 0.060100
vt 0.701200 0.060100
vt 0.691400 0.065400
vt 0.686000 0.076700
vt 0.675800 0.336400
vt 0.671400 0.339800
vt 0.672400 0.351600
vt 0.661100 0.337900
vt 0.668000 0.351600
vt 0.683600 0.361800
vt 0.683100 0.365200
vt 0.688000 0.351600
vt 0.684600 0.357400
vt 0.676800 0.348600
vt 0.679700 0.346200
vt 0.686000 0.324700
vt 0.971700 0.360800
vt 0.971200 0.356900
vt 0.986800 0.354500
vt 0.982400 0.350600
vt 0.991700 0.339800
vt 0.969700 0.365700
vt 0.991700 0.358400
vt 0.996100 0.336400
vt 0.996100 0.064900
vt 0.988800 0.045400
vt 0.982900 0.336400
vt 0.977500 0.345700
vt 0.968800 0.352500
vt 0.691400 0.335900
vt 0.701200 0.341300
vt 0.957500 0.341300
vt 0.967300 0.335900
vt 0.378200 0.060100
vt 0.369100 0.065900
vt 0.358900 0.053700
vt 0.354200 0.064900
vt 0.364000 0.076700
vt 0.354200 0.336900
vt 0.364000 0.325200
vt 0.358900 0.348100
vt 0.369100 0.335900
vt 0.368200 0.353500
vt 0.378200 0.341800
vt 0.646500 0.353000
vt 0.636200 0.341300
vt 0.656700 0.348100
vt 0.646000 0.335900
vt 0.661100 0.337900
vt 0.667500 0.061500
vt 0.661100 0.064900
vt 0.668500 0.045900
vt 0.667000 0.340300
vt 0.672400 0.351600
vt 0.668000 0.351600
vt 0.683600 0.361800
vt 0.683100 0.365200
vt 0.971700 0.360800
vt 0.969700 0.365700
vt 0.986800 0.354500
vt 0.982400 0.350600
vt 0.977500 0.345700
vt 0.982900 0.336400
vt 0.971200 0.356900
vt 0.684600 0.357400
vt 0.676800 0.348600
vt 0.671400 0.339800
vt 0.675800 0.064900
vt 0.671400 0.060500
vt 0.676300 0.051300
vt 0.675800 0.336400
vt 0.679700 0.346200
vt 0.688000 0.351600
vt 0.968800 0.352500
vt 0.686000 0.324700
vt 0.691400 0.335900
vt 0.701200 0.341300
vt 0.957500 0.341300
vt 0.967300 0.335900
vt 0.972700 0.324700
vt 0.991700 0.358400
vt 0.991700 0.339800
vt 0.987800 0.339800
vt 0.982900 0.064900
vt 0.972700 0.076700
vt 0.978500 0.054700
vt 0.967300 0.065400
vt 0.987800 0.061000
vt 0.981900 0.051300
vt 0.985400 0.047400
vt 0.991700 0.061500
vt 0.996100 0.336400
vt 0.969200 0.049300
vt 0.970700 0.044400
vt 0.688500 0.051300
vt 0.683100 0.045400
vt 0.682600 0.056200
vt 0.957500 0.060100
vt 0.701200 0.060100
vt 0.691400 0.065400
vt 0.686000 0.076700
vt 0.671900 0.047900
vt 0.683100 0.041000
vt 0.969700 0.040000
vt 0.996100 0.064900
vt 0.988800 0.045400
vt 0.968300 0.035600
vt 0.683600 0.037100
vt 0.021100 0.072300
vt 0.650900 0.324700
vt 0.650900 0.076700
vt 0.656700 0.053200
vt 0.645500 0.065400
vt 0.646500 0.048300
vt 0.636200 0.060100
vt 0.368200 0.048300
vt 0.344500 0.344700
vt 0.341800 0.344200
vt 0.341800 0.056600
vt 0.344500 0.056600
vt 0.335000 0.045900
vt 0.336900 0.043900
vt 0.323500 0.039600
vt 0.323500 0.036600
vt 0.022300 0.039600
vt 0.022500 0.036600
vt 0.323500 0.361800
vt 0.335200 0.355500
vt 0.337900 0.060100
vt 0.331300 0.048800
vt 0.319800 0.043000
vt 0.008300 0.358400
vt 0.001700 0.344700
vt 0.004900 0.343800
vt 0.010800 0.355500
vt 0.022500 0.361300
vt 0.022500 0.364300
vt 0.323500 0.364300
vt 0.336900 0.357900
vt 0.010700 0.045400
vt 0.013400 0.048300
vt 0.007600 0.060100
vt 0.004500 0.056600
vt 0.025500 0.042500
vt 0.007500 0.042500
vt 0.001700 0.056600
vt 0.646500 0.048300
vt 0.656700 0.053200
vt 0.645500 0.065400
vt 0.650900 0.076700
vt 0.661100 0.064900
vt 0.650900 0.324700
vt 0.968300 0.035600
vt 0.683600 0.037100
vt 0.668500 0.045900
vt 0.646000 0.335900
vt 0.656700 0.348100
vt 0.636200 0.341300
vt 0.646500 0.353000
vt 0.380400 0.341300
vt 0.369400 0.353000
vt 0.370400 0.335400
vt 0.358900 0.347700
vt 0.364700 0.324700
vt 0.353800 0.336400
vt 0.364700 0.076700
vt 0.353800 0.064500
vt 0.370400 0.065400
vt 0.358900 0.053200
vt 0.380400 0.059600
vt 0.369400 0.047900
vt 0.636200 0.060100
vt 0.029200 0.074700
vt 0.029200 0.319300
vt 0.027400 0.061500
vt 0.038500 0.055700
vt 0.306900 0.055700
vt 0.034600 0.329100
vt 0.317900 0.062000
vt 0.311300 0.329100
vt 0.324700 0.072300
vt 0.316900 0.319300
vt 0.316900 0.074700
vt 0.311300 0.065400
vt 0.316900 0.319300
vt 0.306900 0.055700
vt 0.038500 0.055700
vt 0.311300 0.329100
vt 0.027400 0.061500
vt 0.034600 0.329100
vt 0.029200 0.319300
vt 0.021100 0.072300
vt 0.021100 0.328600
vt 0.317900 0.062000
vt 0.027500 0.339400
vt 0.324700 0.072300
vn 1.0000 -0.0003 0.0003
vn 1.0000 0.0010 0.0016
vn 0.6563 -0.6572 0.3705
vn 0.7908 -0.2665 0.5510
vn -0.3912 -0.0067 0.9203
vn -0.2964 0.4601 0.8369
vn 0.6563 -0.6573 0.3705
vn 0.7075 -0.0096 -0.7066
vn 0.7064 -0.0195 0.7076
vn 0.5946 -0.0173 0.8038
vn 0.7064 -0.0150 0.7077
vn -0.7016 -0.0130 0.7124
vn -0.8080 0.3771 -0.4527
vn -0.8180 0.5753 0.0000
vn -0.4640 0.5339 -0.7069
vn -0.1729 0.6891 -0.7037
vn -0.7086 -0.0101 -0.7055
vn 0.0019 0.7068 -0.7074
vn -0.0003 0.7084 0.7058
vn -0.0004 0.7084 0.7058
vn -0.1612 0.6900 0.7056
vn 0.2328 -0.9689 0.0841
vn 0.0200 0.0181 0.9996
vn 0.5514 -0.5377 -0.6378
vn 0.7885 -0.2733 0.5510
vn 0.7304 -0.1814 -0.6585
vn 0.7074 -0.0180 -0.7066
vn -0.7086 -0.0084 -0.7055
vn 0.1796 -0.7276 -0.6621
vn 0.7304 -0.1813 -0.6585
vn 0.5515 -0.5377 -0.6378
vn -0.0002 0.7069 -0.7073
vn 0.1797 -0.7276 -0.6621
vn -0.0012 -0.7068 -0.7074
vn -0.0024 -0.9725 0.2330
vn -0.0029 -0.7068 -0.7074
vn -0.0031 -0.9725 0.2330
vn -0.0020 -0.0004 1.0000
vn -0.0022 0.7084 0.7058
vn 0.0000 1.0000 0.0000
vn -0.0261 0.2733 0.9616
vn 0.0011 0.2587 0.9660
vn 0.0022 0.7081 0.7061
vn -0.0689 0.7128 0.6980
vn 0.0011 0.9663 0.2574
vn -0.2494 0.6730 0.6963
vn -0.0991 0.2629 0.9597
vn 0.0013 -0.2579 0.9662
vn 0.0705 -0.1851 0.9802
vn 0.2343 -0.6187 0.7499
vn 0.0032 -0.7029 0.7113
vn 0.4343 -0.8241 0.3637
vn -0.0522 0.9411 -0.3340
vn -0.0934 0.9627 0.2540
vn -0.3328 0.9083 0.2533
vn -0.6013 0.7565 0.2573
vn -0.4481 0.5627 0.6947
vn -0.4481 0.5627 0.6946
vn -0.1815 0.2260 0.9571
vn 0.1813 -0.1523 0.9716
vn 0.5206 -0.3826 0.7633
vn 0.2535 -0.6433 -0.7224
vn 0.3455 -0.8939 -0.2856
vn 0.7481 -0.6074 -0.2672
vn 0.7929 -0.5819 0.1811
vn 0.5783 -0.6410 0.5046
vn 0.6441 -0.1777 0.7440
vn 0.2051 -0.0646 0.9766
vn -0.2768 0.0809 0.9575
vn -0.2362 0.1595 0.9585
vn 0.9241 -0.2499 0.2890
vn 0.9246 -0.2507 -0.2868
vn 0.5459 -0.4520 -0.7054
vn 0.6651 -0.1844 -0.7236
vn -0.6939 0.2239 0.6843
vn -0.9200 0.3053 0.2457
vn -0.9605 0.0937 0.2619
vn -0.6001 0.3981 0.6939
vn -0.6939 0.2239 0.6844
vn -0.7083 0.0657 0.7028
vn -0.2645 0.0225 0.9641
vn -0.7098 0.0002 0.7044
vn -0.2544 -0.0028 0.9671
vn -0.8083 0.5310 0.2542
vn -0.9679 0.0010 0.2514
vn -0.9653 0.0003 -0.2612
vn -0.6001 0.3981 0.6938
vn -0.8078 0.5314 -0.2551
vn -0.9204 0.3028 -0.2475
vn -0.9596 0.0957 -0.2647
vn -0.6007 0.7564 -0.2590
vn -0.6000 0.3987 -0.6936
vn -0.6965 0.2203 -0.6829
vn 0.1807 -0.1542 -0.9714
vn 0.2042 -0.0647 -0.9768
vn -0.2811 0.0803 -0.9563
vn -0.1831 0.2278 -0.9563
vn -0.2385 0.1607 -0.9578
vn -0.2691 0.0242 -0.9628
vn -0.7090 0.0690 -0.7018
vn -0.7040 -0.0008 -0.7102
vn -0.2560 -0.0024 -0.9667
vn 0.2481 -0.0042 -0.9687
vn 0.6877 -0.0017 -0.7260
vn 0.0000 -1.0000 -0.0000
vn -1.0000 0.0000 0.0000
vn 1.0000 0.0000 0.0000
vn 1.0000 0.0005 0.0000
vn 1.0000 0.0001 -0.0001
vn -0.4403 0.2412 0.8649
vn -0.0000 0.2493 0.9684
vn 0.0009 0.7038 0.7104
vn -0.4256 0.6327 0.6469
vn -0.4257 0.8720 0.2415
vn -0.8074 0.3969 0.4365
vn -0.7975 0.5958 0.0948
vn -0.4381 0.8649 -0.2451
vn -0.7963 0.5965 -0.1001
vn -0.4252 0.6418 -0.6382
vn -0.8090 0.4231 -0.4080
vn -0.4266 0.2368 -0.8729
vn 0.0070 0.9686 0.2484
vn 0.0000 0.9672 -0.2540
vn -0.0000 0.7036 -0.7106
vn -0.0000 0.2493 -0.9684
vn -0.4350 -0.2351 -0.8692
vn -0.0001 0.2493 -0.9684
vn -0.0011 -0.2462 -0.9692
vn -0.4157 -0.6354 -0.6507
vn 0.0276 -0.7135 -0.7001
vn -0.7870 0.0864 -0.6108
vn -0.7851 -0.0958 -0.6120
vn -0.7850 -0.0958 -0.6120
vn -0.4157 -0.6355 -0.6507
vn -0.8160 -0.3970 -0.4202
vn -0.4344 -0.8700 -0.2334
vn -0.7946 -0.6008 -0.0877
vn -0.4404 -0.8679 0.2298
vn -0.7915 -0.6029 0.1004
vn -0.4441 -0.6394 0.6277
vn -0.0103 -0.9671 -0.2543
vn -0.0174 -0.9676 0.2517
vn -0.0174 -0.9677 0.2517
vn -0.0408 -0.6991 0.7139
vn 0.0050 -0.2405 0.9706
vn -0.4280 -0.2375 0.8720
vn -0.4441 -0.6394 0.6276
vn -0.4279 -0.2375 0.8721
vn -0.8166 -0.4173 0.3988
vn -0.4279 -0.2375 0.8720
vn -0.7981 -0.0861 0.5964
vn -0.4403 0.2412 0.8648
vn -0.7955 0.0952 0.5985
vn -0.4256 0.6327 0.6470
vn -0.3329 0.9078 -0.2551
vn -0.4484 0.5637 -0.6937
vn -0.2496 0.6739 -0.6954
vn -0.1930 0.9798 -0.0517
vn 0.0711 -0.1837 -0.9804
vn -0.0994 0.2655 -0.9590
vn -0.0694 0.7134 -0.6973
vn 0.0011 0.9660 -0.2587
vn 0.0011 0.9659 -0.2587
vn 0.0022 0.7088 -0.7054
vn -0.0266 0.2760 -0.9608
vn 0.0022 0.7089 -0.7053
vn 0.0011 0.2611 -0.9653
vn 0.0013 -0.2579 -0.9662
vn 0.0030 -0.7029 -0.7113
vn 0.0021 0.7088 -0.7054
vn 0.0018 -0.9648 0.2630
vn 0.0016 -0.9648 -0.2631
vn 0.0031 -0.7029 -0.7113
vn 0.2493 -0.0064 0.9684
vn 0.6869 -0.0024 0.7267
vn 0.9613 -0.0005 0.2754
vn 0.9617 -0.0003 -0.2740
vn 0.9617 -0.0004 -0.2740
vn 0.7575 -0.6059 -0.2431
vn 0.7524 -0.6142 0.2381
vn 0.0388 -0.9691 0.2436
vn -0.0640 -0.7622 0.6442
vn 0.6448 -0.4000 0.6513
vn -0.2504 -0.3921 0.8852
vn 0.6448 -0.4000 0.6514
vn 0.4744 -0.0362 0.8796
vn -0.4742 0.0362 0.8797
vn 0.1179 0.3030 0.9457
vn -0.6397 0.4007 0.6559
vn 0.0524 0.7613 0.6462
vn -0.7482 0.6189 0.2391
vn 0.0524 0.7613 0.6463
vn -0.7534 0.6095 -0.2468
vn -0.0292 0.9697 0.2425
vn 0.0524 0.7614 0.6462
vn 0.6367 0.7684 0.0642
vn 0.6814 0.6857 0.2559
vn 0.5965 0.5817 0.5530
vn 0.7927 0.4615 0.3984
vn 0.8492 0.3537 0.3922
vn 0.9432 0.1607 0.2908
vn 0.8944 0.4472 0.0000
vn 0.9967 0.0539 0.0604
vn 0.8945 0.4470 0.0000
vn 0.8946 0.4468 -0.0000
vn 0.8942 0.4476 -0.0002
vn 0.8942 0.4477 -0.0002
vn 0.8925 0.4511 -0.0002
vn 0.7926 0.4615 0.3984
vn 0.8923 0.4514 0.0000
vn 0.8924 0.4513 0.0000
vn 0.8930 0.4500 0.0032
vn 0.8930 0.4500 0.0031
vn 0.8935 0.4490 -0.0091
vn 0.6366 0.7692 -0.0550
vn -0.0403 0.9709 -0.2362
vn -0.6419 0.4075 -0.6495
vn -0.9959 0.0413 -0.0805
vn -0.9504 -0.1971 -0.2406
vn -0.4579 0.0347 -0.8883
vn -0.8556 -0.3707 -0.3612
vn 0.7858 0.4677 -0.4048
vn 0.2495 0.3957 -0.8838
vn 0.0565 0.7505 -0.6585
vn 0.6867 0.6617 -0.3009
vn 0.8946 0.4469 0.0018
vn -0.2500 -0.3947 -0.8841
vn 0.4592 -0.0347 -0.8877
vn -0.0681 -0.7533 -0.6542
vn 0.6465 -0.4043 -0.6470
vn 0.0456 -0.9702 -0.2381
vn 0.6464 -0.4044 -0.6470
vn 0.6465 -0.4044 -0.6470
vn -0.8056 -0.4710 -0.3594
vn -0.7344 -0.6328 -0.2454
vn -0.6742 -0.7366 -0.0532
vn -0.6725 -0.7377 0.0589
vn -0.7296 -0.6425 0.2342
vn 0.9965 0.0531 -0.0651
vn 0.9490 0.1488 -0.2778
vn 0.8440 0.3572 -0.4000
vn 0.8953 0.4454 0.0018
vn 0.8913 0.4534 -0.0035
vn 0.8929 0.4502 -0.0000
vn 0.8929 0.4503 -0.0000
vn 0.8940 0.4481 -0.0017
vn 0.8946 0.4468 0.0005
vn -0.5540 -0.8308 -0.0534
vn -0.5951 -0.8036 0.0058
vn -0.7541 -0.6126 -0.2367
vn -0.8418 -0.5366 -0.0587
vn -0.5869 -0.8096 0.0023
vn -0.8403 -0.5393 0.0560
vn -0.5869 -0.8097 0.0023
vn -0.5871 -0.8095 -0.0006
vn -0.7462 -0.6192 0.2445
vn -0.5872 -0.8095 -0.0006
vn -0.5975 -0.8019 -0.0031
vn -0.5788 -0.7258 0.3717
vn -0.5590 -0.8278 0.0476
vn -0.4942 -0.8059 0.3260
vn -0.5527 -0.8315 -0.0553
vn -0.3616 -0.9023 0.2347
vn -0.5971 -0.8022 0.0020
vn -0.2245 -0.9722 0.0672
vn -0.5972 -0.8021 0.0020
vn 0.4752 -0.8471 -0.2381
vn -0.2267 -0.9721 -0.0607
vn -0.3703 -0.8956 -0.2465
vn 0.4682 -0.8494 0.2434
vn 0.2888 -0.7084 0.6440
vn -0.0372 -0.4657 0.8842
vn -0.4301 -0.1876 0.8831
vn -0.7547 0.0720 0.6521
vn -0.2820 0.7117 0.6434
vn 0.3102 0.9094 0.2771
vn 0.2174 0.9738 0.0665
vn 0.0469 0.4702 0.8813
vn 0.4324 0.1882 0.8818
vn 0.7539 -0.0710 0.6531
vn 0.9468 -0.2173 0.2374
vn 0.8686 0.4912 -0.0656
vn 0.9476 -0.2070 -0.2433
vn 0.7577 -0.0750 -0.6483
vn 0.8693 0.4906 0.0602
vn 0.7714 0.5637 0.2953
vn 0.5736 0.7088 0.4107
vn 0.4818 0.7970 0.3643
vn 0.5968 0.8024 0.0003
vn 0.5931 0.8051 -0.0005
vn 0.5560 0.8301 0.0426
vn 0.5539 0.8312 -0.0489
vn 0.5944 0.8041 0.0067
vn 0.5893 0.8079 0.0005
vn -0.9455 0.2206 0.2397
vn -0.9454 0.2206 0.2397
vn -0.4617 0.8529 0.2435
vn -0.4617 0.8530 0.2435
vn 0.2185 0.9740 -0.0598
vn 0.5892 0.8080 0.0004
vn 0.5894 0.8079 0.0006
vn 0.5894 0.8079 -0.0006
vn 0.3205 0.9006 -0.2935
vn 0.5893 0.8079 -0.0005
vn 0.5943 0.8042 -0.0038
vn -0.4687 0.8508 -0.2375
vn -0.2726 0.7052 -0.6546
vn -0.7566 0.0743 -0.6497
vn -0.7566 0.0743 -0.6496
vn -0.9463 0.2126 -0.2434
vn -0.2726 0.7051 -0.6546
vn 0.4735 0.7967 -0.3756
vn 0.0446 0.4749 -0.8789
vn 0.5667 0.7098 -0.4185
vn 0.4181 0.1815 -0.8901
vn 0.7832 0.5547 -0.2809
vn 0.5943 0.8042 -0.0039
vn 0.5585 0.8284 0.0436
vn 0.5666 0.7098 -0.4185
vn 0.5527 0.8320 -0.0482
vn 0.5949 0.8038 0.0006
vn 0.5970 0.8023 -0.0014
vn 0.5970 0.8022 -0.0014
vn 0.2813 -0.7020 -0.6543
vn -0.0353 -0.4684 -0.8828
vn -0.4177 -0.1814 -0.8903
vn -0.4178 -0.1814 -0.8903
vn -0.2726 0.7052 -0.6545
vn -0.5725 -0.7259 -0.3812
vn -0.4884 -0.8052 -0.3364
vn -0.5971 -0.8021 0.0018
vn -0.5978 -0.8016 -0.0004
vn -0.2245 -0.9721 0.0672
vn -0.5981 -0.8014 -0.0000
vn -0.5978 -0.8016 -0.0003
vn -0.5978 -0.8017 -0.0005
vn -0.5977 -0.8017 -0.0005
vn -0.5958 -0.8031 0.0005
vn -0.5958 -0.8032 0.0005
vn -0.5574 -0.8288 0.0494
vn 0.9573 0.0650 -0.2818
vn 0.8542 0.4768 -0.2073
vn 0.8648 0.4451 0.2325
vn 0.9722 -0.0205 0.2333
vn 0.6346 0.3964 0.6634
vn 0.7110 -0.1039 0.6955
vn 0.2399 0.3950 0.8868
vn 0.2458 -0.0989 0.9643
vn -0.2484 0.3686 0.8958
vn -0.2483 0.3686 0.8958
vn -0.2361 -0.1166 0.9647
vn 0.2294 0.5139 -0.8266
vn 0.0813 0.7771 -0.6241
vn 0.3892 0.8356 -0.3877
vn 0.6308 0.4739 -0.6144
vn 0.5409 0.8353 -0.0985
vn 0.5380 0.8385 0.0863
vn 0.3678 0.8416 0.3956
vn 0.0859 0.7881 0.6096
vn 0.6346 0.3964 0.6635
vn -0.6995 0.0778 -0.7104
vn -0.9606 0.0545 -0.2725
vn -0.8793 0.4245 -0.2160
vn -0.6334 0.4491 -0.6302
vn -0.2338 0.4972 -0.8355
vn -0.2338 0.4971 -0.8356
vn -0.2412 0.1440 -0.9597
vn 0.2363 0.1951 -0.9519
vn -0.2338 0.4972 -0.8356
vn 0.6923 0.0845 -0.7167
vn -0.6526 0.3786 0.6563
vn -0.4579 0.7895 0.4088
vn -0.6533 0.7505 0.0997
vn -0.8797 0.4059 0.2478
vn -0.6527 0.7517 -0.0943
vn -0.4294 0.7985 -0.4218
vn -0.0980 0.7905 -0.6045
vn -0.0959 0.7909 0.6044
vn -0.6527 0.3786 0.6563
vn -0.7165 -0.0686 0.6942
vn -0.9725 -0.0174 0.2322
vn -0.8606 -0.3668 0.3533
vn -0.9447 -0.2104 0.2515
vn -0.8952 -0.4456 -0.0018
vn -0.8890 -0.4580 -0.0005
vn -0.9960 -0.0646 0.0617
vn -0.8887 -0.4584 0.0033
vn -0.8116 -0.4686 0.3488
vn -0.6398 0.4007 0.6559
vn -0.8933 -0.4494 0.0035
vn -0.8911 -0.4538 -0.0074
vn -0.8931 -0.4499 -0.0030
vn -0.8933 -0.4494 0.0030
vn -0.8930 -0.4501 0.0009
vn -0.8940 -0.4481 0.0004
vn -0.8941 -0.4479 -0.0010
vn -0.8940 -0.4480 0.0004
vn -0.8936 -0.4488 0.0007
vn -0.8940 -0.4480 -0.0011
vn -0.8929 -0.4503 -0.0033
vn -0.8929 -0.4501 -0.0033
vn -0.8932 -0.4497 0.0026
vn 1.0000 -0.0016 -0.0010
vn 1.0000 0.0004 -0.0002
vn 1.0000 0.0002 -0.0004
vn 1.0000 0.0000 -0.0005
vn 1.0000 -0.0002 -0.0004
vn 1.0000 0.0011 -0.0016
usemtl ABY_Machine_Squareduct_Corner
s 1
f 1/1/1 2/2/1 3/3/2
f 4/4/3 5/5/4 6/6/5
f 6/6/5 7/7/6 4/4/7
f 8/8/8 9/9/9 5/5/10
f 6/6/5 5/5/10 9/9/9
f 9/9/11 10/10/12 6/6/5
f 11/11/13 6/6/5 10/10/12
f 7/7/14 6/6/14 11/11/13
f 11/11/13 12/12/15 7/7/6
f 7/7/6 12/12/15 13/13/16
f 10/10/12 14/14/17 11/11/13
f 13/13/16 1/15/18 15/16/19
f 15/16/20 16/17/21 13/13/16
f 13/13/16 16/17/21 7/7/6
f 7/7/6 16/17/21 17/18/22
f 17/18/23 4/4/23 7/7/23
f 18/19/24 4/4/7 17/18/22
f 5/5/25 4/4/7 18/19/24
f 18/19/24 19/20/26 5/5/25
f 5/5/25 19/20/26 8/8/27
f 14/21/28 8/8/27 19/20/26
f 17/18/22 20/22/29 18/19/24
f 19/20/26 11/23/13 14/21/17
f 12/24/15 11/23/13 19/20/26
f 19/20/30 18/19/31 12/24/15
f 13/25/16 12/24/15 18/19/24
f 18/19/24 20/22/29 13/25/16
f 1/26/32 13/25/16 20/22/33
f 20/22/29 21/27/34 1/26/32
f 22/28/35 21/27/36 20/22/29
f 20/22/29 17/18/22 22/28/37
f 22/28/38 17/18/38 16/17/38
f 16/17/21 15/16/39 22/28/37
f 23/29/40 24/30/40 25/31/40
f 25/31/40 26/32/40 23/29/40
f 24/30/40 27/33/40 28/34/40
f 29/35/41 30/36/42 31/37/43
f 32/38/44 31/37/43 33/39/45
f 31/37/43 32/38/44 29/35/41
f 29/35/41 32/38/44 34/40/46
f 34/40/46 35/41/47 29/35/41
f 30/36/42 29/35/41 35/41/47
f 36/42/48 30/36/42 35/41/47
f 37/43/49 36/42/48 35/41/47
f 36/42/48 37/43/49 38/44/50
f 38/44/50 39/45/51 36/42/48
f 39/45/51 38/44/50 40/46/52
f 41/47/53 42/48/54 33/39/45
f 33/39/45 42/48/54 32/38/44
f 32/38/44 42/48/54 43/49/55
f 43/49/55 34/40/46 32/38/44
f 34/40/46 43/49/55 44/50/56
f 44/50/56 45/51/57 34/40/46
f 35/41/47 34/40/46 45/51/58
f 45/51/58 46/52/59 35/41/47
f 37/53/49 35/41/47 46/52/59
f 46/52/59 47/54/60 37/53/49
f 38/55/50 37/53/49 47/54/60
f 47/54/60 48/56/61 38/55/50
f 40/57/52 38/55/50 48/56/61
f 49/58/62 50/59/63 51/60/64
f 51/60/64 50/59/63 40/57/52
f 40/57/52 52/61/65 51/60/64
f 48/56/66 52/61/66 40/57/52
f 52/61/65 48/56/61 53/62/67
f 53/62/67 48/56/61 47/54/60
f 47/54/60 54/63/68 53/62/67
f 54/63/68 47/54/60 55/64/69
f 47/54/60 46/52/59 55/64/69
f 46/52/59 56/65/70 55/64/69
f 53/62/67 57/66/71 52/61/65
f 51/60/64 52/61/65 57/66/71
f 57/66/71 58/67/72 51/60/64
f 59/68/73 51/60/64 58/67/72
f 51/60/64 59/68/73 49/58/62
f 58/67/72 60/69/74 59/68/73
f 61/70/75 62/71/76 63/72/77
f 62/71/76 61/70/75 64/73/78
f 56/65/70 64/73/78 61/70/79
f 61/70/75 55/64/69 56/65/70
f 55/64/69 61/70/75 65/74/80
f 65/74/80 66/75/81 55/64/69
f 66/75/81 65/74/80 67/76/82
f 67/76/82 68/77/83 66/75/81
f 55/64/69 66/75/81 68/77/83
f 54/78/68 55/64/69 68/77/83
f 64/73/78 69/79/84 62/71/76
f 70/80/85 67/76/82 65/74/80
f 71/81/86 70/80/85 63/72/77
f 65/74/80 63/72/77 70/80/85
f 63/72/77 65/74/80 61/70/75
f 56/65/70 46/52/59 45/51/57
f 45/51/58 64/73/78 56/65/70
f 64/73/87 45/51/58 44/50/56
f 44/50/56 69/79/84 64/73/78
f 72/82/88 69/79/84 44/50/56
f 62/71/76 69/79/84 72/82/88
f 72/82/88 73/83/89 62/71/76
f 63/72/77 62/71/76 73/83/89
f 73/83/89 74/84/90 63/72/77
f 63/72/77 74/84/90 71/81/86
f 44/50/56 75/85/91 72/82/88
f 76/86/92 72/82/88 75/85/91
f 72/82/88 76/86/92 77/87/93
f 77/87/93 73/83/89 72/82/88
f 78/88/94 79/89/95 80/90/96
f 78/88/94 80/90/96 81/91/97
f 80/90/96 82/92/98 81/91/97
f 81/91/97 82/92/98 76/86/92
f 76/86/92 82/92/98 80/90/96
f 80/90/96 77/87/93 76/86/92
f 77/87/93 80/90/96 83/93/99
f 83/93/99 84/94/100 77/87/93
f 73/83/89 77/87/93 84/94/100
f 84/94/100 74/84/90 73/83/89
f 71/81/86 74/84/90 84/94/100
f 84/94/100 28/95/101 71/81/86
f 28/95/101 84/94/100 83/93/99
f 83/93/99 25/96/102 28/95/101
f 25/96/102 83/93/99 80/90/96
f 26/97/103 25/96/102 80/90/96
f 79/98/95 26/97/103 80/90/96
f 26/97/103 79/98/95 60/99/74
f 60/99/74 85/100/104 26/97/103
f 28/34/40 27/33/40 86/101/40
f 86/101/40 71/102/40 28/34/40
f 14/103/105 87/104/105 88/105/105
f 14/103/105 88/105/105 89/106/105
f 8/107/105 14/103/105 89/106/105
f 89/106/105 90/108/105 8/107/105
f 8/107/105 90/108/105 91/109/105
f 8/107/105 91/109/105 92/110/105
f 10/111/105 9/112/105 93/113/105
f 93/113/105 94/114/105 10/111/105
f 31/115/106 30/116/106 95/117/106
f 95/117/106 96/118/106 31/115/106
f 96/118/106 97/119/106 33/120/106
f 85/121/40 98/122/40 99/123/40
f 100/124/106 33/120/106 97/119/106
f 97/119/106 101/125/106 100/124/106
f 21/126/107 22/127/108 102/128/108
f 102/128/109 103/129/109 21/126/109
f 15/130/107 1/1/107 3/3/107
f 3/3/107 104/131/107 15/130/107
f 105/132/110 106/133/111 107/134/112
f 107/134/112 108/135/113 105/132/110
f 109/136/114 108/135/113 107/134/112
f 96/118/115 108/135/113 109/136/114
f 109/136/114 97/119/116 96/118/115
f 97/119/116 109/136/114 110/137/117
f 110/137/117 101/125/118 97/119/116
f 101/125/118 110/137/117 111/138/119
f 111/138/119 112/139/120 101/125/118
f 112/139/120 111/138/119 113/140/121
f 107/134/112 103/141/122 109/136/114
f 110/137/117 109/136/114 103/141/122
f 103/141/122 102/142/123 110/137/117
f 111/138/119 110/137/117 102/142/123
f 102/142/123 114/143/124 111/138/119
f 113/140/121 111/138/119 114/143/124
f 114/143/124 115/144/125 113/140/121
f 116/145/126 113/140/121 115/144/125
f 115/144/127 117/146/128 116/145/126
f 118/147/129 116/145/126 117/146/128
f 117/146/128 119/148/130 118/147/129
f 113/140/121 120/149/131 112/139/120
f 120/149/131 113/140/121 116/145/126
f 116/145/126 121/150/132 120/149/131
f 121/150/133 116/145/126 118/147/134
f 118/147/129 122/151/135 121/150/132
f 122/151/135 118/147/129 123/152/136
f 123/152/136 124/153/137 122/151/135
f 124/153/137 123/152/136 125/154/138
f 125/154/138 126/155/139 124/153/137
f 126/155/139 125/154/138 127/156/140
f 123/152/136 118/147/129 119/148/130
f 119/148/130 104/157/141 123/152/136
f 125/154/138 123/152/136 104/157/141
f 104/157/141 3/158/142 125/154/138
f 125/154/138 3/158/143 2/159/144
f 2/159/144 127/156/140 125/154/138
f 127/156/140 2/159/144 128/160/145
f 128/160/145 129/161/146 127/156/147
f 129/161/148 128/160/145 106/133/111
f 106/133/111 105/132/110 129/161/148
f 127/156/140 130/162/149 126/155/139
f 130/162/149 127/156/140 129/161/148
f 129/161/150 131/163/151 130/162/149
f 131/163/151 129/161/148 105/132/152
f 105/132/110 95/117/153 131/163/151
f 95/117/153 105/132/152 108/135/154
f 108/135/113 96/118/115 95/117/153
f 23/29/40 26/32/40 85/121/40
f 44/50/56 43/49/55 132/164/155
f 132/164/155 75/85/91 44/50/56
f 133/165/156 75/85/91 132/164/155
f 75/85/91 133/165/156 76/86/92
f 76/86/92 133/165/156 81/91/97
f 81/91/97 133/165/156 134/166/157
f 132/164/155 134/166/157 133/165/156
f 134/166/157 132/164/155 41/47/158
f 41/47/158 132/164/155 43/49/55
f 43/49/55 42/48/54 41/47/158
f 59/167/73 60/168/74 79/89/95
f 79/89/95 78/88/94 59/167/73
f 59/167/73 78/88/94 135/169/159
f 135/169/159 78/88/94 81/91/97
f 81/91/97 136/170/160 135/169/159
f 134/166/157 136/170/160 81/91/97
f 136/170/160 134/166/157 137/171/161
f 41/47/53 137/171/161 134/166/157
f 137/171/161 41/47/53 100/172/162
f 33/39/45 100/172/162 41/47/53
f 135/169/159 49/173/62 59/167/73
f 100/172/163 138/174/164 137/171/161
f 139/175/165 137/171/161 138/174/166
f 137/171/161 139/175/165 136/170/160
f 136/170/160 139/175/165 140/176/167
f 135/177/159 136/170/160 140/176/167
f 141/178/168 135/177/159 140/176/167
f 49/179/62 135/177/159 141/178/168
f 141/178/168 142/180/169 49/179/62
f 138/174/170 140/176/167 139/175/165
f 99/123/40 143/181/40 85/121/40
f 85/121/40 143/181/40 23/29/40
f 28/34/40 25/31/40 24/30/40
f 40/46/52 144/182/171 39/45/51
f 145/183/172 144/182/171 40/46/52
f 40/46/52 50/184/63 145/183/172
f 142/185/173 145/183/172 50/184/63
f 50/184/63 49/186/62 142/185/169
f 146/187/174 54/78/68 68/77/83
f 53/188/67 54/78/68 146/187/174
f 146/187/174 147/189/175 53/188/67
f 57/190/71 53/188/67 147/189/175
f 147/189/175 148/191/176 57/190/71
f 58/192/72 57/190/71 148/191/176
f 148/191/176 98/193/177 58/192/72
f 58/192/72 98/193/178 85/194/104
f 85/194/104 60/195/74 58/192/72
f 149/196/179 150/197/180 151/198/181
f 152/199/182 151/198/181 150/197/180
f 150/197/180 153/200/183 152/199/182
f 154/201/184 152/199/182 153/200/185
f 153/200/185 155/202/186 154/201/184
f 156/203/187 154/201/184 155/202/186
f 155/202/186 157/204/188 156/203/187
f 158/205/189 156/203/187 157/204/188
f 157/204/188 159/206/190 158/205/189
f 160/207/191 158/205/189 159/206/192
f 161/208/193 160/207/191 162/209/194
f 159/206/195 162/209/194 160/207/191
f 163/210/196 162/209/194 159/206/192
f 159/206/190 164/211/197 163/210/196
f 164/211/197 159/206/190 157/204/188
f 157/204/198 165/212/199 164/211/198
f 165/212/199 157/204/188 155/202/186
f 155/202/186 166/213/200 165/212/199
f 166/213/200 155/202/186 153/200/185
f 153/200/185 167/214/201 166/213/200
f 168/215/202 169/216/202 170/217/203
f 167/214/201 170/217/203 169/216/204
f 169/216/205 171/218/206 167/214/201
f 166/213/200 167/214/201 171/218/206
f 171/218/207 172/219/208 166/213/200
f 165/212/209 166/213/200 172/219/210
f 172/219/211 173/220/212 165/212/199
f 164/211/197 165/212/199 173/220/213
f 173/220/213 174/221/214 164/211/197
f 163/210/196 164/211/197 174/221/214
f 174/221/214 175/222/202 163/210/196
f 176/223/215 163/210/196 175/222/202
f 162/209/194 163/210/196 176/223/215
f 176/223/215 177/224/216 162/209/194
f 162/209/194 177/224/216 161/208/193
f 178/225/217 161/208/193 177/224/216
f 179/226/218 161/208/193 178/225/217
f 178/225/217 180/227/219 179/226/218
f 180/227/219 178/225/217 181/228/220
f 181/228/220 182/229/221 180/227/219
f 183/230/222 184/231/223 185/232/224
f 185/232/224 186/233/225 183/230/222
f 186/233/225 185/232/224 177/224/216
f 177/224/216 176/223/215 186/233/225
f 186/233/225 176/223/215 187/234/226
f 175/222/202 187/234/226 176/223/215
f 177/224/216 185/232/224 178/225/217
f 181/228/220 178/225/217 185/232/224
f 185/232/224 184/231/223 181/228/220
f 188/235/227 181/228/220 184/231/223
f 184/231/223 189/236/228 188/235/227
f 190/237/229 188/235/227 189/236/228
f 189/236/228 191/238/230 190/237/229
f 192/239/231 190/237/229 191/238/232
f 191/238/233 149/196/179 192/239/231
f 151/198/181 192/239/231 149/196/179
f 182/229/221 181/228/220 188/235/227
f 188/235/227 193/240/234 182/229/221
f 193/240/234 188/235/227 190/237/229
f 190/237/229 194/241/235 193/240/234
f 194/241/235 190/237/229 192/239/231
f 192/239/231 195/242/236 194/241/235
f 195/242/236 192/239/231 151/198/181
f 151/198/181 196/243/237 195/242/236
f 196/243/237 151/198/181 152/199/182
f 152/199/182 197/244/238 196/243/237
f 167/214/201 153/200/185 150/197/180
f 150/197/180 170/217/203 167/214/201
f 170/217/203 150/197/180 149/196/179
f 149/196/179 198/245/239 170/217/203
f 198/245/239 149/196/179 191/238/233
f 191/238/233 199/246/240 198/245/239
f 199/246/240 191/238/232 189/236/228
f 189/236/228 200/247/241 199/246/240
f 200/247/241 189/236/228 184/231/223
f 184/231/223 183/230/222 200/247/241
f 187/234/226 201/248/242 186/233/225
f 183/230/222 186/233/225 201/248/242
f 201/248/242 202/249/243 183/230/222
f 200/247/241 183/230/222 202/249/243
f 202/249/243 203/250/244 200/247/241
f 199/246/240 200/247/241 203/250/245
f 203/250/245 204/251/246 199/246/240
f 198/245/239 199/246/240 204/251/246
f 204/251/246 168/215/247 198/245/239
f 170/217/203 198/245/239 168/215/202
f 205/252/248 206/253/249 207/254/250
f 208/255/251 207/254/250 206/253/249
f 206/253/249 209/256/252 208/255/251
f 210/257/253 208/255/251 209/256/252
f 209/256/254 211/258/255 210/257/253
f 212/259/256 210/257/253 211/258/257
f 211/258/257 213/260/258 212/259/256
f 214/261/259 212/259/256 213/260/258
f 213/260/258 215/262/260 214/261/259
f 216/263/261 214/261/259 215/262/260
f 215/262/260 217/264/262 216/263/261
f 218/265/263 216/263/261 217/264/262
f 217/264/262 219/266/264 218/265/263
f 220/267/265 218/265/263 219/266/266
f 221/268/267 222/269/268 223/270/269
f 222/269/268 221/268/267 224/271/270
f 224/271/270 220/267/265 222/269/268
f 220/267/265 224/271/270 225/272/271
f 225/272/271 218/273/263 220/267/265
f 218/273/263 225/272/271 226/274/272
f 226/274/272 216/275/261 218/273/263
f 216/275/261 226/274/272 227/276/273
f 227/276/273 214/277/259 216/275/261
f 214/277/259 227/276/273 228/278/274
f 229/279/275 230/280/276 231/281/277
f 230/280/276 229/279/275 232/282/278
f 232/282/278 229/279/275 228/278/274
f 228/278/274 227/276/273 232/282/278
f 233/283/279 232/282/278 227/276/273
f 227/276/273 226/274/272 233/283/279
f 234/284/280 233/283/279 226/274/272
f 226/274/272 225/272/271 234/284/280
f 235/285/281 234/284/280 225/272/271
f 225/272/271 224/271/270 235/285/281
f 236/286/282 237/287/283 238/288/284
f 237/287/283 236/286/282 239/289/285
f 239/289/285 235/285/281 237/287/283
f 235/285/281 239/289/285 240/290/286
f 240/290/286 234/284/280 235/285/281
f 234/284/280 240/290/286 241/291/287
f 241/291/287 233/283/279 234/284/280
f 233/283/279 241/291/287 242/292/288
f 242/292/288 232/282/278 233/283/279
f 232/282/278 242/292/288 230/280/276
f 240/290/286 239/289/285 243/293/289
f 243/293/289 244/294/290 240/290/286
f 241/291/287 240/290/286 244/294/290
f 244/294/290 245/295/291 241/291/287
f 242/292/288 241/291/287 245/295/291
f 245/295/291 246/296/292 242/292/288
f 230/280/276 242/292/288 246/296/292
f 246/296/292 247/297/293 230/280/276
f 231/281/277 230/280/276 247/297/293
f 247/297/293 248/298/294 231/281/277
f 228/278/274 212/299/256 214/277/259
f 212/299/256 228/278/274 249/300/295
f 249/300/296 228/278/274 229/279/275
f 229/279/275 250/301/297 249/300/296
f 231/281/277 250/301/297 229/279/275
f 250/301/298 231/281/277 251/302/299
f 251/302/299 231/281/277 248/298/300
f 248/298/301 252/303/302 251/302/299
f 253/304/303 251/302/299 252/303/304
f 252/303/304 254/305/305 253/304/303
f 255/306/306 256/307/307 257/308/308
f 257/308/309 258/309/310 255/306/306
f 250/301/298 255/306/306 258/309/310
f 258/309/310 249/300/295 250/301/297
f 210/310/253 249/300/296 258/309/310
f 249/300/295 210/310/253 212/299/256
f 251/302/299 255/306/306 250/301/298
f 255/306/306 251/302/299 253/304/303
f 253/304/303 256/307/307 255/306/306
f 256/307/311 253/304/303 259/311/312
f 259/311/312 260/312/313 256/307/307
f 260/312/313 259/311/312 261/313/314
f 261/313/314 262/314/315 260/312/313
f 262/314/315 261/313/314 263/315/316
f 263/315/316 238/288/284 262/314/315
f 238/288/284 263/315/316 236/286/282
f 259/311/312 253/304/303 254/305/317
f 254/305/305 264/316/318 259/311/312
f 261/313/319 259/311/312 264/316/318
f 264/316/318 265/317/320 261/313/314
f 263/315/316 261/313/314 265/317/320
f 265/317/320 266/318/321 263/315/316
f 236/286/282 263/315/316 266/318/321
f 266/318/321 267/319/322 236/286/282
f 239/289/285 236/286/282 267/319/323
f 267/319/323 243/293/289 239/289/285
f 237/287/283 235/285/281 224/271/270
f 224/271/270 221/268/267 237/287/283
f 238/288/284 237/287/283 221/268/267
f 221/268/267 268/320/324 238/288/284
f 262/314/315 238/288/284 268/320/324
f 268/320/324 269/321/325 262/314/315
f 260/312/313 262/314/315 269/321/325
f 269/321/325 270/322/326 260/312/313
f 256/307/307 260/312/313 270/322/327
f 270/322/326 257/308/308 256/307/328
f 258/309/310 208/323/251 210/310/253
f 208/323/251 258/309/310 257/308/308
f 257/308/308 207/324/250 208/323/251
f 207/324/250 257/308/308 270/322/327
f 270/322/327 271/325/329 207/324/250
f 271/325/329 270/322/327 269/321/325
f 269/321/325 272/326/330 271/325/329
f 272/326/330 269/321/325 268/320/324
f 268/320/324 223/270/269 272/326/330
f 223/270/269 268/320/324 221/268/267
f 70/327/40 71/102/40 86/101/40
f 219/266/331 273/328/332 220/267/333
f 222/269/268 220/267/265 273/328/334
f 273/328/335 274/329/336 222/269/268
f 223/330/269 222/269/268 274/329/337
f 274/329/336 275/331/338 223/330/269
f 272/332/330 223/330/269 275/331/339
f 275/331/338 276/333/340 272/332/330
f 271/334/329 272/332/330 276/333/340
f 276/333/340 205/252/248 271/334/329
f 207/254/250 271/334/329 205/252/248
f 277/335/341 278/336/342 279/337/343
f 279/337/343 87/338/344 277/335/341
f 87/338/344 279/337/343 280/339/345
f 280/339/345 88/340/346 87/338/344
f 88/340/346 280/339/345 281/341/347
f 281/341/347 89/342/348 88/340/346
f 89/342/348 281/341/347 282/343/349
f 282/343/350 90/344/351 89/342/348
f 283/345/352 23/29/353 143/181/354
f 143/181/354 284/346/355 283/345/352
f 284/346/355 143/181/354 99/123/356
f 99/123/356 278/336/342 284/346/355
f 278/336/342 99/123/356 285/347/357
f 285/347/357 279/337/343 278/336/342
f 279/337/343 285/347/357 286/348/358
f 286/348/358 280/339/345 279/337/343
f 280/339/345 286/348/358 287/349/359
f 287/349/359 281/341/347 280/339/360
f 288/350/361 289/351/362 290/352/363
f 290/352/363 291/353/364 288/350/361
f 288/350/361 291/353/364 292/354/365
f 292/354/366 93/355/367 288/350/361
f 94/356/368 93/355/367 292/354/369
f 292/354/369 283/345/352 94/356/368
f 293/357/370 94/356/368 283/345/352
f 283/345/352 284/346/355 293/357/370
f 293/357/370 284/346/355 278/336/342
f 278/336/342 277/335/341 293/357/370
f 294/358/371 295/359/372 296/360/373
f 296/360/373 297/361/374 294/358/371
f 297/361/374 296/360/373 86/101/375
f 86/101/375 290/352/363 297/361/374
f 290/352/363 86/101/375 27/33/376
f 27/33/376 291/353/364 290/352/363
f 291/353/364 27/33/376 24/30/377
f 24/30/377 292/354/369 291/353/364
f 292/354/369 24/30/377 23/29/353
f 23/29/353 283/345/352 292/354/369
f 281/341/347 287/349/359 298/362/378
f 298/362/378 282/343/350 281/341/347
f 282/343/350 298/362/378 295/359/372
f 295/359/372 294/358/371 282/343/350
f 90/344/351 282/343/350 294/358/371
f 294/358/379 91/363/380 90/344/351
f 91/363/380 294/358/379 297/361/374
f 297/361/374 92/364/381 91/363/380
f 289/351/362 92/364/381 297/361/374
f 297/361/374 290/352/363 289/351/362
f 299/365/382 300/366/383 301/367/384
f 302/368/385 301/367/384 300/366/383
f 300/366/383 303/369/386 302/368/385
f 304/370/387 302/368/385 303/369/386
f 197/244/238 152/199/182 154/201/184
f 154/201/184 305/371/388 197/244/238
f 305/371/388 154/201/184 156/203/187
f 156/203/187 299/372/382 305/371/388
f 299/372/382 156/203/187 158/205/389
f 158/205/189 300/373/383 299/372/382
f 300/373/383 158/205/389 160/207/191
f 160/207/191 303/369/386 300/373/383
f 303/369/386 160/207/191 161/208/193
f 161/208/193 179/226/218 303/369/386
f 303/369/386 179/226/218 304/370/387
f 306/374/390 304/370/387 179/226/218
f 179/226/391 180/375/219 306/374/391
f 307/376/392 306/374/390 180/375/219
f 180/375/219 182/377/221 307/376/392
f 308/378/393 307/376/392 182/377/221
f 182/377/221 193/379/234 308/378/393
f 309/380/394 308/378/393 193/379/234
f 193/379/234 194/381/235 309/380/394
f 310/382/395 309/380/394 194/381/235
f 194/381/235 195/383/236 310/382/395
f 311/384/396 310/382/397 195/383/236
f 195/383/236 196/385/237 311/384/396
f 312/386/398 311/384/399 196/385/237
f 196/385/237 197/387/238 312/386/398
f 313/388/400 312/386/398 197/387/238
f 197/387/238 305/389/388 313/388/401
f 314/390/402 313/388/400 305/389/388
f 305/389/388 299/365/382 314/390/402
f 301/367/384 314/390/402 299/365/382
f 1/1/1 128/391/403 2/2/1
f 86/101/40 296/360/40 70/327/40
f 1/1/107 21/126/107 106/392/107
f 67/393/40 70/327/40 296/360/40
f 298/362/40 68/394/40 67/393/40
f 296/360/40 295/359/40 67/393/40
f 106/392/107 128/391/107 1/1/107
f 67/393/40 295/359/40 298/362/40
f 146/395/40 68/394/40 298/362/40
f 298/362/40 287/349/40 146/395/40
f 21/126/107 107/396/107 106/392/107
f 147/397/40 146/395/40 287/349/40
f 21/126/107 103/129/107 107/396/107
f 287/349/40 286/348/40 147/397/40
f 22/127/404 114/398/404 102/128/404
f 285/347/40 148/399/40 147/397/40
f 22/127/405 115/400/405 114/398/405
f 147/397/40 286/348/40 285/347/40
f 22/127/406 15/130/406 117/401/406
f 98/122/40 148/399/40 285/347/40
f 117/401/406 115/400/406 22/127/406
f 285/347/40 99/123/40 98/122/40
f 15/130/407 119/402/407 117/401/407
f 92/110/105 289/403/105 9/112/105
f 15/130/408 104/131/408 119/402/408
f 9/112/105 8/107/105 92/110/105
f 144/404/106 145/405/106 124/153/106
f 9/112/105 289/403/105 288/406/105
f 124/153/106 126/155/106 144/404/106
f 9/112/105 288/406/105 93/113/105
f 145/405/106 142/407/106 122/151/106
f 10/111/105 94/114/105 293/408/105
f 122/151/106 124/153/106 145/405/106
f 10/111/105 293/408/105 277/409/105
f 142/407/106 141/410/106 121/150/106
f 277/409/105 87/104/105 14/103/105
f 121/150/106 122/151/106 142/407/106
f 14/103/105 10/111/105 277/409/105
f 141/410/106 140/411/106 120/149/106
f 126/155/106 130/162/106 39/412/106
f 120/149/106 121/150/106 141/410/106
f 39/412/106 144/404/106 126/155/106
f 140/411/106 138/413/106 112/139/106
f 130/162/106 131/163/106 36/414/106
f 112/139/106 120/149/106 140/411/106
f 36/414/106 39/412/106 130/162/106
f 138/413/106 100/124/106 101/125/106
f 131/163/106 95/117/106 30/116/106
f 101/125/106 112/139/106 138/413/106
f 30/116/106 36/414/106 131/163/106
f 33/120/106 31/115/106 96/118/106
