# Blender v2.82 (sub 7) OBJ File: ''
# www.blender.org
mtllib Павел Лохов.mtl
o bake_t2_Меш
v -0.907500 0.000000 -0.237500
v 0.827500 0.000000 -0.237500
v -0.907500 1.000000 -0.237500
v 0.827500 1.000000 -0.237500
v -0.907500 0.129025 -0.347500
v 0.827500 0.129025 -0.347500
v -0.907500 0.870975 -0.347500
v 0.827500 0.870975 -0.347500
v -0.907500 0.049025 -0.256500
v -0.907500 0.110025 -0.317500
v -0.907500 0.794975 -0.317500
v -0.907500 0.855975 -0.256500
v -0.947500 0.140025 -0.287500
v -0.947500 0.079025 -0.226500
v -0.947500 0.825975 -0.226500
v -0.947500 0.764975 -0.287500
v -0.907500 -0.000000 0.237500
v 0.827500 -0.000000 0.237500
v -0.907500 1.000000 0.237500
v 0.827500 1.000000 0.237500
v -0.907500 0.129025 0.347500
v 0.827500 0.129025 0.347500
v -0.907500 0.870975 0.347500
v 0.827500 0.870975 0.347500
v -0.907500 0.049025 0.256500
v -0.907500 0.110025 0.317500
v -0.907500 0.794975 0.317500
v -0.907500 0.855975 0.256500
v -0.947500 0.140025 0.287500
v -0.947500 0.079025 0.226500
v -0.947500 0.825975 0.226500
v -0.947500 0.764975 0.287500
vt 0.831259 0.633062
vt 0.650497 0.633040
vt 0.824321 0.615086
vt 0.657285 0.615086
vt 0.651180 0.922101
vt 0.832586 0.922515
vt 0.657152 0.974034
vt 0.826779 0.974481
vt 0.068801 0.611707
vt 0.010000 0.611707
vt 0.068801 0.010000
vt 0.010000 0.010000
vt 0.326113 0.611707
vt 0.326113 0.010000
vt 0.384914 0.611707
vt 0.384914 0.010000
vt 0.819288 0.649402
vt 0.662574 0.649398
vt 0.663184 0.905784
vt 0.820481 0.906100
vt 0.721262 0.010000
vt 0.721262 0.611707
vt 0.556529 0.010000
vt 0.556529 0.611707
vt 0.388366 0.010000
vt 0.553099 0.010000
vt 0.388366 0.611707
vt 0.553099 0.611707
vt 0.724692 0.055106
vt 0.762537 0.010000
vt 0.963801 0.055106
vt 0.925956 0.010000
vt 0.724692 0.314485
vt 0.963801 0.314485
vt 0.762537 0.359591
vt 0.925956 0.359591
vt 0.615086 0.664624
vt 0.626019 0.657741
vt 0.616127 0.924203
vt 0.626411 0.897232
vt 0.611707 0.673887
vt 0.010000 0.673887
vt 0.611707 0.615086
vt 0.010000 0.615086
vt 0.611707 0.931199
vt 0.010000 0.931199
vt 0.611707 0.990000
vt 0.010000 0.990000
vt 0.857294 0.897806
vt 0.840566 0.886081
vt 0.867014 0.664776
vt 0.856014 0.657869
vt 0.867907 0.924861
vt 0.642843 0.885568
vt 0.839529 0.669571
vt 0.642584 0.669417
vn -0.9993 -0.0362 0.0058
vn -0.9993 -0.0362 -0.0058
vn -1.0000 0.0000 0.0000
vn -0.9993 0.0362 -0.0058
vn -0.9993 0.0362 0.0058
vn 0.0001 0.1253 -0.9921
vn 0.0000 0.6488 -0.7610
vn 0.0000 0.1253 -0.9921
vn 0.0000 -0.1253 -0.9921
vn 0.0000 -0.6488 -0.7610
vn -0.9991 -0.0432 0.0037
vn -0.9991 -0.0432 -0.0037
vn -0.9991 0.0432 -0.0037
vn -0.9991 0.0432 0.0037
vn 0.0000 -1.0000 -0.0000
vn 0.0000 1.0000 0.0000
vn 1.0000 -0.0000 0.0000
vn -0.9989 -0.0058 -0.0466
vn -0.9989 0.0058 -0.0466
vn 0.0000 0.1253 0.9921
vn 0.0000 0.6488 0.7610
vn -0.0001 -0.1253 0.9921
vn 0.0000 -0.1253 0.9921
vn 0.0000 -0.6488 0.7610
vn -0.9989 0.0058 0.0466
vn -0.9984 0.0036 0.0567
vn -0.9989 -0.0058 0.0466
vn -0.9984 0.0036 -0.0567
vn -0.9984 -0.0037 0.0567
vn -0.9984 -0.0037 -0.0567
usemtl Default
s 1
f 25/1/1 9/2/2 17/3/3
f 9/2/2 1/4/3 17/3/3
f 12/5/4 28/6/5 3/7/3
f 28/6/5 19/8/3 3/7/3
f 7/9/6 3/10/7 8/11/8
f 3/10/7 4/12/7 8/11/8
f 5/13/9 7/9/6 6/14/9
f 7/9/6 8/11/8 6/14/9
f 1/15/10 5/13/9 2/16/10
f 5/13/9 6/14/9 2/16/10
f 25/1/1 30/17/11 9/2/2
f 30/17/11 14/18/12 9/2/2
f 12/5/4 15/19/13 28/6/5
f 15/19/13 31/20/14 28/6/5
f 1/21/15 2/22/15 17/23/15
f 2/22/15 18/24/15 17/23/15
f 3/25/16 19/26/16 4/27/16
f 19/26/16 20/28/16 4/27/16
f 8/29/17 4/30/17 24/31/17
f 4/30/17 20/32/17 24/31/17
f 6/33/17 8/29/17 22/34/17
f 8/29/17 24/31/17 22/34/17
f 6/33/17 22/34/17 2/35/17
f 22/34/17 18/36/17 2/35/17
f 5/37/3 1/4/3 10/38/18
f 1/4/3 9/2/2 10/38/18
f 7/39/3 5/37/3 11/40/19
f 5/37/3 10/38/18 11/40/19
f 3/7/3 7/39/3 12/5/4
f 7/39/3 11/40/19 12/5/4
f 23/41/20 24/42/20 19/43/21
f 24/42/20 20/44/21 19/43/21
f 21/45/22 22/46/23 23/41/20
f 22/46/23 24/42/20 23/41/20
f 17/47/24 18/48/24 21/45/22
f 18/48/24 22/46/23 21/45/22
f 27/49/25 28/6/5 32/50/26
f 28/6/5 31/20/14 32/50/26
f 21/51/3 26/52/27 17/3/3
f 26/52/27 25/1/1 17/3/3
f 23/53/3 27/49/25 21/51/3
f 27/49/25 26/52/27 21/51/3
f 19/8/3 28/6/5 23/53/3
f 28/6/5 27/49/25 23/53/3
f 16/54/28 32/50/26 15/19/13
f 32/50/26 31/20/14 15/19/13
f 12/5/4 11/40/19 15/19/13
f 11/40/19 16/54/28 15/19/13
f 26/52/27 27/49/25 29/55/29
f 27/49/25 32/50/26 29/55/29
f 11/40/19 10/38/18 16/54/28
f 10/38/18 13/56/30 16/54/28
f 14/18/12 13/56/30 9/2/2
f 13/56/30 10/38/18 9/2/2
f 26/52/27 29/55/29 25/1/1
f 29/55/29 30/17/11 25/1/1
f 29/55/29 32/50/26 13/56/30
f 32/50/26 16/54/28 13/56/30
f 29/55/29 13/56/30 30/17/11
f 13/56/30 14/18/12 30/17/11
