# Blender v2.83.0 OBJ File: ''
# www.blender.org
mtllib concrete_1.mtl
v 0.352329 0.185152 0.770429
v 0.352329 0.185153 -0.834800
v 0.349913 0.207628 -0.480066
v 0.287630 0.369168 0.770429
v 0.322392 0.314510 0.770429
v 0.322651 0.313961 -0.292238
v 0.287925 0.368791 -0.280611
v 0.242053 0.414746 0.770429
v 0.242534 0.414350 -0.261067
v 0.187394 0.449507 0.770429
v 0.186932 0.449726 -0.258314
v 0.125419 0.471672 0.770429
v 0.123362 0.472068 -0.312400
v 0.071189 0.478824 -0.536495
v 0.058083 0.479445 -0.834637
v -0.009310 0.471681 -0.834750
v -0.011031 0.471191 -0.465472
v -0.125976 0.414746 -0.834800
v -0.125976 0.414746 0.770429
v -0.071320 0.449507 0.770429
v -0.071320 0.449507 -0.834800
v -0.171554 0.369168 -0.834800
v -0.171554 0.369168 0.770429
v -0.206315 0.314510 -0.834800
v -0.206315 0.314510 0.770429
v -0.228480 0.252535 -0.834800
v -0.228480 0.252534 0.770429
v -0.236255 0.185153 -0.834800
v -0.236255 0.185152 0.770429
v -0.228480 0.117770 -0.834800
v -0.228480 0.117770 0.770429
v -0.206315 0.055795 -0.834800
v -0.206315 0.055795 0.770429
v -0.171554 0.001140 -0.834800
v -0.171554 0.001139 0.770429
v -0.125976 -0.044438 -0.834800
v -0.125976 -0.044438 0.770429
v -0.071320 -0.079199 -0.834800
v -0.071320 -0.079200 0.770429
v -0.009342 -0.101368 -0.834800
v -0.009342 -0.101368 0.770429
v 0.058037 -0.109140 -0.834800
v 0.058037 -0.109140 0.770429
v 0.125419 -0.101365 -0.834800
v 0.125419 -0.101368 0.770429
v 0.187394 -0.079199 -0.834800
v 0.187394 -0.079200 0.770429
v 0.242053 -0.044438 -0.834800
v 0.242053 -0.044438 0.770429
v 0.287630 0.001140 -0.834800
v 0.287630 0.001139 0.770429
v 0.322392 0.055795 -0.834800
v 0.322392 0.055795 0.770429
v 0.344557 0.117770 -0.834800
v 0.344557 0.117770 0.770429
v 0.135618 0.468082 -0.596715
v 0.125339 0.471691 -0.834664
v 0.224711 0.425953 -0.561943
v 0.242053 0.414746 -0.834800
v 0.187397 0.449507 -0.834787
v 0.175114 0.453911 -0.571559
v 0.277574 0.379345 -0.598818
v 0.287630 0.369165 -0.834776
v 0.241261 0.415356 -0.571995
v 0.318908 0.320053 -0.594417
v 0.322392 0.314510 -0.834790
v 0.343891 0.254137 -0.556660
v 0.344557 0.252535 -0.834798
v 0.348741 0.217787 -0.522634
v 0.058037 0.479444 0.770429
v 0.056566 0.479404 -0.387455
v -0.009342 0.471672 0.770429
v 0.344557 0.252534 0.770429
v 0.344049 0.253297 -0.354350
v 0.314109 0.217252 -0.474940
v 0.325575 0.185152 0.770429
v 0.318504 0.246456 0.770429
v 0.308913 0.257885 -0.359235
v 0.178239 0.420471 -0.270950
v 0.175636 0.425474 0.770429
v 0.119341 0.445619 0.770429
v 0.126452 0.439001 -0.320702
v -0.003264 0.445620 -0.834800
v 0.058037 0.452691 -0.834800
v 0.074921 0.444945 -0.539465
v 0.000880 0.438848 -0.463987
v -0.059559 0.425474 0.770429
v -0.109239 0.393875 0.770429
v -0.109239 0.393875 -0.834800
v -0.059559 0.425474 -0.834800
v -0.150683 0.352428 0.770429
v -0.150683 0.352428 -0.834800
v -0.182284 0.302751 0.770429
v -0.182284 0.302752 -0.834800
v -0.202427 0.246456 0.770429
v -0.202427 0.246456 -0.834800
v -0.209501 0.185152 0.770429
v -0.209501 0.185153 -0.834800
v -0.202427 0.123851 0.770429
v -0.202427 0.123851 -0.834800
v -0.182284 0.067556 0.770429
v -0.182284 0.067556 -0.834800
v -0.150683 0.017877 0.770429
v -0.150683 0.017877 -0.834800
v -0.109239 -0.023568 0.770429
v -0.109239 -0.023567 -0.834800
v -0.059559 -0.055169 0.770429
v -0.059559 -0.055169 -0.834800
v -0.003264 -0.075312 0.770429
v -0.003264 -0.075312 -0.834800
v 0.058037 -0.082386 0.770429
v 0.058037 -0.082386 -0.834800
v 0.119341 -0.075312 0.770429
v 0.119341 -0.075312 -0.834800
v 0.175636 -0.055169 0.770429
v 0.175636 -0.055169 -0.834800
v 0.225313 -0.023568 0.770429
v 0.225313 -0.023567 -0.834800
v 0.266760 0.017877 0.770429
v 0.266760 0.017877 -0.834800
v 0.298359 0.067556 0.770429
v 0.298359 0.067556 -0.834800
v 0.318504 0.123851 0.770429
v 0.318504 0.123851 -0.834800
v 0.325575 0.185153 -0.834800
v 0.119341 0.445620 -0.834800
v 0.135361 0.435812 -0.582252
v 0.175636 0.425474 -0.834800
v 0.225313 0.393875 -0.834800
v 0.210767 0.399780 -0.550364
v 0.167011 0.424489 -0.569512
v 0.266760 0.352428 -0.834800
v 0.253380 0.361958 -0.593106
v 0.223938 0.391400 -0.559506
v 0.298359 0.302752 -0.834800
v 0.288072 0.312391 -0.580289
v 0.318504 0.246456 -0.834800
v 0.308913 0.257885 -0.545460
v 0.313041 0.226517 -0.514108
v 0.058037 0.452690 0.770429
v 0.063083 0.445507 -0.385355
v -0.003264 0.445619 0.770429
v 0.298359 0.302751 0.770429
v 0.291132 0.307578 -0.302156
v 0.266760 0.352428 0.770429
v 0.262062 0.353276 -0.295339
v 0.225313 0.393875 0.770429
v 0.223938 0.391400 -0.273484
v 0.261719 0.374289 -0.502403
v 0.257926 0.370891 -0.502403
v 0.244501 0.384011 -0.587946
v 0.248294 0.387409 -0.587946
v 0.259889 0.378690 -0.500610
v 0.246288 0.392005 -0.587060
v 0.254964 0.378013 -0.499503
v 0.241255 0.391449 -0.586514
v 0.253752 0.373192 -0.500610
v 0.240150 0.386507 -0.587060
v 0.276905 0.357332 -0.448630
v 0.273114 0.353934 -0.448630
v 0.241806 0.387018 -0.647197
v 0.245600 0.390416 -0.647197
v 0.275184 0.361615 -0.446498
v 0.243540 0.395074 -0.647197
v 0.270326 0.360864 -0.445179
v 0.238473 0.394555 -0.647197
v 0.269047 0.356117 -0.446498
v 0.237403 0.389576 -0.647197
v 0.282269 0.341844 -0.423538
v 0.286063 0.345242 -0.423538
v 0.284428 0.349426 -0.421138
v 0.279623 0.348616 -0.419656
v 0.278288 0.343928 -0.421138
v 0.174130 0.433508 -0.576797
v 0.176016 0.438238 -0.576797
v 0.186308 0.434134 -0.633660
v 0.184422 0.429404 -0.633660
v 0.177755 0.430370 -0.575080
v 0.188264 0.426180 -0.632777
v 0.181878 0.433160 -0.574015
v 0.192523 0.428917 -0.632228
v 0.180805 0.438024 -0.575080
v 0.191314 0.433835 -0.632777
v 0.145418 0.443610 -0.494345
v 0.147304 0.448340 -0.494345
v 0.159370 0.443806 -0.519437
v 0.157484 0.439076 -0.519437
v 0.190059 0.432641 -0.692911
v 0.188176 0.427909 -0.692911
v 0.148864 0.440542 -0.492212
v 0.161053 0.435959 -0.517572
v 0.192090 0.424655 -0.692911
v 0.152882 0.443375 -0.490893
v 0.165143 0.438763 -0.516419
v 0.196397 0.427374 -0.692911
v 0.151916 0.448196 -0.492212
v 0.164105 0.443613 -0.517572
v 0.195142 0.432310 -0.692911
v 0.133724 0.455093 -0.469252
v 0.131837 0.450363 -0.469252
v 0.135166 0.447343 -0.466852
v 0.139106 0.450208 -0.465370
v 0.138216 0.454997 -0.466852
v 0.320538 0.283807 -0.527803
v 0.340745 0.221960 -0.527803
v 0.337764 0.221324 -0.531995
v 0.317755 0.282560 -0.531995
v 0.242101 0.385977 -0.531995
v 0.244131 0.388249 -0.527803
v 0.130786 0.449437 -0.531995
v 0.131709 0.452340 -0.527803
v 0.002911 0.464885 -0.527803
v 0.067971 0.465417 -0.527803
v 0.067676 0.462384 -0.531995
v 0.003256 0.461857 -0.531995
v 0.332943 0.220291 -0.530393
v 0.313255 0.280546 -0.530393
v 0.238818 0.382299 -0.530393
v 0.129293 0.444739 -0.530393
v 0.067198 0.457477 -0.530393
v 0.003812 0.456958 -0.530393
v 0.332943 0.220291 -0.525210
v 0.313255 0.280546 -0.525210
v 0.238818 0.382299 -0.525210
v 0.129293 0.444739 -0.525210
v 0.067198 0.457477 -0.525210
v 0.003812 0.456958 -0.525210
v 0.337764 0.221324 -0.523608
v 0.317755 0.282560 -0.523608
v 0.242101 0.385977 -0.523608
v 0.130786 0.449437 -0.523608
v 0.067676 0.462384 -0.523608
v 0.003256 0.461857 -0.523608
v 0.041602 0.457295 -0.433803
v 0.043660 0.458371 -0.383249
v 0.041303 0.462884 -0.383249
v 0.039245 0.461811 -0.433803
v 0.037129 0.461918 -0.483025
v 0.039486 0.457405 -0.483025
v 0.046584 0.458119 -0.434371
v 0.048681 0.459216 -0.383249
v 0.044465 0.458229 -0.483592
v 0.047306 0.463143 -0.434718
v 0.049428 0.464251 -0.383249
v 0.045190 0.463253 -0.483940
v 0.042771 0.465425 -0.434371
v 0.044869 0.466520 -0.383249
v 0.040655 0.465533 -0.483592
v 0.038788 0.456372 -0.507802
v 0.036431 0.460888 -0.507802
v 0.043721 0.457172 -0.508594
v 0.044417 0.462180 -0.509083
v 0.039911 0.464478 -0.508594
v 0.176664 0.422801 -0.344708
v 0.175390 0.427732 -0.344708
v 0.167878 0.429273 -0.368826
v 0.169151 0.424340 -0.368826
v 0.174087 0.423989 -0.369846
v 0.181650 0.422464 -0.345500
v 0.175866 0.428703 -0.370477
v 0.183462 0.427186 -0.345989
v 0.172027 0.431967 -0.369846
v 0.179593 0.430442 -0.345500
v 0.189438 0.420779 -0.270709
v 0.191686 0.421359 -0.220155
v 0.190415 0.426290 -0.220155
v 0.188168 0.425712 -0.270709
v 0.181182 0.427446 -0.319931
v 0.182456 0.422515 -0.319931
v 0.158088 0.432045 -0.393748
v 0.158894 0.427256 -0.394775
v 0.194479 0.420455 -0.271277
v 0.196769 0.421046 -0.220155
v 0.187493 0.422189 -0.320498
v 0.163450 0.426951 -0.396597
v 0.196320 0.425185 -0.271624
v 0.198639 0.425784 -0.220155
v 0.189334 0.426919 -0.320846
v 0.165459 0.431552 -0.396696
v 0.192419 0.428433 -0.271277
v 0.194709 0.429024 -0.220155
v 0.185433 0.430169 -0.320498
v 0.162144 0.434699 -0.394933
v 0.151820 0.436751 -0.420563
v 0.149581 0.432264 -0.420999
v 0.145407 0.432521 -0.418377
v 0.149029 0.439782 -0.417671
v 0.145065 0.437168 -0.416320
v 0.233716 0.428321 -0.368792
v 0.233638 0.431103 -0.364417
v 0.233590 0.427802 -0.360420
v 0.233716 0.423302 -0.367497
v 0.233638 0.422981 -0.362325
v 0.196162 0.439445 -0.360618
v 0.195284 0.442778 -0.364490
v 0.155755 0.453742 -0.362055
v 0.156975 0.450376 -0.358304
v 0.193861 0.440049 -0.368661
v 0.153781 0.451064 -0.366028
v 0.193861 0.435030 -0.367368
v 0.153781 0.446045 -0.364736
v 0.195284 0.434656 -0.362397
v 0.155755 0.445620 -0.359963
v 0.115084 0.460235 -0.356083
v 0.115841 0.456910 -0.352180
v 0.072690 0.462044 -0.349058
v 0.072960 0.458740 -0.345074
v 0.113864 0.457493 -0.360311
v 0.072254 0.459267 -0.353416
v 0.113864 0.452471 -0.359018
v 0.072254 0.454248 -0.352121
v 0.115084 0.452113 -0.353991
v 0.072690 0.453921 -0.346966
v 0.270441 0.352752 -0.327125
v 0.252952 0.357137 -0.376558
v 0.256267 0.353988 -0.378319
v 0.274310 0.349496 -0.327615
v 0.260325 0.356644 -0.379504
v 0.278510 0.352203 -0.328407
v 0.259517 0.361433 -0.378476
v 0.277239 0.357134 -0.328407
v 0.254961 0.361736 -0.376655
v 0.272250 0.357474 -0.327615
v 0.246494 0.361912 -0.403804
v 0.242529 0.359298 -0.402453
v 0.239738 0.362330 -0.399561
v 0.246154 0.366559 -0.401747
v 0.241978 0.366816 -0.399125
v 0.287109 0.347479 -0.253515
v 0.283208 0.350726 -0.253167
v 0.291360 0.350202 -0.254082
v 0.290086 0.355133 -0.254082
v 0.285049 0.355457 -0.253515
v 0.258495 0.391617 -0.371001
v 0.255197 0.387962 -0.369375
v 0.254292 0.388749 -0.364332
v 0.257029 0.392890 -0.362842
v 0.259627 0.394664 -0.366962
v 0.289254 0.362586 -0.360709
v 0.290592 0.364101 -0.355936
v 0.313817 0.325460 -0.350939
v 0.312428 0.324829 -0.355894
v 0.335276 0.240629 -0.357903
v 0.336675 0.240629 -0.352911
v 0.337577 0.197272 -0.353165
v 0.336178 0.197272 -0.358154
v 0.287266 0.361960 -0.352587
v 0.309989 0.323638 -0.347958
v 0.332384 0.240123 -0.350045
v 0.333270 0.197564 -0.350294
v 0.283874 0.359119 -0.355289
v 0.306235 0.321878 -0.351070
v 0.328334 0.239813 -0.353266
v 0.329211 0.197743 -0.353510
v 0.285102 0.359507 -0.360308
v 0.307744 0.322616 -0.355974
v 0.330121 0.240123 -0.358122
v 0.331009 0.197564 -0.358368
v 0.329072 0.283269 -0.350781
v 0.327675 0.283269 -0.355773
v 0.331758 0.154329 -0.351533
v 0.330359 0.154329 -0.356525
v 0.324923 0.281985 -0.347953
v 0.327558 0.155408 -0.348691
v 0.320958 0.281191 -0.351198
v 0.323563 0.156074 -0.351929
v 0.322659 0.281985 -0.356030
v 0.325294 0.155408 -0.356768
v 0.306513 0.263934 -0.394719
v 0.289792 0.257195 -0.444152
v 0.294324 0.256599 -0.445915
v 0.311556 0.263579 -0.395208
v 0.296042 0.261133 -0.447100
v 0.313362 0.268239 -0.396003
v 0.292574 0.264531 -0.446073
v 0.309432 0.271479 -0.396003
v 0.288711 0.262096 -0.444251
v 0.305200 0.268820 -0.395208
v 0.281758 0.257259 -0.471401
v 0.280091 0.252813 -0.470047
v 0.276049 0.253624 -0.467155
v 0.278748 0.260818 -0.469343
v 0.275222 0.258568 -0.466721
v 0.323093 0.269475 -0.321111
v 0.318028 0.269810 -0.320760
v 0.324931 0.274178 -0.321675
v 0.321000 0.277418 -0.321675
v 0.316736 0.274716 -0.321111
v 0.313632 0.283529 -0.599426
v 0.318312 0.281728 -0.598545
v 0.303870 0.273713 -0.542362
v 0.299252 0.275551 -0.543462
v 0.321305 0.285664 -0.597320
v 0.306757 0.277587 -0.540784
v 0.318475 0.289894 -0.597446
v 0.303926 0.281819 -0.540907
v 0.313731 0.288575 -0.598746
v 0.299287 0.280559 -0.542563
v 0.288141 0.270395 -0.516879
v 0.292706 0.268528 -0.515606
v 0.295507 0.272351 -0.513749
v 0.292673 0.276584 -0.513872
v 0.288123 0.275372 -0.515809
vt 0.716300 0.264000
vt 0.716300 0.994300
vt 0.725200 0.832900
vt 0.038900 0.264000
vt 0.064400 0.742200
vt 0.064600 0.264000
vt 0.089800 0.733300
vt 0.090100 0.264000
vt 0.115900 0.732000
vt 0.115700 0.264000
vt 0.141800 0.264000
vt 0.142600 0.756600
vt 0.163400 0.858600
vt 0.195400 0.994300
vt 0.196100 0.826300
vt 0.247100 0.264000
vt 0.221500 0.994300
vt 0.247100 0.994300
vt 0.272600 0.264000
vt 0.272600 0.994300
vt 0.298300 0.264000
vt 0.298300 0.994300
vt 0.324300 0.264000
vt 0.324300 0.994300
vt 0.351200 0.264000
vt 0.351200 0.994300
vt 0.378000 0.264000
vt 0.378000 0.994300
vt 0.404100 0.264000
vt 0.404100 0.994300
vt 0.429700 0.264000
vt 0.429700 0.994300
vt 0.455200 0.264000
vt 0.455200 0.994300
vt 0.480800 0.264000
vt 0.480800 0.994300
vt 0.506900 0.264000
vt 0.506900 0.994300
vt 0.533700 0.264000
vt 0.533700 0.994300
vt 0.560600 0.264000
vt 0.560600 0.994300
vt 0.586600 0.264000
vt 0.586600 0.994300
vt 0.612200 0.264000
vt 0.612200 0.994300
vt 0.637800 0.264000
vt 0.637800 0.994300
vt 0.663400 0.264000
vt 0.663400 0.994300
vt 0.689400 0.264000
vt 0.689400 0.994300
vt 0.137500 0.886000
vt 0.168600 0.994200
vt 0.090100 0.994300
vt 0.120900 0.874500
vt 0.098200 0.870100
vt 0.070200 0.886900
vt 0.090500 0.874700
vt 0.041500 0.884900
vt 0.064600 0.994300
vt 0.012900 0.994300
vt 0.013600 0.867700
vt 0.743800 0.867700
vt 0.729300 0.852300
vt 0.168600 0.264000
vt 0.169200 0.790800
vt 0.195500 0.264000
vt 0.221500 0.264000
vt 0.115700 0.994300
vt 0.038700 0.747500
vt 0.012900 0.264000
vt 0.013200 0.775700
vt 0.716300 0.264000
vt 0.749200 0.777900
vt 0.730800 0.830600
vt 0.113700 0.737800
vt 0.141700 0.264000
vt 0.138000 0.760400
vt 0.195500 0.994300
vt 0.161100 0.859900
vt 0.194400 0.825600
vt 0.247100 0.264000
vt 0.221500 0.994300
vt 0.221500 0.264000
vt 0.272600 0.264000
vt 0.247100 0.994300
vt 0.298300 0.264000
vt 0.272600 0.994300
vt 0.324300 0.264000
vt 0.298300 0.994300
vt 0.351200 0.264000
vt 0.324300 0.994300
vt 0.378000 0.264000
vt 0.351200 0.994300
vt 0.404100 0.264000
vt 0.378000 0.994300
vt 0.429700 0.264000
vt 0.404100 0.994300
vt 0.455200 0.264000
vt 0.429700 0.994300
vt 0.480800 0.264000
vt 0.455200 0.994300
vt 0.506900 0.264000
vt 0.480800 0.994300
vt 0.533700 0.264000
vt 0.506900 0.994300
vt 0.560600 0.264000
vt 0.533700 0.994300
vt 0.586600 0.264000
vt 0.560600 0.994300
vt 0.612200 0.264000
vt 0.586600 0.994300
vt 0.637800 0.264000
vt 0.612200 0.994300
vt 0.663400 0.264000
vt 0.637800 0.994300
vt 0.689400 0.264000
vt 0.663400 0.994300
vt 0.689400 0.994300
vt 0.168600 0.994300
vt 0.133800 0.879400
vt 0.090100 0.994300
vt 0.119000 0.873600
vt 0.115700 0.994300
vt 0.071500 0.884300
vt 0.089900 0.869000
vt 0.038900 0.994300
vt 0.064600 0.994300
vt 0.012900 0.994300
vt 0.044800 0.878500
vt 0.716300 0.994300
vt 0.749100 0.862700
vt 0.743100 0.994300
vt 0.168600 0.264000
vt 0.166400 0.789800
vt 0.195500 0.264000
vt 0.141700 0.994300
vt 0.096700 0.864900
vt 0.735000 0.848400
vt 0.012900 0.264000
vt 0.042300 0.752000
vt 0.018800 0.777900
vt 0.066200 0.748900
vt 0.038900 0.264000
vt 0.064600 0.264000
vt 0.089900 0.738900
vt 0.090100 0.264000
vt 0.115700 0.264000
vt 0.093000 0.029000
vt 0.156700 0.042200
vt 0.097700 0.046300
vt 0.045500 0.066400
vt 0.068100 0.058700
vt 0.056700 0.077500
vt 0.046100 0.099200
vt 0.034000 0.092500
vt 0.043000 0.124300
vt 0.030200 0.123000
vt 0.030300 0.153000
vt 0.043600 0.150200
vt 0.291300 0.239600
vt 0.309900 0.185700
vt 0.310800 0.247700
vt 0.848700 0.275100
vt 0.816500 0.284200
vt 0.848800 0.288000
vt 0.792500 0.262100
vt 0.760700 0.257000
vt 0.786800 0.273600
vt 0.768700 0.247000
vt 0.738900 0.235200
vt 0.733700 0.203400
vt 0.748800 0.227200
vt 0.724100 0.176400
vt 0.722200 0.209000
vt 0.720700 0.147100
vt 0.711600 0.179300
vt 0.711600 0.114800
vt 0.707900 0.147100
vt 0.724100 0.117700
vt 0.722200 0.085200
vt 0.733700 0.090800
vt 0.738900 0.059000
vt 0.748800 0.067000
vt 0.760700 0.037200
vt 0.792500 0.032100
vt 0.768700 0.047200
vt 0.819400 0.022400
vt 0.786800 0.020600
vt 0.848700 0.019000
vt 0.816500 0.009900
vt 0.881000 0.009900
vt 0.848700 0.006200
vt 0.878100 0.022400
vt 0.910700 0.020600
vt 0.905000 0.032100
vt 0.936800 0.037200
vt 0.948700 0.067000
vt 0.928800 0.047200
vt 0.963800 0.090800
vt 0.958600 0.059000
vt 0.973400 0.117700
vt 0.975300 0.085200
vt 0.976800 0.147100
vt 0.985900 0.114800
vt 0.290300 0.179500
vt 0.299800 0.133700
vt 0.881000 0.284200
vt 0.878100 0.271800
vt 0.271900 0.123400
vt 0.269000 0.099900
vt 0.287100 0.117300
vt 0.905000 0.262100
vt 0.936800 0.257000
vt 0.928800 0.247000
vt 0.235000 0.081900
vt 0.263400 0.091800
vt 0.250300 0.100300
vt 0.948700 0.227200
vt 0.958600 0.235200
vt 0.217600 0.061600
vt 0.244500 0.072500
vt 0.963800 0.203400
vt 0.975300 0.209000
vt 0.192400 0.048200
vt 0.226000 0.047600
vt 0.973400 0.176400
vt 0.985900 0.179300
vt 0.174600 0.044700
vt 0.196500 0.031300
vt 0.989600 0.147100
vt 0.050500 0.179700
vt 0.038000 0.186000
vt 0.063900 0.207200
vt 0.052100 0.214500
vt 0.819400 0.271800
vt 0.281000 0.135900
vt 0.910700 0.273600
vt 0.254500 0.107100
vt 0.157100 0.024300
vt 0.176500 0.027100
vt 0.973400 0.176400
vt 0.975300 0.209000
vt 0.963800 0.203400
vt 0.958600 0.235200
vt 0.948700 0.227200
vt 0.936800 0.257000
vt 0.928800 0.247000
vt 0.905000 0.262100
vt 0.910700 0.273600
vt 0.878100 0.271800
vt 0.881000 0.284200
vt 0.848700 0.275200
vt 0.848700 0.288000
vt 0.816500 0.284200
vt 0.819400 0.271800
vt 0.792500 0.262100
vt 0.760700 0.257000
vt 0.768700 0.247000
vt 0.738900 0.235200
vt 0.748800 0.227200
vt 0.733700 0.203400
vt 0.722200 0.209000
vt 0.724100 0.176400
vt 0.711600 0.179300
vt 0.720700 0.147100
vt 0.707900 0.147100
vt 0.711600 0.114800
vt 0.724100 0.117700
vt 0.722200 0.085200
vt 0.733700 0.090800
vt 0.738900 0.059000
vt 0.748800 0.067000
vt 0.760700 0.037200
vt 0.768700 0.047200
vt 0.792500 0.032100
vt 0.786800 0.020600
vt 0.819400 0.022400
vt 0.816500 0.009900
vt 0.848700 0.019000
vt 0.848700 0.006200
vt 0.881000 0.009900
vt 0.878100 0.022400
vt 0.910700 0.020600
vt 0.905000 0.032100
vt 0.936800 0.037200
vt 0.928800 0.047200
vt 0.948700 0.067000
vt 0.958600 0.059000
vt 0.963800 0.090800
vt 0.975300 0.085200
vt 0.973400 0.117700
vt 0.985900 0.114800
vt 0.976800 0.147100
vt 0.989600 0.147100
vt 0.985900 0.179300
vt 0.059900 0.044100
vt 0.786800 0.273600
vt 0.743500 0.775700
vt 0.743100 0.264000
vt 0.927000 0.687800
vt 0.932800 0.770700
vt 0.932800 0.687800
vt 0.904700 0.687800
vt 0.910100 0.770700
vt 0.910100 0.687800
vt 0.915800 0.770700
vt 0.915800 0.687800
vt 0.921500 0.687800
vt 0.921500 0.770700
vt 0.927000 0.770700
vt 0.932800 0.635900
vt 0.932800 0.825900
vt 0.904700 0.635900
vt 0.910100 0.635900
vt 0.904700 0.770700
vt 0.910100 0.825900
vt 0.915800 0.635900
vt 0.915800 0.825900
vt 0.921500 0.635900
vt 0.927000 0.635900
vt 0.921500 0.825900
vt 0.980600 0.955400
vt 0.962300 0.981800
vt 0.951000 0.965500
vt 0.962300 0.949100
vt 0.932800 0.611600
vt 0.910100 0.611600
vt 0.915800 0.611600
vt 0.921500 0.611600
vt 0.927000 0.715400
vt 0.932800 0.770700
vt 0.932800 0.715400
vt 0.904700 0.715400
vt 0.910100 0.770700
vt 0.910100 0.715400
vt 0.915800 0.770700
vt 0.915800 0.715400
vt 0.921500 0.715400
vt 0.921500 0.770700
vt 0.927000 0.770700
vt 0.927000 0.635900
vt 0.932800 0.660200
vt 0.932800 0.635900
vt 0.927000 0.660200
vt 0.932800 0.825900
vt 0.910100 0.635900
vt 0.904700 0.660200
vt 0.910100 0.660200
vt 0.904700 0.770700
vt 0.910100 0.825900
vt 0.915800 0.635900
vt 0.915800 0.660200
vt 0.915800 0.825900
vt 0.921500 0.660200
vt 0.921500 0.635900
vt 0.921500 0.825900
vt 0.980600 0.955400
vt 0.962300 0.981800
vt 0.951000 0.965500
vt 0.962300 0.949100
vt 0.932800 0.611600
vt 0.910100 0.611600
vt 0.904700 0.635900
vt 0.915800 0.611600
vt 0.921500 0.611600
vt 0.929900 0.921500
vt 0.935200 0.862100
vt 0.929900 0.861800
vt 0.935200 0.861500
vt 0.929900 0.742600
vt 0.935200 0.742300
vt 0.929900 0.623300
vt 0.929900 0.563600
vt 0.935200 0.504300
vt 0.929900 0.504000
vt 0.907400 0.921500
vt 0.912900 0.861800
vt 0.907400 0.861800
vt 0.907400 0.742600
vt 0.912900 0.623300
vt 0.907400 0.623300
vt 0.907400 0.504000
vt 0.912900 0.563600
vt 0.912900 0.504000
vt 0.912900 0.921500
vt 0.918800 0.861800
vt 0.912900 0.742600
vt 0.918800 0.742600
vt 0.918800 0.504000
vt 0.924200 0.921500
vt 0.924200 0.861800
vt 0.924200 0.742600
vt 0.918800 0.623300
vt 0.918800 0.563600
vt 0.924200 0.504000
vt 0.924200 0.623300
vt 0.935200 0.563900
vt 0.907400 0.563600
vt 0.924200 0.563600
vt 0.932800 0.384100
vt 0.927000 0.439300
vt 0.932800 0.439300
vt 0.932800 0.494500
vt 0.910100 0.384100
vt 0.904700 0.439300
vt 0.910100 0.439300
vt 0.904700 0.494500
vt 0.910100 0.494500
vt 0.915800 0.384100
vt 0.915800 0.439300
vt 0.915800 0.494500
vt 0.921500 0.439300
vt 0.921500 0.494500
vt 0.921500 0.384100
vt 0.927000 0.494500
vt 0.927000 0.522200
vt 0.932800 0.522200
vt 0.904700 0.522200
vt 0.910100 0.522200
vt 0.915800 0.522200
vt 0.921500 0.522200
vt 0.927000 0.522200
vt 0.932800 0.549800
vt 0.932800 0.522200
vt 0.910100 0.549800
vt 0.904700 0.522200
vt 0.904700 0.549800
vt 0.915800 0.522200
vt 0.915800 0.549800
vt 0.921500 0.522200
vt 0.921500 0.549800
vt 0.927000 0.549800
vt 0.932800 0.384100
vt 0.927000 0.439300
vt 0.932800 0.439300
vt 0.932800 0.494500
vt 0.932800 0.577400
vt 0.910100 0.384100
vt 0.904700 0.439300
vt 0.910100 0.439300
vt 0.910100 0.494500
vt 0.910100 0.577400
vt 0.915800 0.384100
vt 0.915800 0.439300
vt 0.915800 0.494500
vt 0.921500 0.439300
vt 0.921500 0.494500
vt 0.915800 0.577400
vt 0.921500 0.384100
vt 0.927000 0.494500
vt 0.921500 0.577400
vt 0.951000 0.965500
vt 0.980600 0.975600
vt 0.962300 0.949100
vt 0.980600 0.955400
vt 0.927000 0.605000
vt 0.927000 0.577400
vt 0.910100 0.605000
vt 0.904700 0.577400
vt 0.904700 0.605000
vt 0.915800 0.605000
vt 0.921500 0.605000
vt 0.904700 0.494500
vt 0.910100 0.522200
vt 0.972400 0.981800
vt 0.954100 0.955400
vt 0.954100 0.975600
vt 0.972400 0.949100
vt 0.983700 0.965500
vt 0.935200 0.941200
vt 0.929900 0.901600
vt 0.929900 0.941400
vt 0.912900 0.941400
vt 0.907400 0.901600
vt 0.907400 0.941400
vt 0.918800 0.901600
vt 0.912900 0.901600
vt 0.918800 0.941400
vt 0.924200 0.901600
vt 0.924200 0.941400
vt 0.907400 0.981100
vt 0.902500 0.941600
vt 0.902400 0.981100
vt 0.935200 0.901300
vt 0.929900 0.861800
vt 0.935200 0.861700
vt 0.929900 0.822100
vt 0.907400 0.861800
vt 0.912900 0.822100
vt 0.907400 0.822100
vt 0.912900 0.981100
vt 0.918800 0.861800
vt 0.912900 0.861800
vt 0.918800 0.981100
vt 0.924200 0.861800
vt 0.918800 0.822100
vt 0.929900 0.981100
vt 0.924200 0.981100
vt 0.924200 0.822100
vt 0.902400 0.522800
vt 0.907400 0.577400
vt 0.907400 0.522200
vt 0.912900 0.577400
vt 0.918800 0.522200
vt 0.912900 0.522200
vt 0.918800 0.577400
vt 0.924200 0.522200
vt 0.929900 0.577400
vt 0.929900 0.522200
vt 0.954100 0.975600
vt 0.983700 0.965500
vt 0.954100 0.955400
vt 0.972400 0.949100
vt 0.907400 0.605000
vt 0.902400 0.577400
vt 0.902400 0.604300
vt 0.912900 0.605000
vt 0.918800 0.605000
vt 0.924200 0.577400
vt 0.924200 0.605000
vt 0.935200 0.522200
vt 0.929900 0.439300
vt 0.912900 0.439300
vt 0.918800 0.439300
vt 0.924200 0.439300
vt 0.962300 0.949100
vt 0.962300 0.981800
vt 0.980600 0.955400
vt 0.980600 0.975600
vt 0.932800 0.941400
vt 0.927000 0.901600
vt 0.927000 0.941400
vt 0.927000 0.822100
vt 0.932800 0.782300
vt 0.927000 0.782300
vt 0.910100 0.941400
vt 0.904700 0.901600
vt 0.904700 0.941400
vt 0.910100 0.822100
vt 0.904700 0.782300
vt 0.904700 0.822100
vt 0.915800 0.901600
vt 0.910100 0.901600
vt 0.915800 0.782300
vt 0.910100 0.782300
vt 0.915800 0.941400
vt 0.921500 0.901600
vt 0.915800 0.822100
vt 0.921500 0.782300
vt 0.921500 0.941400
vt 0.921500 0.822100
vt 0.932800 0.981100
vt 0.927000 0.981100
vt 0.927000 0.861800
vt 0.932800 0.901600
vt 0.932800 0.861800
vt 0.932800 0.822100
vt 0.932800 0.742600
vt 0.910100 0.981100
vt 0.904700 0.981100
vt 0.904700 0.861800
vt 0.910100 0.861800
vt 0.904700 0.742600
vt 0.915800 0.861800
vt 0.910100 0.742600
vt 0.915800 0.981100
vt 0.921500 0.861800
vt 0.921500 0.742600
vt 0.921500 0.981100
vt 0.902400 0.522800
vt 0.907400 0.577400
vt 0.907400 0.522200
vt 0.912900 0.577400
vt 0.918800 0.522200
vt 0.912900 0.522200
vt 0.918800 0.577400
vt 0.924200 0.522200
vt 0.929900 0.577400
vt 0.929900 0.522200
vt 0.954100 0.975600
vt 0.983700 0.965500
vt 0.954100 0.955400
vt 0.972400 0.949100
vt 0.907400 0.605000
vt 0.902400 0.577400
vt 0.902400 0.604300
vt 0.912900 0.605000
vt 0.918800 0.605000
vt 0.924200 0.577400
vt 0.924200 0.605000
vt 0.935200 0.522200
vt 0.929900 0.439300
vt 0.912900 0.439300
vt 0.918800 0.439300
vt 0.924200 0.439300
vt 0.907400 0.687800
vt 0.902400 0.636000
vt 0.902400 0.687900
vt 0.907400 0.635900
vt 0.912900 0.687800
vt 0.912900 0.635900
vt 0.918800 0.635900
vt 0.918800 0.687800
vt 0.924200 0.635900
vt 0.924200 0.687800
vt 0.929900 0.635900
vt 0.983700 0.965500
vt 0.954100 0.975600
vt 0.954100 0.955400
vt 0.972400 0.949100
vt 0.907400 0.611600
vt 0.902400 0.635900
vt 0.912900 0.611600
vt 0.918800 0.611600
vt 0.929900 0.611600
vt 0.141800 0.994200
vt 0.038900 0.994300
vt 0.743100 0.994300
vt 0.743100 0.264000
vt 0.018800 0.862700
vt 0.927000 0.825900
vt 0.904700 0.825900
vt 0.980600 0.975600
vt 0.927000 0.611600
vt 0.904700 0.611600
vt 0.927000 0.825900
vt 0.904700 0.825900
vt 0.980600 0.975600
vt 0.927000 0.611600
vt 0.904700 0.611600
vt 0.935200 0.921300
vt 0.935200 0.743100
vt 0.935200 0.623800
vt 0.935200 0.563500
vt 0.918800 0.921500
vt 0.935200 0.623100
vt 0.927000 0.384100
vt 0.904700 0.384100
vt 0.927000 0.384100
vt 0.904700 0.384100
vt 0.962300 0.981800
vt 0.932800 0.605000
vt 0.935100 0.901200
vt 0.935200 0.861900
vt 0.935200 0.822300
vt 0.902400 0.577300
vt 0.972400 0.981800
vt 0.929900 0.605000
vt 0.935200 0.439200
vt 0.907400 0.439300
vt 0.951000 0.965500
vt 0.927000 0.742600
vt 0.915800 0.742600
vt 0.902400 0.577300
vt 0.972400 0.981800
vt 0.929900 0.605000
vt 0.935200 0.439200
vt 0.907400 0.439300
vt 0.929900 0.687800
vt 0.972400 0.981800
vt 0.902400 0.611600
vt 0.924200 0.611600
vn 1.0000 0.0001 -0.0002
vn 1.0000 -0.0002 -0.0003
vn 0.9940 0.1090 0.0000
vn 0.8983 0.4395 0.0000
vn 0.7919 0.6107 -0.0001
vn 0.7800 0.6257 -0.0004
vn 0.6349 0.7726 -0.0001
vn 0.6256 0.7802 -0.0000
vn 0.4202 0.9075 -0.0002
vn 0.4395 0.8983 -0.0000
vn 0.2272 0.9739 0.0001
vn 0.1704 0.9854 -0.0002
vn -0.0230 0.9997 -0.0003
vn -0.2250 0.9744 0.0030
vn -0.2667 0.9638 -0.0001
vn -0.6256 0.7801 0.0000
vn -0.4394 0.8983 0.0000
vn -0.7801 0.6256 0.0000
vn -0.8983 0.4394 0.0000
vn -0.9739 0.2272 0.0000
vn -1.0000 -0.0000 0.0000
vn -0.9739 -0.2272 -0.0000
vn -0.8983 -0.4394 -0.0000
vn -0.7801 -0.6256 -0.0000
vn -0.6256 -0.7801 -0.0000
vn -0.4395 -0.8983 -0.0000
vn -0.2272 -0.9739 -0.0000
vn -0.0000 -1.0000 -0.0000
vn 0.2272 -0.9739 -0.0000
vn 0.4394 -0.8983 -0.0000
vn 0.6256 -0.7801 -0.0000
vn 0.7801 -0.6256 -0.0000
vn 0.8983 -0.4394 -0.0000
vn 0.9739 -0.2272 -0.0000
vn 0.2448 0.9696 -0.0016
vn 0.0008 1.0000 0.0073
vn 0.6257 0.7801 -0.0004
vn 0.4319 0.9019 0.0050
vn 0.5146 0.8574 0.0039
vn 0.7568 0.6536 0.0046
vn 0.5993 0.8005 -0.0001
vn 0.8929 0.4502 0.0067
vn 0.7802 0.6255 0.0007
vn 0.9738 0.2274 -0.0000
vn 0.9788 0.2048 0.0025
vn 0.9931 0.1171 -0.0000
vn -0.0000 1.0000 0.0001
vn -0.0675 0.9977 -0.0002
vn -0.2272 0.9739 0.0001
vn -0.4398 0.8981 -0.0000
vn 0.4393 0.8983 0.0003
vn 0.9940 0.1094 -0.0001
vn 0.9117 0.4108 -0.0001
vn 0.9739 0.2270 -0.0002
vn 0.9846 0.1746 -0.0003
vn -1.0000 -0.0020 0.0031
vn -0.9820 -0.1886 0.0064
vn -0.9526 -0.3041 -0.0007
vn -0.4236 -0.9058 0.0032
vn -0.2267 -0.9739 0.0045
vn -0.1701 -0.9854 0.0051
vn 0.2172 -0.9760 -0.0155
vn -0.0026 -0.9998 -0.0192
vn -0.0536 -0.9985 -0.0136
vn 0.6257 -0.7801 -0.0000
vn 0.4395 -0.8982 -0.0000
vn 0.4377 -0.8991 0.0030
vn 0.7801 -0.6257 -0.0000
vn 0.8982 -0.4395 -0.0000
vn 0.9738 -0.2272 -0.0000
vn 1.0000 0.0000 -0.0000
vn 0.9738 0.2272 0.0000
vn 0.8982 0.4395 0.0000
vn 0.7801 0.6257 0.0000
vn 0.6257 0.7801 0.0000
vn 0.4395 0.8982 0.0000
vn 0.2272 0.9738 0.0000
vn 0.0000 1.0000 0.0000
vn -0.2272 0.9738 0.0000
vn -0.4395 0.8982 0.0000
vn -0.6257 0.7801 0.0000
vn -0.7801 0.6257 0.0000
vn -0.8982 0.4395 0.0000
vn -0.9738 0.2272 0.0000
vn 0.0005 -0.9995 -0.0311
vn -0.2422 -0.9701 -0.0171
vn -0.6260 -0.7798 -0.0106
vn -0.4265 -0.9043 -0.0177
vn -0.4382 -0.8988 -0.0127
vn -0.7589 -0.6510 -0.0153
vn -0.5959 -0.8030 -0.0102
vn -0.8987 -0.4383 -0.0164
vn -0.7805 -0.6250 -0.0133
vn -0.9741 -0.2253 -0.0213
vn -0.8903 -0.4547 -0.0227
vn -0.9999 -0.0076 -0.0113
vn -0.9743 -0.2237 -0.0254
vn 0.0004 -1.0000 0.0060
vn 0.0497 -0.9987 0.0058
vn 0.2271 -0.9738 0.0065
vn -0.2219 -0.9748 -0.0232
vn -0.5151 -0.8570 -0.0144
vn -0.9851 -0.1710 -0.0181
vn -0.9739 -0.2268 0.0056
vn -0.9086 -0.4177 0.0041
vn -0.7912 -0.6115 0.0030
vn -0.8984 -0.4391 0.0033
vn -0.7802 -0.6255 0.0030
vn -0.6360 -0.7717 0.0027
vn -0.6254 -0.7803 0.0027
vn -0.4393 -0.8983 0.0032
vn 0.1827 0.8551 -0.4852
vn 0.2443 0.9661 -0.0836
vn 0.1645 0.8481 -0.5037
vn 0.2235 0.4290 -0.8752
vn 0.1590 0.5566 -0.8155
vn 0.2141 0.4261 -0.8790
vn 0.0767 0.4242 -0.9023
vn 0.1162 0.4255 -0.8975
vn 0.4403 0.2591 -0.8597
vn 0.4453 0.2416 -0.8622
vn 0.7222 0.2157 -0.6572
vn 0.7252 0.2175 -0.6532
vn 0.6380 0.2176 0.7386
vn 0.6922 0.0410 0.7205
vn 0.6170 0.2613 0.7423
vn 0.0009 0.0055 -1.0000
vn 0.0001 0.0025 -1.0000
vn 0.0009 0.0059 -1.0000
vn 0.0000 0.0000 -1.0000
vn 0.0000 0.0006 -1.0000
vn 0.6881 0.0540 0.7236
vn 0.6144 0.2446 0.7502
vn 0.0005 0.0045 -1.0000
vn 0.0009 0.0050 -1.0000
vn -0.2178 0.1892 0.9575
vn 0.2279 0.2280 0.9466
vn -0.2615 0.1924 0.9459
vn -0.0002 0.0014 -1.0000
vn 0.0001 0.0001 -1.0000
vn 0.3559 -0.1143 0.9275
vn 0.5768 0.0206 0.8166
vn 0.5726 -0.0525 0.8182
vn 0.0007 0.0004 -1.0000
vn 0.2709 0.4911 0.8279
vn 0.3256 -0.0438 0.9445
vn 0.0004 0.0003 -1.0000
vn 0.0003 0.0003 -1.0000
vn 0.3036 0.6358 0.7096
vn 0.2365 0.4570 0.8575
vn -0.0004 0.0001 -1.0000
vn 0.3118 0.8411 0.4419
vn 0.2859 0.6314 0.7208
vn 0.7307 0.1120 -0.6734
vn 0.7361 0.1142 -0.6672
vn 0.7495 0.2478 -0.6139
vn 0.7503 0.2157 -0.6249
vn -0.0001 0.0017 -1.0000
vn -0.3722 0.2982 0.8789
vn -0.3971 0.3780 0.8363
vn -0.0007 0.0008 -1.0000
vn 0.2441 0.2674 0.9322
vn 0.2551 0.9665 -0.0283
vn 0.3048 0.8358 0.4566
vn 0.0000 0.0000 1.0000
vn 0.1550 0.5777 -0.8014
vn 0.0597 -0.9697 -0.2367
vn 0.9749 -0.1896 -0.1170
vn 0.9565 -0.1589 -0.2448
vn 0.4800 0.8763 0.0401
vn 0.4834 0.8702 0.0951
vn -0.6623 0.7354 0.1431
vn -0.6333 0.7108 0.3060
vn -0.9158 -0.3869 0.1076
vn -0.9218 -0.3841 0.0530
vn 0.0786 -0.9910 -0.1081
vn 0.9281 -0.1286 -0.3493
vn 0.9792 -0.1954 -0.0545
vn 0.5125 0.8422 0.1674
vn 0.4808 0.8765 0.0229
vn -0.5890 0.6687 0.4537
vn -0.6656 0.7431 0.0687
vn -0.9067 -0.3997 0.1347
vn 0.0304 -0.9258 -0.3767
vn -0.9239 -0.3820 0.0228
vn 0.3305 -0.3690 0.8687
vn 0.3303 -0.3690 0.8687
vn 0.3303 -0.3690 0.8688
vn 0.3306 -0.3688 0.8687
vn 0.9034 -0.1498 -0.4018
vn 0.5466 0.8151 0.1921
vn -0.5837 0.6283 0.5143
vn -0.8939 -0.4325 0.1175
vn -0.5019 0.8441 -0.1887
vn -0.9594 -0.2624 -0.1036
vn -0.9439 -0.2640 -0.1985
vn -0.0454 -0.9981 0.0423
vn -0.0514 -0.9962 0.0705
vn 0.9208 -0.3670 0.1320
vn 0.9018 -0.3559 0.2453
vn 0.6419 0.7621 0.0850
vn 0.6537 0.7556 0.0423
vn -0.5160 0.8503 -0.1037
vn -0.4350 0.8051 -0.4032
vn -0.9064 -0.2904 -0.3068
vn -0.8760 -0.2970 -0.3800
vn -0.4665 0.8348 -0.2925
vn -0.9639 -0.2608 -0.0545
vn -0.1002 -0.9807 0.1682
vn -0.0533 -0.9918 0.1160
vn -0.0412 -0.9989 0.0228
vn 0.8085 -0.3322 0.4858
vn 0.8601 -0.3445 0.3763
vn 0.9267 -0.3695 0.0684
vn 0.6361 0.7592 0.1381
vn 0.6193 0.7719 0.1440
vn 0.6574 0.7532 0.0228
vn -0.4601 0.1834 0.8687
vn -0.4600 0.1834 0.8688
vn -0.4601 0.1833 0.8687
vn -0.4602 0.1837 0.8686
vn -0.8757 -0.2678 -0.4018
vn -0.1269 -0.9731 0.1922
vn 0.8023 -0.3031 0.5143
vn 0.6081 0.7851 0.1175
vn 0.9505 0.3106 -0.0001
vn 0.3195 0.1667 -0.9328
vn 0.8912 0.4536 -0.0001
vn 0.6659 0.7460 -0.0001
vn 0.2507 0.2809 -0.9264
vn 0.3498 0.9368 -0.0001
vn 0.0969 0.9953 -0.0001
vn -0.0028 0.3451 -0.9385
vn -0.0082 1.0000 0.0003
vn 0.3281 0.1072 -0.9385
vn -0.6996 -0.3600 -0.6172
vn -0.2784 -0.7359 -0.6172
vn 0.1295 0.3365 -0.9327
vn -0.0770 -0.7908 -0.6072
vn 0.0065 -0.7962 -0.6050
vn -0.7569 -0.2473 -0.6050
vn -0.6996 -0.3600 0.6172
vn -0.5182 -0.5806 -0.6280
vn -0.5182 -0.5806 0.6280
vn 0.0065 -0.7962 0.6050
vn 0.3282 0.1073 0.9385
vn 0.3196 0.1668 0.9327
vn 0.2508 0.2810 0.9263
vn -0.2784 -0.7359 0.6172
vn -0.0770 -0.7908 0.6072
vn -0.0028 0.3453 0.9385
vn 0.1296 0.3367 0.9327
vn 0.0333 0.3419 -0.9391
vn 0.0333 0.3421 0.9391
vn -0.4360 -0.8992 0.0369
vn -0.9890 0.1426 0.0398
vn -0.4439 -0.8957 0.0275
vn -0.4508 -0.8920 0.0330
vn 0.7255 -0.6881 -0.0151
vn 0.7112 -0.7026 -0.0235
vn 0.7169 -0.6970 -0.0117
vn 0.8856 0.4621 -0.0462
vn 0.8878 0.4583 -0.0417
vn 0.8818 0.4697 -0.0423
vn -0.1654 0.9862 -0.0024
vn -0.1671 0.9858 -0.0141
vn -0.1501 0.9886 -0.0152
vn -0.9876 0.1538 0.0327
vn -0.9866 0.1618 0.0210
vn -0.4151 -0.9084 0.0497
vn 0.7444 -0.6677 0.0058
vn 0.8894 0.4548 -0.0458
vn -0.1222 0.9918 -0.0387
vn -0.8938 0.3665 0.2587
vn -0.6137 -0.7760 0.1458
vn -0.6131 -0.7782 0.1359
vn 0.4889 -0.8378 -0.2431
vn 0.9404 0.2333 -0.2474
vn 0.9228 0.2325 -0.3073
vn 0.0855 0.9963 0.0123
vn 0.1000 0.9938 0.0478
vn -0.8655 0.3684 0.3393
vn -0.6282 -0.7772 0.0368
vn -0.9259 0.3669 0.0902
vn -0.6209 -0.7824 0.0482
vn -0.6231 -0.7760 0.0980
vn -0.6036 -0.7814 0.1587
vn 0.5507 -0.8345 -0.0151
vn 0.5414 -0.8387 -0.0595
vn 0.5363 -0.8355 -0.1200
vn 0.4437 -0.8259 -0.3480
vn 0.9673 0.2492 -0.0465
vn 0.9676 0.2365 -0.0884
vn 0.9534 0.2477 -0.1720
vn 0.0829 0.9965 0.0045
vn 0.0826 0.9966 0.0061
vn 0.8928 0.2227 -0.3916
vn 0.0774 0.9969 -0.0150
vn -0.9081 0.3781 0.1801
vn 0.1417 0.9857 0.0912
vn -0.4891 0.3228 -0.8103
vn -0.4893 0.3223 -0.8104
vn -0.4890 0.3228 -0.8103
vn -0.4889 0.3228 -0.8104
vn -0.7934 0.3074 0.5254
vn -0.8157 0.3584 0.4541
vn 0.3808 -0.8346 -0.3981
vn -0.5939 -0.7871 0.1666
vn 0.8691 0.2049 -0.4501
vn 0.1484 0.9797 0.1350
vn 0.5141 -0.8409 -0.1690
vn 0.9999 0.0039 0.0153
vn 0.9999 0.0039 0.0152
vn 0.9999 0.0040 0.0152
vn 0.2808 0.9598 -0.0014
vn 0.1632 0.2846 0.9447
vn 0.1081 0.2721 0.9562
vn 0.0601 0.3285 -0.9426
vn 0.2156 0.9765 -0.0074
vn -0.2207 -0.7524 -0.6206
vn -0.0283 0.3502 -0.9362
vn -0.2331 -0.7557 -0.6120
vn -0.1211 -0.8050 0.5808
vn -0.2140 -0.7936 0.5696
vn 0.2849 0.9565 0.0622
vn 0.0364 0.1385 0.9897
vn 0.1772 0.2673 0.9472
vn 0.1074 0.9934 0.0411
vn 0.1687 0.2459 0.9545
vn -0.1347 0.3861 -0.9126
vn 0.0568 0.9946 0.0868
vn 0.0749 0.2650 -0.9613
vn -0.1722 -0.7558 -0.6318
vn -0.1041 0.3831 -0.9178
vn -0.2379 -0.7824 -0.5755
vn 0.0005 -0.8345 0.5511
vn -0.1348 -0.7789 -0.6125
vn -0.2605 -0.8436 0.4695
vn 0.0569 -0.8289 0.5565
vn -0.9369 -0.2633 0.2300
vn -0.0834 -0.9900 -0.1135
vn -0.0448 -0.9979 -0.0474
vn 0.8225 -0.3728 -0.4296
vn 0.6502 0.7482 -0.1325
vn 0.8956 -0.3672 -0.2512
vn 0.6496 0.7365 -0.1886
vn -0.4876 0.8546 0.1786
vn -0.8899 -0.2695 0.3680
vn -0.4893 0.3226 -0.8103
vn -0.4890 0.3229 -0.8103
vn -0.4895 0.3224 -0.8102
vn -0.1286 -0.9814 -0.1428
vn -0.8539 -0.3039 0.4225
vn 0.7593 -0.3909 -0.5202
vn 0.6422 0.7391 -0.2033
vn -0.4254 0.8453 0.3233
vn -0.4111 0.8096 0.4190
vn -0.9495 -0.2718 0.1566
vn 0.9099 -0.3797 -0.1674
vn 0.6543 0.7505 -0.0929
vn -0.5183 0.8478 0.1122
vn -0.7713 0.5931 -0.2310
vn -0.7714 0.5930 -0.2310
vn -0.7712 0.5931 -0.2311
vn -0.7714 0.5929 -0.2311
vn 0.7346 0.6350 0.2389
vn 0.5862 0.2402 -0.7737
vn 0.5228 0.2477 -0.8157
vn 0.6296 0.0837 -0.7724
vn 0.9421 -0.0484 0.3319
vn 0.6323 -0.0484 -0.7732
vn -0.0074 0.2078 0.9782
vn 0.8439 0.4243 0.3284
vn -0.0106 -0.0288 0.9995
vn 0.9393 0.0836 0.3328
vn -0.8636 -0.3872 0.3228
vn -0.0053 0.0582 0.9983
vn -0.9612 0.0591 0.2693
vn -0.0114 0.0166 0.9998
vn -0.7603 -0.4993 0.4155
vn -0.4862 -0.2788 -0.8282
vn -0.9579 -0.1022 0.2683
vn -0.5292 0.0166 -0.8483
vn -0.4184 -0.4945 -0.7618
vn -0.5283 -0.0287 -0.8486
vn 0.7086 0.7054 0.0188
vn 0.4170 0.1005 -0.9033
vn 0.6239 0.1888 -0.7584
vn 0.9059 0.2335 0.3533
vn 0.9362 -0.1142 0.3322
vn 0.0951 0.3808 0.9198
vn -0.0109 -0.0296 0.9995
vn -0.9257 -0.2561 0.2782
vn -0.0101 0.0393 0.9992
vn -0.6478 -0.4881 0.5850
vn -0.5136 -0.1194 -0.8497
vn -0.5279 0.0394 -0.8484
vn -0.4388 -0.6713 -0.5973
vn -0.6026 -0.7642 0.2300
vn 0.5151 -0.8496 -0.1136
vn 0.5508 -0.8333 -0.0477
vn 0.8844 0.1823 -0.4296
vn 0.0857 0.9875 -0.1326
vn 0.9403 0.2297 -0.2512
vn 0.0921 0.9777 -0.1886
vn -0.8970 0.4046 0.1781
vn -0.5611 -0.7414 0.3681
vn -0.5854 -0.0270 -0.8103
vn -0.5854 -0.0268 -0.8103
vn 0.4733 -0.8693 -0.1429
vn -0.5118 -0.7480 0.4225
vn 0.8440 0.1305 -0.5203
vn 0.0846 0.9754 -0.2034
vn -0.8410 0.4335 0.3236
vn -0.8086 0.4130 0.4190
vn -0.6080 -0.7783 0.1566
vn 0.9590 0.2287 -0.1673
vn 0.0879 0.9918 -0.0929
vn -0.9178 0.3807 0.1123
vn 0.2906 -0.9549 -0.0615
vn -0.7696 -0.5354 -0.3480
vn -0.7938 -0.5395 -0.2809
vn 0.3083 -0.9497 -0.0553
vn 0.9690 -0.0470 0.2426
vn 0.9497 -0.0537 0.3086
vn 0.3226 0.9098 0.2610
vn 0.3199 0.9229 0.2141
vn -0.7487 0.6474 -0.1427
vn -0.7698 0.6291 -0.1081
vn -0.3382 -0.1992 0.9198
vn -0.3384 -0.1993 0.9196
vn -0.3381 -0.1993 0.9198
vn -0.3384 -0.1991 0.9197
vn 0.2713 -0.9597 -0.0732
vn 0.9257 -0.0686 0.3719
vn 0.2741 0.9165 0.2914
vn -0.7593 -0.5018 -0.4143
vn 0.2239 0.9746 0.0051
vn 0.8983 0.4393 0.0005
vn 0.8982 0.4395 0.0001
vn -0.8984 -0.4391 0.0041
vn 0.5782 0.3299 0.7463
vn 0.0864 -0.9948 -0.0544
vn 0.3305 -0.3691 0.8686
vn 0.0094 -0.8995 -0.4368
vn -0.5198 0.8525 -0.0545
vn -0.4604 0.1834 0.8686
vn -0.4088 0.8013 -0.4368
vn -0.7569 -0.2473 0.6050
vn -0.9869 0.1568 0.0368
vn -0.9258 0.3763 0.0369
vn -0.4891 0.3229 -0.8102
vn -0.4893 0.3225 -0.8103
vn -0.0436 -0.9989 -0.0197
vn -0.7715 0.5929 -0.2308
vn 0.6271 -0.1142 -0.7705
vn -0.9535 0.1394 0.2671
vn -0.5853 -0.0273 -0.8104
vn 0.5523 -0.8334 -0.0194
vn -0.3384 -0.1994 0.9197
vn -0.7486 0.6355 -0.1892
usemtl Default_OBJ.007
s 1
f 1/1/1 2/2/2 3/3/3
f 5/4/4 7/5/5 4/6/6
f 4/6/6 9/7/7 8/8/8
f 8/8/8 11/9/9 10/10/10
f 12/11/11 11/9/9 13/12/12
f 14/13/13 16/14/14 17/15/15
f 19/16/16 21/17/17 18/18/16
f 23/19/18 18/18/16 22/20/18
f 25/21/19 22/20/18 24/22/19
f 27/23/20 24/22/19 26/24/20
f 29/25/21 26/24/20 28/26/21
f 31/27/22 28/26/21 30/28/22
f 33/29/23 30/28/22 32/30/23
f 35/31/24 32/30/23 34/32/24
f 37/33/25 34/32/24 36/34/25
f 39/35/26 36/34/25 38/36/26
f 41/37/27 38/36/26 40/38/27
f 43/39/28 40/38/27 42/40/28
f 45/41/29 42/40/28 44/42/29
f 47/43/30 44/42/29 46/44/30
f 49/45/31 46/44/30 48/46/31
f 51/47/32 48/46/31 50/48/32
f 53/49/33 50/48/32 52/50/33
f 55/51/34 52/50/33 54/52/34
f 1/1/1 54/52/34 2/2/2
f 56/53/35 15/54/36 14/13/13
f 59/55/37 61/56/38 58/57/39
f 62/58/40 59/55/37 64/59/41
f 65/60/42 63/61/43 62/58/40
f 68/62/44 65/60/42 67/63/45
f 2/2/2 67/64/45 69/65/46
f 70/66/47 13/12/12 71/67/48
f 72/68/49 71/67/48 17/15/15
f 20/69/50 17/15/15 16/14/14
f 20/69/50 16/14/14 21/17/17
f 60/70/51 56/53/35 61/56/38
f 58/57/39 64/59/41 59/55/37
f 69/65/46 3/3/52 2/2/2
f 6/71/53 73/72/54 74/73/55
f 76/74/56 78/75/57 75/76/58
f 79/77/59 81/78/60 82/79/61
f 83/80/62 85/81/63 86/82/64
f 88/83/65 90/84/66 87/85/67
f 91/86/68 89/87/65 88/83/65
f 93/88/69 92/89/68 91/86/68
f 95/90/70 94/91/69 93/88/69
f 97/92/71 96/93/70 95/90/70
f 99/94/72 98/95/71 97/92/71
f 101/96/73 100/97/72 99/94/72
f 103/98/74 102/99/73 101/96/73
f 105/100/75 104/101/74 103/98/74
f 107/102/76 106/103/75 105/100/75
f 109/104/77 108/105/76 107/102/76
f 111/106/78 110/107/77 109/104/77
f 113/108/79 112/109/78 111/106/78
f 115/110/80 114/111/79 113/108/79
f 117/112/81 116/113/80 115/110/80
f 119/114/82 118/115/81 117/112/81
f 121/116/83 120/117/82 119/114/82
f 123/118/84 122/119/83 121/116/83
f 76/74/56 124/120/84 123/118/84
f 84/121/85 127/122/86 85/81/63
f 129/123/87 131/124/88 128/125/89
f 129/123/87 133/126/90 134/127/91
f 135/128/92 133/126/90 132/129/93
f 137/130/94 136/131/95 135/128/92
f 125/132/96 138/133/97 137/134/94
f 82/79/61 140/135/98 141/136/99
f 141/136/99 142/137/100 86/82/64
f 86/82/64 87/85/67 83/80/62
f 87/85/67 90/84/66 83/80/62
f 128/125/89 127/122/86 126/138/101
f 129/123/87 134/127/91 130/139/102
f 125/132/96 75/76/58 139/140/103
f 77/141/104 144/142/105 78/143/57
f 146/144/106 143/145/107 145/146/108
f 148/147/109 145/146/108 147/148/110
f 79/77/59 147/148/110 80/149/111
f 74/150/112 75/151/113 78/152/114
f 7/153/115 144/154/116 146/155/117
f 7/153/115 148/156/118 9/157/119
f 9/157/119 79/158/120 11/159/121
f 13/160/122 79/158/120 82/161/123
f 86/162/124 14/163/125 17/164/126
f 84/165/127 16/166/128 15/167/129
f 90/168/130 18/169/130 21/170/131
f 89/171/130 22/172/130 18/169/130
f 94/173/130 22/172/130 92/174/130
f 96/175/130 24/176/130 94/173/130
f 98/177/130 26/178/130 96/175/130
f 98/177/130 30/179/130 28/180/130
f 100/181/130 32/182/130 30/179/130
f 102/183/130 34/184/130 32/182/130
f 104/185/130 36/186/130 34/184/130
f 108/187/130 36/186/130 106/188/130
f 110/189/130 38/190/130 108/187/130
f 112/191/130 40/192/130 110/189/130
f 112/191/130 44/193/130 42/194/130
f 114/195/130 46/196/130 44/193/130
f 116/197/130 48/198/130 46/196/130
f 120/199/130 48/198/130 118/200/130
f 122/201/130 50/202/130 120/199/130
f 124/203/130 52/204/130 122/201/130
f 125/205/130 54/206/130 124/203/130
f 85/207/132 56/208/133 14/163/125
f 84/165/127 57/209/134 126/210/135
f 131/211/136 58/212/137 61/213/138
f 128/214/139 59/215/140 129/216/130
f 133/217/141 64/218/142 134/219/143
f 132/220/144 59/215/140 63/221/144
f 136/222/145 62/223/146 133/217/141
f 135/224/147 63/221/144 66/225/148
f 138/226/149 65/227/150 136/222/145
f 137/228/140 66/225/148 68/229/151
f 139/230/152 67/231/153 138/226/149
f 125/205/130 68/229/151 2/232/130
f 13/160/122 141/233/154 71/234/155
f 71/234/155 86/235/156 17/236/157
f 83/237/158 21/170/131 16/166/128
f 127/238/159 61/213/138 56/208/160
f 126/210/135 60/239/161 128/214/139
f 134/219/143 58/212/137 130/240/162
f 139/230/152 3/241/163 69/242/164
f 77/243/165 5/244/165 143/245/165
f 143/245/165 4/246/165 145/247/165
f 145/247/165 8/248/165 147/249/165
f 80/250/165 8/248/165 10/251/165
f 81/252/165 10/251/165 12/253/165
f 140/254/165 12/253/165 70/255/165
f 140/254/165 72/256/165 142/257/165
f 87/258/165 19/259/165 88/260/165
f 88/260/165 23/261/165 91/262/165
f 93/263/165 23/261/165 25/264/165
f 95/265/165 25/264/165 27/266/165
f 97/267/165 27/266/165 29/268/165
f 97/267/165 31/269/165 99/270/165
f 99/270/165 33/271/165 101/272/165
f 101/272/165 35/273/165 103/274/165
f 103/274/165 37/275/165 105/276/165
f 107/277/165 37/275/165 39/278/165
f 109/279/165 39/278/165 41/280/165
f 111/281/165 41/280/165 43/282/165
f 111/281/165 45/283/165 113/284/165
f 113/284/165 47/285/165 115/286/165
f 115/286/165 49/287/165 117/288/165
f 119/289/165 49/287/165 51/290/165
f 121/291/165 51/290/165 53/292/165
f 123/293/165 53/292/165 55/294/165
f 76/295/165 55/294/165 1/296/165
f 76/295/165 73/297/165 77/243/165
f 6/298/166 78/152/114 144/154/116
f 142/257/165 20/299/165 87/258/165
f 75/76/58 125/132/96 76/74/56
f 1/1/1 74/300/55 73/301/54
f 150/302/167 152/303/168 149/304/169
f 149/305/169 154/306/170 153/307/171
f 153/307/171 156/308/172 155/309/173
f 157/310/174 156/308/172 158/311/175
f 150/302/167 158/311/175 151/312/176
f 159/313/177 150/302/167 149/304/169
f 151/312/176 162/314/178 152/303/168
f 159/315/177 153/307/171 163/316/179
f 152/317/168 164/318/180 154/306/170
f 163/316/179 155/309/173 165/319/181
f 154/306/170 166/320/182 156/308/172
f 155/309/173 167/321/183 165/319/181
f 166/320/182 158/311/175 156/308/172
f 157/310/174 160/322/184 167/321/183
f 168/323/185 151/312/176 158/311/175
f 169/324/186 171/325/187 172/326/188
f 169/324/186 172/326/188 173/327/189
f 170/328/190 160/322/184 159/313/177
f 171/329/191 159/315/177 163/316/179
f 165/319/181 171/329/191 163/316/179
f 167/321/183 172/330/192 165/319/181
f 160/322/184 173/331/193 167/321/183
f 175/332/194 177/333/195 174/334/196
f 174/335/196 179/336/197 178/337/198
f 178/337/198 181/338/199 180/339/200
f 182/340/201 181/338/199 183/341/202
f 175/332/194 183/341/202 176/342/203
f 185/343/204 187/344/205 184/345/206
f 186/346/207 174/334/196 187/344/205
f 176/342/203 189/347/208 177/333/195
f 190/348/209 187/349/205 191/350/210
f 178/337/198 187/349/205 174/335/196
f 177/351/195 192/352/211 179/336/197
f 193/353/212 191/350/210 194/354/213
f 180/339/200 191/350/210 178/337/198
f 179/336/197 195/355/214 181/338/199
f 193/353/212 197/356/215 196/357/216
f 197/356/215 180/339/200 182/340/201
f 195/355/214 183/341/202 181/338/199
f 186/346/207 196/357/216 197/356/215
f 186/346/207 182/340/201 175/332/194
f 198/358/217 176/342/203 183/341/202
f 199/359/218 201/360/219 202/361/220
f 199/359/218 202/361/220 203/362/221
f 200/363/222 185/343/204 184/345/206
f 201/364/223 184/365/206 190/348/209
f 193/353/212 201/364/223 190/348/209
f 196/357/216 202/366/224 193/353/212
f 185/343/204 203/367/225 196/357/216
f 205/368/226 207/369/227 204/370/228
f 207/371/227 209/372/229 204/370/228
f 208/373/230 211/374/231 209/372/229
f 213/375/232 215/376/233 212/377/234
f 206/378/235 217/379/236 207/380/227
f 217/379/236 208/381/230 207/380/227
f 208/381/230 219/382/237 210/383/238
f 215/384/233 220/385/239 221/386/240
f 216/387/241 223/388/242 217/379/236
f 223/388/242 218/389/243 217/379/236
f 224/390/244 219/382/237 218/389/243
f 220/385/239 227/391/245 221/386/240
f 223/388/242 228/392/246 229/393/247
f 223/388/242 230/394/248 224/390/244
f 230/394/248 225/395/249 224/390/244
f 226/396/250 233/397/251 227/391/245
f 229/393/247 205/368/226 204/370/228
f 229/393/247 209/372/229 230/394/248
f 230/394/248 211/374/231 231/398/252
f 233/397/251 213/375/232 212/377/234
f 211/374/231 214/399/253 213/375/232
f 219/382/237 214/400/253 210/383/238
f 225/395/249 220/385/239 219/382/237
f 225/395/249 232/401/254 226/396/250
f 211/374/231 232/401/254 231/398/252
f 235/402/255 237/403/256 234/404/257
f 237/403/256 239/405/258 234/404/257
f 241/406/259 234/407/257 240/408/260
f 240/408/260 239/409/258 242/410/261
f 244/411/262 240/408/260 243/412/263
f 243/412/263 242/410/261 245/413/264
f 246/414/265 244/411/262 243/412/263
f 243/412/263 248/415/266 246/414/265
f 237/403/256 247/416/267 246/414/265
f 246/414/265 238/417/268 237/403/256
f 239/405/258 250/418/269 249/419/270
f 242/410/261 249/420/270 251/421/271
f 245/413/264 251/421/271 252/422/272
f 245/413/264 253/423/273 248/415/266
f 248/415/266 250/418/269 238/417/268
f 255/424/274 257/425/275 254/426/276
f 258/427/277 254/428/276 257/429/275
f 261/430/278 258/427/277 260/431/279
f 263/432/280 260/431/279 262/433/281
f 255/424/274 262/433/281 256/434/282
f 265/435/283 267/436/284 264/437/285
f 267/436/284 269/438/286 264/437/285
f 256/434/282 271/439/287 257/425/275
f 273/440/288 264/441/285 272/442/289
f 264/441/285 274/443/290 272/442/289
f 257/429/275 275/444/291 258/427/277
f 277/445/292 272/442/289 276/446/293
f 276/446/293 274/443/290 278/447/294
f 275/444/291 260/431/279 258/427/277
f 280/448/295 277/445/292 276/446/293
f 280/448/295 278/447/294 282/449/296
f 279/450/297 262/433/281 260/431/279
f 267/436/284 281/451/298 280/448/295
f 280/448/295 268/452/299 267/436/284
f 283/453/300 256/434/282 262/433/281
f 284/454/301 286/455/302 287/456/303
f 288/457/304 287/456/303 286/455/302
f 288/458/305 271/439/287 270/459/306
f 285/460/307 271/461/287 286/462/308
f 275/444/291 284/463/309 279/450/297
f 284/463/309 283/453/300 279/450/297
f 287/464/310 270/459/306 283/453/300
f 254/426/276 268/452/299 255/424/274
f 269/465/286 259/466/311 274/443/290
f 278/447/294 259/466/311 261/430/278
f 282/449/296 261/430/278 263/432/280
f 268/452/299 263/432/280 255/424/274
f 290/467/312 292/468/312 289/469/313
f 293/470/314 292/468/312 291/471/312
f 295/472/315 297/473/316 294/474/317
f 298/475/318 296/476/319 295/477/315
f 298/475/318 301/478/320 299/479/321
f 300/480/322 303/481/323 301/478/320
f 294/474/317 303/481/323 302/482/324
f 290/483/325 294/484/317 291/485/326
f 296/486/319 305/487/327 297/473/316
f 304/488/328 307/489/329 305/487/327
f 290/483/325 298/475/318 295/477/315
f 299/479/321 304/490/328 296/476/319
f 304/490/328 309/491/330 306/492/331
f 289/493/332 300/480/322 298/475/318
f 310/494/333 299/479/321 301/478/320
f 310/494/333 309/491/330 308/495/334
f 292/496/335 302/482/324 300/480/322
f 312/497/336 301/478/320 303/481/323
f 312/497/336 311/498/337 310/494/333
f 291/499/326 302/482/324 293/500/338
f 297/473/316 312/497/336 303/481/323
f 312/497/336 307/489/329 313/501/339
f 314/502/340 316/503/341 317/504/342
f 318/505/343 317/504/342 316/503/341
f 318/505/343 321/506/344 319/507/345
f 320/508/346 323/509/347 321/506/344
f 323/509/347 315/510/348 314/511/340
f 324/512/349 326/513/350 327/514/351
f 328/515/304 327/514/351 326/513/350
f 325/516/352 315/517/348 326/518/353
f 316/503/341 324/519/354 318/505/343
f 327/520/355 318/505/343 324/519/354
f 327/520/355 322/521/356 320/508/346
f 328/522/357 315/510/348 322/521/356
f 317/523/342 330/524/358 314/511/340
f 331/525/359 317/504/342 319/507/345
f 332/526/360 319/507/345 321/506/344
f 333/527/361 321/506/344 323/509/347
f 333/527/361 314/511/340 330/524/358
f 335/528/362 337/529/363 334/530/364
f 334/530/364 337/529/363 338/531/365
f 340/532/366 342/533/367 339/534/368
f 343/535/369 345/536/370 346/537/371
f 347/538/372 341/539/373 340/540/366
f 349/541/374 345/542/370 344/543/375
f 347/538/372 352/544/376 348/545/377
f 349/541/374 354/546/378 350/547/379
f 351/548/380 356/549/381 352/544/376
f 353/550/382 358/551/383 354/546/378
f 339/534/368 356/549/381 355/552/384
f 357/553/385 346/537/371 358/551/383
f 338/554/386 339/534/368 334/555/387
f 360/556/388 341/557/373 359/558/389
f 360/556/388 344/559/375 343/535/369
f 361/560/390 346/537/371 345/536/370
f 337/561/391 340/540/366 338/562/386
f 348/545/377 359/563/389 341/539/373
f 363/564/392 344/543/375 359/563/389
f 350/547/379 361/565/390 345/542/370
f 337/561/391 351/548/380 347/538/372
f 365/566/393 348/545/377 352/544/376
f 363/564/392 353/550/382 349/541/374
f 354/546/378 364/567/394 350/547/379
f 336/568/395 355/552/384 351/548/380
f 367/569/396 352/544/376 356/549/381
f 367/569/396 353/550/382 365/566/393
f 368/570/397 354/546/378 358/551/383
f 334/555/387 355/552/384 335/571/398
f 342/533/367 367/569/396 356/549/381
f 367/569/396 343/535/369 357/553/385
f 346/537/371 368/570/397 358/551/383
f 369/572/399 371/573/400 372/574/401
f 373/575/402 372/574/401 371/573/400
f 373/575/402 376/576/403 374/577/404
f 375/578/405 378/579/406 376/576/403
f 378/579/406 370/580/407 369/581/399
f 379/582/408 381/583/408 382/584/409
f 383/585/409 382/584/409 381/583/408
f 380/586/410 370/587/407 381/588/411
f 371/573/400 379/589/412 373/575/402
f 382/590/413 373/575/402 379/589/412
f 382/590/413 377/591/414 375/578/405
f 383/592/415 370/580/407 377/591/414
f 372/593/401 385/594/416 369/581/399
f 386/595/417 372/574/401 374/577/404
f 387/596/418 374/577/404 376/576/403
f 388/597/419 376/576/403 378/579/406
f 388/597/419 369/581/399 385/594/416
f 390/598/420 392/599/421 389/600/422
f 391/601/423 393/602/424 394/603/425
f 393/602/424 396/604/426 394/603/425
f 395/605/427 398/606/428 396/604/426
f 397/607/429 392/608/421 398/606/428
f 399/609/430 401/610/431 402/611/432
f 399/609/430 402/611/432 403/612/433
f 400/613/434 392/614/421 391/601/423
f 401/615/435 391/601/423 394/603/425
f 396/604/426 401/615/435 394/603/425
f 398/606/428 402/616/436 396/604/426
f 399/617/437 398/606/428 392/608/421
f 5/4/4 6/71/53 7/5/5
f 4/6/6 7/5/5 9/7/7
f 8/8/8 9/7/7 11/9/9
f 12/11/11 10/10/10 11/9/9
f 14/13/13 15/54/36 16/14/14
f 19/16/16 20/69/50 21/17/17
f 23/19/18 19/16/16 18/18/16
f 25/21/19 23/19/18 22/20/18
f 27/23/20 25/21/19 24/22/19
f 29/25/21 27/23/20 26/24/20
f 31/27/22 29/25/21 28/26/21
f 33/29/23 31/27/22 30/28/22
f 35/31/24 33/29/23 32/30/23
f 37/33/25 35/31/24 34/32/24
f 39/35/26 37/33/25 36/34/25
f 41/37/27 39/35/26 38/36/26
f 43/39/28 41/37/27 40/38/27
f 45/41/29 43/39/28 42/40/28
f 47/43/30 45/41/29 44/42/29
f 49/45/31 47/43/30 46/44/30
f 51/47/32 49/45/31 48/46/31
f 53/49/33 51/47/32 50/48/32
f 55/51/34 53/49/33 52/50/33
f 1/1/1 55/51/34 54/52/34
f 56/53/35 57/618/438 15/54/36
f 59/55/37 60/70/51 61/56/38
f 62/58/40 63/61/43 59/55/37
f 65/60/42 66/619/439 63/61/43
f 68/62/44 66/619/439 65/60/42
f 2/2/2 68/620/44 67/64/45
f 70/66/47 12/11/11 13/12/12
f 72/68/49 70/66/47 71/67/48
f 20/69/50 72/68/49 17/15/15
f 60/70/51 57/618/438 56/53/35
f 6/71/53 5/4/440 73/72/54
f 76/74/56 77/621/104 78/75/57
f 79/77/59 80/149/111 81/78/60
f 83/80/62 84/121/85 85/81/63
f 88/83/65 89/87/65 90/84/66
f 91/86/68 92/89/68 89/87/65
f 93/88/69 94/91/69 92/89/68
f 95/90/70 96/93/70 94/91/69
f 97/92/71 98/95/71 96/93/70
f 99/94/72 100/97/72 98/95/71
f 101/96/73 102/99/73 100/97/72
f 103/98/74 104/101/74 102/99/73
f 105/100/75 106/103/75 104/101/74
f 107/102/76 108/105/76 106/103/75
f 109/104/77 110/107/77 108/105/76
f 111/106/78 112/109/78 110/107/77
f 113/108/79 114/111/79 112/109/78
f 115/110/80 116/113/80 114/111/79
f 117/112/81 118/115/81 116/113/80
f 119/114/82 120/117/82 118/115/81
f 121/116/83 122/119/83 120/117/82
f 123/118/84 124/120/84 122/119/83
f 76/74/56 125/132/96 124/120/84
f 84/121/85 126/138/101 127/122/86
f 129/123/87 130/139/102 131/124/88
f 129/123/87 132/129/93 133/126/90
f 135/128/92 136/131/95 133/126/90
f 137/130/94 138/622/97 136/131/95
f 125/132/96 139/140/103 138/133/97
f 82/79/61 81/78/60 140/135/98
f 141/136/99 140/135/98 142/137/100
f 86/82/64 142/137/100 87/85/67
f 128/125/89 131/124/88 127/122/86
f 77/141/104 143/145/441 144/142/105
f 146/144/106 144/142/105 143/145/107
f 148/147/109 146/144/106 145/146/108
f 79/77/59 148/147/109 147/148/110
f 74/150/112 3/241/163 75/151/113
f 7/153/115 6/298/166 144/154/116
f 7/153/115 146/155/117 148/156/118
f 9/157/119 148/156/118 79/158/120
f 13/160/122 11/159/121 79/158/120
f 86/162/124 85/207/132 14/163/125
f 84/165/127 83/237/158 16/166/128
f 90/168/130 89/171/130 18/169/130
f 89/171/130 92/174/130 22/172/130
f 94/173/130 24/176/130 22/172/130
f 96/175/130 26/178/130 24/176/130
f 98/177/130 28/180/130 26/178/130
f 98/177/130 100/181/130 30/179/130
f 100/181/130 102/183/130 32/182/130
f 102/183/130 104/185/130 34/184/130
f 104/185/130 106/188/130 36/186/130
f 108/187/130 38/190/130 36/186/130
f 110/189/130 40/192/130 38/190/130
f 112/191/130 42/194/130 40/192/130
f 112/191/130 114/195/130 44/193/130
f 114/195/130 116/197/130 46/196/130
f 116/197/130 118/200/130 48/198/130
f 120/199/130 50/202/130 48/198/130
f 122/201/130 52/204/130 50/202/130
f 124/203/130 54/206/130 52/204/130
f 125/205/130 2/232/130 54/206/130
f 85/207/132 127/238/442 56/208/133
f 84/165/127 15/167/129 57/209/134
f 131/211/136 130/240/162 58/212/137
f 128/214/139 60/239/161 59/215/140
f 133/217/141 62/223/146 64/218/142
f 132/220/144 129/216/130 59/215/140
f 136/222/145 65/227/150 62/223/146
f 135/224/147 132/220/144 63/221/144
f 138/226/149 67/231/153 65/227/150
f 137/228/140 135/224/147 66/225/148
f 139/230/152 69/242/164 67/231/153
f 125/205/130 137/228/140 68/229/151
f 13/160/122 82/161/123 141/233/154
f 71/234/155 141/233/154 86/235/156
f 83/237/158 90/168/130 21/170/131
f 127/238/159 131/211/136 61/213/138
f 126/210/135 57/209/134 60/239/161
f 134/219/143 64/218/142 58/212/137
f 139/230/152 75/151/113 3/241/163
f 77/243/165 73/297/165 5/244/165
f 143/245/165 5/244/165 4/246/165
f 145/247/165 4/246/165 8/248/165
f 80/250/165 147/249/165 8/248/165
f 81/252/165 80/250/165 10/251/165
f 140/254/165 81/252/165 12/253/165
f 140/254/165 70/255/165 72/256/165
f 87/258/165 20/299/165 19/259/165
f 88/260/165 19/259/165 23/261/165
f 93/263/165 91/262/165 23/261/165
f 95/265/165 93/263/165 25/264/165
f 97/267/165 95/265/165 27/266/165
f 97/267/165 29/268/165 31/269/165
f 99/270/165 31/269/165 33/271/165
f 101/272/165 33/271/165 35/273/165
f 103/274/165 35/273/165 37/275/165
f 107/277/165 105/276/165 37/275/165
f 109/279/165 107/277/165 39/278/165
f 111/281/165 109/279/165 41/280/165
f 111/281/165 43/282/165 45/283/165
f 113/284/165 45/283/165 47/285/165
f 115/286/165 47/285/165 49/287/165
f 119/289/165 117/288/165 49/287/165
f 121/291/165 119/289/165 51/290/165
f 123/293/165 121/291/165 53/292/165
f 76/295/165 123/293/165 55/294/165
f 76/295/165 1/296/165 73/297/165
f 6/298/166 74/150/112 78/152/114
f 142/257/165 72/256/165 20/299/165
f 1/1/1 3/3/3 74/300/55
f 150/302/167 151/312/176 152/303/168
f 149/305/169 152/317/168 154/306/170
f 153/307/171 154/306/170 156/308/172
f 157/310/174 155/309/173 156/308/172
f 150/302/167 157/310/174 158/311/175
f 159/313/177 160/322/184 150/302/167
f 151/312/176 161/623/443 162/314/178
f 159/315/177 149/305/169 153/307/171
f 152/317/168 162/624/178 164/318/180
f 163/316/179 153/307/171 155/309/173
f 154/306/170 164/318/180 166/320/182
f 155/309/173 157/310/174 167/321/183
f 166/320/182 168/323/185 158/311/175
f 157/310/174 150/302/167 160/322/184
f 168/323/185 161/623/443 151/312/176
f 169/324/186 170/625/444 171/325/187
f 170/328/190 169/626/445 160/322/184
f 171/329/191 170/627/190 159/315/177
f 165/319/181 172/330/192 171/329/191
f 167/321/183 173/331/193 172/330/192
f 160/322/184 169/626/445 173/331/193
f 175/332/194 176/342/203 177/333/195
f 174/335/196 177/351/195 179/336/197
f 178/337/198 179/336/197 181/338/199
f 182/340/201 180/339/200 181/338/199
f 175/332/194 182/340/201 183/341/202
f 185/343/204 186/346/207 187/344/205
f 186/346/207 175/332/194 174/334/196
f 176/342/203 188/628/446 189/347/208
f 190/348/209 184/365/206 187/349/205
f 178/337/198 191/350/210 187/349/205
f 177/351/195 189/629/208 192/352/211
f 193/353/212 190/348/209 191/350/210
f 180/339/200 194/354/213 191/350/210
f 179/336/197 192/352/211 195/355/214
f 193/353/212 194/354/213 197/356/215
f 197/356/215 194/354/213 180/339/200
f 195/355/214 198/358/217 183/341/202
f 186/346/207 185/343/204 196/357/216
f 186/346/207 197/356/215 182/340/201
f 198/358/217 188/628/446 176/342/203
f 199/359/218 200/630/447 201/360/219
f 200/363/222 199/631/448 185/343/204
f 201/364/223 200/632/222 184/365/206
f 193/353/212 202/366/224 201/364/223
f 196/357/216 203/367/225 202/366/224
f 185/343/204 199/631/448 203/367/225
f 205/368/226 206/633/235 207/369/227
f 207/371/227 208/634/230 209/372/229
f 208/373/230 210/635/238 211/374/231
f 213/375/232 214/636/253 215/376/233
f 206/378/235 216/387/241 217/379/236
f 217/379/236 218/389/243 208/381/230
f 208/381/230 218/389/243 219/382/237
f 215/384/233 214/400/253 220/385/239
f 216/387/241 222/637/449 223/388/242
f 223/388/242 224/390/244 218/389/243
f 224/390/244 225/395/249 219/382/237
f 220/385/239 226/396/250 227/391/245
f 223/388/242 222/637/449 228/392/246
f 223/388/242 229/393/247 230/394/248
f 230/394/248 231/398/252 225/395/249
f 226/396/250 232/401/254 233/397/251
f 229/393/247 228/392/246 205/368/226
f 229/393/247 204/370/228 209/372/229
f 230/394/248 209/372/229 211/374/231
f 233/397/251 232/401/254 213/375/232
f 211/374/231 210/638/238 214/399/253
f 219/382/237 220/385/239 214/400/253
f 225/395/249 226/396/250 220/385/239
f 225/395/249 231/398/252 232/401/254
f 211/374/231 213/375/232 232/401/254
f 235/402/255 236/639/450 237/403/256
f 237/403/256 238/417/268 239/405/258
f 241/406/259 235/640/255 234/407/257
f 240/408/260 234/407/257 239/409/258
f 244/411/262 241/406/259 240/408/260
f 243/412/263 240/408/260 242/410/261
f 246/414/265 247/416/267 244/411/262
f 243/412/263 245/413/264 248/415/266
f 237/403/256 236/639/450 247/416/267
f 246/414/265 248/415/266 238/417/268
f 239/405/258 238/417/268 250/418/269
f 242/410/261 239/409/258 249/420/270
f 245/413/264 242/410/261 251/421/271
f 245/413/264 252/422/272 253/423/273
f 248/415/266 253/423/273 250/418/269
f 255/424/274 256/434/282 257/425/275
f 258/427/277 259/466/311 254/428/276
f 261/430/278 259/466/311 258/427/277
f 263/432/280 261/430/278 260/431/279
f 255/424/274 263/432/280 262/433/281
f 265/435/283 266/641/451 267/436/284
f 267/436/284 268/452/299 269/438/286
f 256/434/282 270/459/306 271/439/287
f 273/440/288 265/642/283 264/441/285
f 264/441/285 269/465/286 274/443/290
f 257/429/275 271/461/287 275/444/291
f 277/445/292 273/440/288 272/442/289
f 276/446/293 272/442/289 274/443/290
f 275/444/291 279/450/297 260/431/279
f 280/448/295 281/451/298 277/445/292
f 280/448/295 276/446/293 278/447/294
f 279/450/297 283/453/300 262/433/281
f 267/436/284 266/641/451 281/451/298
f 280/448/295 282/449/296 268/452/299
f 283/453/300 270/459/306 256/434/282
f 284/454/301 285/643/452 286/455/302
f 288/458/305 286/644/308 271/439/287
f 285/460/307 275/444/291 271/461/287
f 275/444/291 285/460/307 284/463/309
f 284/463/309 287/464/310 283/453/300
f 287/464/310 288/458/305 270/459/306
f 254/426/276 269/438/286 268/452/299
f 269/465/286 254/428/276 259/466/311
f 278/447/294 274/443/290 259/466/311
f 282/449/296 278/447/294 261/430/278
f 268/452/299 282/449/296 263/432/280
f 290/467/312 291/471/312 292/468/312
f 295/472/315 296/645/319 297/473/316
f 298/475/318 299/479/321 296/476/319
f 298/475/318 300/480/322 301/478/320
f 300/480/322 302/482/324 303/481/323
f 294/474/317 297/473/316 303/481/323
f 290/483/325 295/477/315 294/484/317
f 296/486/319 304/646/328 305/487/327
f 304/488/328 306/647/331 307/489/329
f 290/483/325 289/493/332 298/475/318
f 299/479/321 308/495/334 304/490/328
f 304/490/328 308/495/334 309/491/330
f 289/493/332 292/496/335 300/480/322
f 310/494/333 308/495/334 299/479/321
f 310/494/333 311/498/337 309/491/330
f 292/496/335 293/500/338 302/482/324
f 312/497/336 310/494/333 301/478/320
f 312/497/336 313/501/339 311/498/337
f 291/499/326 294/474/317 302/482/324
f 297/473/316 305/487/327 312/497/336
f 312/497/336 305/487/327 307/489/329
f 314/502/340 315/648/348 316/503/341
f 318/505/343 319/507/345 317/504/342
f 318/505/343 320/508/346 321/506/344
f 320/508/346 322/521/356 323/509/347
f 323/509/347 322/521/356 315/510/348
f 324/512/349 325/649/453 326/513/350
f 325/516/352 316/503/341 315/517/348
f 316/503/341 325/516/352 324/519/354
f 327/520/355 320/508/346 318/505/343
f 327/520/355 328/522/357 322/521/356
f 328/522/357 326/650/353 315/510/348
f 317/523/342 329/651/454 330/524/358
f 331/525/359 329/652/454 317/504/342
f 332/526/360 331/525/359 319/507/345
f 333/527/361 332/526/360 321/506/344
f 333/527/361 323/509/347 314/511/340
f 335/528/362 336/653/455 337/529/363
f 340/532/366 341/557/373 342/533/367
f 343/535/369 344/559/375 345/536/370
f 347/538/372 348/545/377 341/539/373
f 349/541/374 350/547/379 345/542/370
f 347/538/372 351/548/380 352/544/376
f 349/541/374 353/550/382 354/546/378
f 351/548/380 355/552/384 356/549/381
f 353/550/382 357/553/385 358/551/383
f 339/534/368 342/533/367 356/549/381
f 357/553/385 343/535/369 346/537/371
f 338/554/386 340/532/366 339/534/368
f 360/556/388 342/533/367 341/557/373
f 360/556/388 359/558/389 344/559/375
f 361/560/390 362/654/456 346/537/371
f 337/561/391 347/538/372 340/540/366
f 348/545/377 363/564/392 359/563/389
f 363/564/392 349/541/374 344/543/375
f 350/547/379 364/567/394 361/565/390
f 337/561/391 336/568/395 351/548/380
f 365/566/393 363/564/392 348/545/377
f 363/564/392 365/566/393 353/550/382
f 354/546/378 366/655/457 364/567/394
f 336/568/395 335/571/398 355/552/384
f 367/569/396 365/566/393 352/544/376
f 367/569/396 357/553/385 353/550/382
f 368/570/397 366/655/457 354/546/378
f 334/555/387 339/534/368 355/552/384
f 342/533/367 360/556/388 367/569/396
f 367/569/396 360/556/388 343/535/369
f 346/537/371 362/654/456 368/570/397
f 369/572/399 370/656/407 371/573/400
f 373/575/402 374/577/404 372/574/401
f 373/575/402 375/578/405 376/576/403
f 375/578/405 377/591/414 378/579/406
f 378/579/406 377/591/414 370/580/407
f 379/582/408 380/657/458 381/583/408
f 380/586/410 371/573/400 370/587/407
f 371/573/400 380/586/410 379/589/412
f 382/590/413 375/578/405 373/575/402
f 382/590/413 383/592/415 377/591/414
f 383/592/415 381/658/411 370/580/407
f 372/593/401 384/659/459 385/594/416
f 386/595/417 384/660/459 372/574/401
f 387/596/418 386/595/417 374/577/404
f 388/597/419 387/596/418 376/576/403
f 388/597/419 378/579/406 369/581/399
f 390/598/420 391/601/423 392/599/421
f 391/601/423 390/598/420 393/602/424
f 393/602/424 395/605/427 396/604/426
f 395/605/427 397/607/429 398/606/428
f 397/607/429 389/661/422 392/608/421
f 399/609/430 400/662/460 401/610/431
f 400/613/434 399/663/437 392/614/421
f 401/615/435 400/613/434 391/601/423
f 396/604/426 402/616/436 401/615/435
f 398/606/428 403/664/461 402/616/436
f 399/617/437 403/664/461 398/606/428
