# Blender v2.83.1 OBJ File: ''
# www.blender.org
mtllib Wasp_Scope.mtl
o SCOPE_SCOPE.003
v 1.281526 2.696713 -0.255159
v 0.544073 2.679516 -0.276650
v 1.287878 2.679521 -0.276635
v 0.547000 2.696707 -0.255177
v 1.278605 2.704511 -0.214245
v 0.548346 2.704507 -0.214260
v 0.548346 2.704507 0.213539
v 1.278605 2.704512 0.213556
v 0.546997 2.696707 0.254452
v 1.281530 2.696713 0.254467
v 0.544073 2.679517 0.275931
v 1.287878 2.679521 0.275948
v 1.318715 2.596279 -0.295361
v 0.419202 2.068614 -0.310461
v 1.535288 2.068616 -0.310456
v 0.527748 2.596271 -0.295383
v 1.298312 2.650869 -0.289518
v 0.538646 2.650864 -0.289533
v 1.287878 2.679521 -0.276635
v 0.544073 2.679516 -0.276650
v 0.419199 2.068614 0.309763
v 1.535288 2.068616 -0.310456
v 0.419202 2.068614 -0.310461
v 1.535292 2.068617 0.309767
v 0.543751 2.677967 0.322524
v 0.544073 2.679517 0.275931
v 0.538646 2.650864 0.288811
v 0.532665 2.620205 0.329048
v 0.412341 2.035067 0.345924
v 0.412342 2.035067 -0.346615
v 0.351613 2.035067 -0.346615
v 0.351611 2.035067 0.345924
v 0.472200 2.620207 0.329050
v 0.412341 2.035067 0.345924
v 0.351611 2.035067 0.345924
v 0.532665 2.620205 0.329048
v 0.482769 2.677967 0.322525
v 0.543751 2.677967 0.322524
v 0.488302 2.708282 0.308144
v 0.548963 2.708282 0.308141
v 0.491646 2.726472 0.284162
v 0.552155 2.726470 0.284160
v 0.493186 2.734722 0.238480
v 0.553566 2.734722 0.238480
v 0.553566 2.734722 -0.239201
v 0.493186 2.734722 -0.239201
v 0.552155 2.726470 -0.284892
v 0.491650 2.726472 -0.284889
v 0.548963 2.708282 -0.308870
v 0.488302 2.708282 -0.308867
v 0.543755 2.677967 -0.323254
v 0.482773 2.677967 -0.323254
v 0.532665 2.620205 -0.329787
v 0.472200 2.620207 -0.329783
v 0.412342 2.035067 -0.346615
v 0.351613 2.035067 -0.346615
v 0.482773 2.677967 -0.323254
v 0.471933 2.618844 -0.374266
v 0.472200 2.620207 -0.329783
v 0.485723 2.694154 -0.366018
v 0.488302 2.708282 -0.308867
v 0.495574 2.747948 -0.341283
v 0.491650 2.726472 -0.284889
v 0.501484 2.780223 -0.300064
v 0.493186 2.734722 -0.239201
v 0.503454 2.790983 -0.242350
v 0.493186 2.734722 0.238480
v 0.503454 2.790984 0.241658
v 0.501484 2.780223 0.299368
v 0.491646 2.726472 0.284162
v 0.495574 2.747948 0.340585
v 0.488302 2.708282 0.308144
v 0.485725 2.694155 0.365314
v 0.482769 2.677967 0.322525
v 0.471933 2.618844 0.373557
v 0.472200 2.620207 0.329050
v 1.298312 2.650869 -0.289518
v 1.309495 2.620213 -0.329762
v 1.288448 2.677972 -0.323236
v 1.287878 2.679521 -0.276635
v 1.277402 2.708287 -0.308848
v 1.270778 2.726477 -0.284874
v 1.281526 2.696713 -0.255159
v 1.535292 2.068617 0.309767
v 1.549250 2.035067 -0.346616
v 1.535288 2.068616 -0.310456
v 1.549250 2.035067 0.345927
v 1.281526 2.696713 -0.255159
v 1.270778 2.726477 -0.284874
v 1.267771 2.734729 -0.239185
v 1.278605 2.704511 -0.214245
v 1.267771 2.734729 0.238497
v 1.278605 2.704512 0.213556
v 1.281530 2.696713 0.254467
v 1.270778 2.726477 0.284179
v 1.535292 2.068617 0.309767
v 0.419199 2.068614 0.309763
v 1.318715 2.596279 0.294674
v 0.527748 2.596272 0.294649
v 1.298316 2.650869 0.288828
v 0.538646 2.650864 0.288811
v 1.287878 2.679521 0.275948
v 0.544073 2.679517 0.275931
v 0.538646 2.650864 -0.289533
v 0.532665 2.620205 -0.329787
v 0.527748 2.596271 -0.295383
v 0.544073 2.679516 -0.276650
v 0.543755 2.677967 -0.323254
v 0.538646 2.650864 -0.289533
v 0.532665 2.620205 -0.329787
v 0.532665 2.620205 0.329048
v 0.538646 2.650864 0.288811
v 0.527748 2.596272 0.294649
v 0.544073 2.679517 0.275931
v 0.543751 2.677967 0.322524
v 0.548963 2.708282 0.308141
v 0.552155 2.726470 0.284160
v 0.546997 2.696707 0.254452
v 0.553566 2.734722 0.238480
v 0.548346 2.704507 0.213539
v 0.548346 2.704507 -0.214260
v 0.553566 2.734722 -0.239201
v 0.547000 2.696707 -0.255177
v 0.552155 2.726470 -0.284892
v 0.544073 2.679516 -0.276650
v 0.548963 2.708282 -0.308870
v 0.543755 2.677967 -0.323254
v 0.419202 2.068614 -0.310461
v 0.527748 2.596271 -0.295383
v 0.532665 2.620205 -0.329787
v 0.412342 2.035067 -0.346615
v 0.419199 2.068614 0.309763
v 0.412341 2.035067 0.345924
v 0.532665 2.620205 0.329048
v 0.527748 2.596272 0.294649
v 0.472200 2.620207 0.329050
v 0.351611 2.035067 0.345924
v 0.471933 2.618844 0.373557
v 0.340048 1.978811 0.390418
v 0.340048 1.978811 -0.391105
v 0.351613 2.035067 -0.346615
v 0.471933 2.618844 -0.374266
v 0.472200 2.620207 -0.329783
v 1.309495 2.620213 -0.329762
v 1.298312 2.650869 -0.289518
v 1.318715 2.596279 -0.295361
v 1.549250 2.035067 -0.346616
v 1.309495 2.620213 -0.329762
v 1.535288 2.068616 -0.310456
v 1.535288 2.068616 -0.310456
v 1.309495 2.620213 -0.329762
v 1.318715 2.596279 -0.295361
v 1.298316 2.650869 0.288828
v 1.309495 2.620213 0.329072
v 1.318715 2.596279 0.294674
v 1.270778 2.726477 0.284179
v 1.287878 2.679521 0.275948
v 1.281530 2.696713 0.254467
v 1.277402 2.708287 0.308161
v 1.288450 2.677972 0.322542
v 1.298316 2.650869 0.288828
v 1.309495 2.620213 0.329072
v 1.309495 2.620213 0.329072
v 1.549250 2.035067 0.345927
v 1.535292 2.068617 0.309767
v 1.535292 2.068617 0.309767
v 1.318715 2.596279 0.294674
v 1.309495 2.620213 0.329072
v 2.010197 2.012127 -0.116315
v 1.987690 1.978806 -0.061967
v 2.029281 1.978806 -0.070243
v 2.029281 2.012127 -0.129067
v 2.064544 1.978806 -0.093807
v 2.088102 1.978806 -0.129067
v 2.088102 1.978806 -0.212255
v 2.046513 2.012127 -0.170659
v 2.096379 1.978806 -0.170659
v 2.042033 2.012127 -0.148155
v 1.987690 2.023826 -0.170659
v 1.987690 2.012127 -0.111839
v 1.965178 2.012127 -0.116315
v 1.946094 1.978806 -0.070243
v 1.928866 2.012127 -0.170659
v 1.933342 2.012127 -0.148155
v 1.946094 2.012127 -0.129067
v 1.910834 1.978806 -0.093807
v 1.887273 1.978806 -0.129067
v 1.878998 1.978806 -0.170659
v 1.933342 2.012127 -0.193173
v 1.946094 2.012127 -0.212255
v 1.965178 2.012127 -0.225003
v 1.946094 1.978806 -0.271075
v 1.910834 1.978806 -0.247520
v 1.887273 1.978806 -0.212255
v 2.010197 2.012127 -0.225003
v 1.987690 2.012127 -0.229489
v 1.987690 1.978806 -0.279348
v 2.029281 1.978806 -0.271075
v 2.029281 2.012127 -0.212255
v 2.042033 2.012127 -0.193173
v 2.064544 1.978806 -0.247521
v 2.010197 2.012127 0.232283
v 1.987690 1.978806 0.286627
v 2.029281 1.978806 0.278352
v 2.064545 1.978806 0.254787
v 2.029281 2.012127 0.219529
v 2.088102 1.978806 0.219529
v 1.987690 2.023826 0.177937
v 1.928866 2.012127 0.177937
v 1.933342 2.012127 0.200442
v 1.946094 2.012127 0.219529
v 1.965178 2.012127 0.232283
v 1.910834 1.978806 0.254787
v 1.946094 1.978806 0.278352
v 1.987690 2.012127 0.236756
v 1.878998 1.978806 0.177937
v 1.887273 1.978806 0.219529
v 1.933342 2.012127 0.155422
v 1.987690 1.978806 0.069248
v 1.946094 1.978806 0.077521
v 1.987690 2.012127 0.119108
v 1.965178 2.012127 0.123593
v 1.946094 2.012127 0.136340
v 1.910834 1.978806 0.101077
v 1.887273 1.978806 0.136340
v 2.029281 1.978806 0.077521
v 2.010197 2.012127 0.123593
v 2.029281 2.012127 0.136340
v 2.042033 2.012127 0.155422
v 2.046513 2.012127 0.177937
v 2.042033 2.012127 0.200442
v 2.096379 1.978806 0.177937
v 2.088102 1.978806 0.136340
v 2.064544 1.978806 0.101077
v 1.609978 2.035067 0.345927
v 1.633131 1.978811 -0.391105
v 1.609976 2.035067 -0.346616
v 1.633134 1.978811 0.390418
v 0.340048 1.978811 -0.391105
v -0.397758 1.839984 -0.443629
v -0.397758 1.978811 -0.391105
v 2.319736 1.839984 -0.443630
v 1.633131 1.978811 -0.391105
v 2.319736 1.978811 -0.391105
v 1.633134 1.978811 0.390418
v 2.319736 1.978811 -0.391105
v 1.633131 1.978811 -0.391105
v 2.319739 1.978811 0.390418
v 1.328152 2.734729 0.238497
v 1.267771 2.734729 -0.239185
v 1.328152 2.734729 -0.239185
v 1.267771 2.734729 0.238497
v 1.270778 2.726477 0.284179
v 1.331158 2.726477 0.284179
v 1.277402 2.708287 0.308161
v 1.338132 2.708287 0.308161
v 1.288450 2.677972 0.322542
v 1.349180 2.677972 0.322542
v 1.309495 2.620213 0.329072
v 1.370225 2.620213 0.329072
v 1.549250 2.035067 0.345927
v 1.609978 2.035067 0.345927
v 1.370225 2.620213 -0.329762
v 1.549250 2.035067 -0.346616
v 1.609976 2.035067 -0.346616
v 1.309495 2.620213 -0.329762
v 1.349178 2.677972 -0.323236
v 1.288448 2.677972 -0.323236
v 1.338132 2.708287 -0.308848
v 1.277402 2.708287 -0.308848
v 1.331155 2.726477 -0.284874
v 1.270778 2.726477 -0.284874
v 1.349180 2.677972 0.322542
v 1.370747 2.618848 0.373568
v 1.370225 2.620213 0.329072
v 1.343303 2.694158 0.365321
v 1.338132 2.708287 0.308161
v 1.323446 2.747950 0.340590
v 1.549250 2.035067 -0.346616
v 1.549250 2.035067 0.345927
v 1.609976 2.035067 -0.346616
v 1.609978 2.035067 0.345927
v 1.338132 2.708287 -0.308848
v 1.343303 2.694158 -0.366008
v 1.323445 2.747950 -0.341277
v 1.349178 2.677972 -0.323236
v 1.370747 2.618847 -0.374256
v 1.370225 2.620213 -0.329762
v 1.323445 2.747950 -0.341277
v 1.331155 2.726477 -0.284874
v 1.338132 2.708287 -0.308848
v 1.370225 2.620213 -0.329762
v 1.609976 2.035067 -0.346616
v 1.370747 2.618847 -0.374256
v 1.633131 1.978811 -0.391105
v 0.340048 1.978811 0.390418
v 0.340048 1.978811 -0.391105
v -0.397755 1.978811 0.390419
v -0.397758 1.978811 -0.391105
v 2.319736 1.724661 -0.445415
v -0.397758 1.724661 -0.445414
v 2.319736 1.839984 -0.443630
v -0.397758 1.839984 -0.443629
v 1.331158 2.726477 0.284179
v 1.323446 2.747950 0.340590
v 1.338132 2.708287 0.308161
v 1.609978 2.035067 0.345927
v 1.370225 2.620213 0.329072
v 1.370747 2.618848 0.373568
v 1.633134 1.978811 0.390418
v 2.319739 1.839984 0.442937
v 2.319739 1.724661 0.444728
v 2.319739 1.799107 0.316299
v 2.319739 1.978811 0.390418
v 2.319736 1.978811 -0.391105
v 2.319736 1.799107 -0.316988
v 2.319736 1.839984 -0.443630
v 2.319736 1.724661 -0.445415
v -0.397758 1.724661 -0.445414
v -0.397758 1.799107 -0.316987
v -0.397758 1.839984 -0.443629
v -0.397758 1.978811 -0.391105
v -0.397758 1.799107 0.316300
v -0.397755 1.978811 0.390419
v -0.397755 1.839984 0.442938
v -0.397758 1.724661 0.444728
v 2.319739 1.724661 0.444728
v -0.397755 1.839984 0.442938
v -0.397758 1.724661 0.444728
v 2.319739 1.839984 0.442937
v 1.308001 2.790985 -0.242350
v 0.503454 2.790984 0.241658
v 1.308001 2.790985 0.241662
v 0.503454 2.790983 -0.242350
v 0.501484 2.780223 -0.300064
v 1.311799 2.780226 -0.300058
v 0.495574 2.747948 -0.341283
v 1.323445 2.747950 -0.341277
v 0.485723 2.694154 -0.366018
v 1.343303 2.694158 -0.366008
v 0.471933 2.618844 -0.374266
v 1.370747 2.618847 -0.374256
v 0.340048 1.978811 -0.391105
v 1.633131 1.978811 -0.391105
v 0.340048 1.978811 0.390418
v 1.633134 1.978811 0.390418
v 1.370747 2.618848 0.373568
v 0.471933 2.618844 0.373557
v 1.343303 2.694158 0.365321
v 0.485725 2.694155 0.365314
v 1.323446 2.747950 0.340590
v 0.495574 2.747948 0.340585
v 1.311803 2.780226 0.299371
v 0.501484 2.780223 0.299368
v 1.323446 2.747950 0.340590
v 1.331158 2.726477 0.284179
v 1.311803 2.780226 0.299371
v 1.328152 2.734729 0.238497
v 1.308001 2.790985 0.241662
v 1.328152 2.734729 -0.239185
v 1.308001 2.790985 -0.242350
v 1.311799 2.780226 -0.300058
v 1.331155 2.726477 -0.284874
v 1.323445 2.747950 -0.341277
v 0.340048 1.978811 0.390418
v -0.397755 1.978811 0.390419
v -0.397755 1.839984 0.442938
v 2.319739 1.839984 0.442937
v 1.633134 1.978811 0.390418
v 2.319739 1.978811 0.390418
vt 0.920410 0.486328
vt 0.918457 0.431641
vt 0.918457 0.486816
vt 0.920410 0.431641
vt 0.923828 0.486328
vt 0.923828 0.431641
vt 0.955566 0.431641
vt 0.955566 0.486328
vt 0.958496 0.431641
vt 0.958496 0.486328
vt 0.960449 0.431641
vt 0.960449 0.486816
vt 0.958008 0.495117
vt 0.918945 0.428223
vt 0.918945 0.511230
vt 0.958008 0.436523
vt 0.962402 0.493652
vt 0.962402 0.437012
vt 0.964355 0.492676
vt 0.964355 0.437500
vt 0.982910 0.424316
vt 0.919922 0.458984
vt 0.982910 0.458984
vt 0.919922 0.424316
vt 0.942383 0.307129
vt 0.942383 0.310059
vt 0.944336 0.309082
vt 0.946777 0.306641
vt 0.996094 0.163574
vt 0.948242 0.163574
vt 0.948242 0.167480
vt 0.996094 0.167480
vt 0.852539 0.167480
vt 0.812012 0.163574
vt 0.812012 0.167480
vt 0.852539 0.163574
vt 0.856445 0.167480
vt 0.856445 0.163574
vt 0.858887 0.167480
vt 0.858887 0.163574
vt 0.860352 0.167480
vt 0.860352 0.163574
vt 0.863281 0.167480
vt 0.863281 0.163574
vt 0.896484 0.163574
vt 0.896484 0.167480
vt 0.899902 0.163574
vt 0.899902 0.167480
vt 0.901367 0.163574
vt 0.901367 0.167480
vt 0.903320 0.163574
vt 0.903320 0.167480
vt 0.907715 0.163574
vt 0.907715 0.167480
vt 0.948242 0.163574
vt 0.948242 0.167480
vt 0.941406 0.406250
vt 0.945801 0.409668
vt 0.945801 0.406738
vt 0.940430 0.409180
vt 0.939453 0.405273
vt 0.936523 0.407715
vt 0.937988 0.403809
vt 0.934570 0.404785
vt 0.937500 0.400879
vt 0.933594 0.400879
vt 0.937500 0.369141
vt 0.933594 0.369141
vt 0.934570 0.365234
vt 0.937988 0.366211
vt 0.936523 0.362793
vt 0.939453 0.364746
vt 0.940430 0.360840
vt 0.941406 0.363770
vt 0.945801 0.360352
vt 0.945801 0.363281
vt 0.944336 0.350586
vt 0.946777 0.353027
vt 0.942383 0.352539
vt 0.942383 0.349609
vt 0.939941 0.351563
vt 0.938477 0.350098
vt 0.940918 0.348145
vt 0.988281 0.307617
vt 0.990723 0.354492
vt 0.988281 0.352051
vt 0.990723 0.305176
vt 0.940918 0.348145
vt 0.938477 0.350098
vt 0.937988 0.346680
vt 0.940430 0.345215
vt 0.937988 0.312988
vt 0.940430 0.314453
vt 0.940918 0.311523
vt 0.938965 0.309570
vt 0.963379 0.514160
vt 0.963379 0.431152
vt 0.923828 0.498047
vt 0.923828 0.439453
vt 0.919922 0.496582
vt 0.919922 0.439941
vt 0.917480 0.495605
vt 0.917480 0.440430
vt 0.944336 0.350586
vt 0.946777 0.353027
vt 0.948242 0.350586
vt 0.942383 0.349609
vt 0.942383 0.352539
vt 0.944336 0.350586
vt 0.946777 0.353027
vt 0.946777 0.306641
vt 0.944336 0.309082
vt 0.948242 0.309082
vt 0.942383 0.310059
vt 0.942383 0.307129
vt 0.939941 0.308105
vt 0.938965 0.309570
vt 0.940918 0.311523
vt 0.937988 0.312988
vt 0.940430 0.314453
vt 0.940430 0.345215
vt 0.937988 0.346680
vt 0.940918 0.348145
vt 0.938477 0.350098
vt 0.942383 0.349609
vt 0.939941 0.351563
vt 0.942383 0.352539
vt 0.988281 0.352051
vt 0.948242 0.350586
vt 0.946777 0.353027
vt 0.990723 0.354492
vt 0.988281 0.307617
vt 0.990723 0.305176
vt 0.946777 0.306641
vt 0.948242 0.309082
vt 0.945801 0.363281
vt 0.987305 0.362305
vt 0.945801 0.360352
vt 0.991211 0.359375
vt 0.991211 0.410645
vt 0.987305 0.407715
vt 0.945801 0.409668
vt 0.945801 0.406738
vt 0.946777 0.353027
vt 0.944336 0.350586
vt 0.948242 0.350586
vt 0.990723 0.354492
vt 0.946777 0.353027
vt 0.988281 0.352051
vt 0.988281 0.352051
vt 0.946777 0.353027
vt 0.948242 0.350586
vt 0.944336 0.309082
vt 0.946777 0.306641
vt 0.948242 0.309082
vt 0.938965 0.309570
vt 0.942383 0.310059
vt 0.940918 0.311523
vt 0.939941 0.308105
vt 0.942383 0.307129
vt 0.944336 0.309082
vt 0.946777 0.306641
vt 0.946777 0.306641
vt 0.990723 0.305176
vt 0.988281 0.307617
vt 0.988281 0.307617
vt 0.948242 0.309082
vt 0.946777 0.306641
vt 0.729980 0.875183
vt 0.733398 0.885742
vt 0.725586 0.883606
vt 0.726563 0.872559
vt 0.719727 0.878662
vt 0.715332 0.871704
vt 0.716797 0.856079
vt 0.724121 0.864502
vt 0.714355 0.863770
vt 0.724609 0.868774
vt 0.734863 0.865356
vt 0.734375 0.876343
vt 0.738770 0.875793
vt 0.741699 0.884766
vt 0.746094 0.866089
vt 0.745117 0.870361
vt 0.742188 0.873779
vt 0.748535 0.880859
vt 0.753418 0.874512
vt 0.755371 0.866821
vt 0.745605 0.861816
vt 0.743652 0.858032
vt 0.740234 0.855347
vt 0.744141 0.846924
vt 0.750488 0.851929
vt 0.754395 0.858887
vt 0.731445 0.854736
vt 0.735840 0.854248
vt 0.736816 0.844849
vt 0.728516 0.845825
vt 0.728027 0.856812
vt 0.725098 0.860229
vt 0.721680 0.849731
vt 0.687500 0.912109
vt 0.690918 0.922668
vt 0.683105 0.920471
vt 0.676758 0.915588
vt 0.684082 0.909424
vt 0.672852 0.908569
vt 0.692383 0.902161
vt 0.703613 0.903015
vt 0.702148 0.907166
vt 0.699707 0.910583
vt 0.695801 0.912720
vt 0.705566 0.917725
vt 0.698730 0.921692
vt 0.691406 0.913269
vt 0.712891 0.903687
vt 0.710938 0.911438
vt 0.703125 0.898682
vt 0.693848 0.881714
vt 0.701660 0.883850
vt 0.693359 0.891113
vt 0.697266 0.892273
vt 0.700684 0.894897
vt 0.708008 0.888794
vt 0.711914 0.895752
vt 0.686035 0.882690
vt 0.688965 0.891602
vt 0.685059 0.893738
vt 0.682617 0.897156
vt 0.681152 0.901367
vt 0.681641 0.905640
vt 0.671875 0.900635
vt 0.674316 0.892944
vt 0.679199 0.886597
vt 0.987305 0.362305
vt 0.991211 0.410645
vt 0.987305 0.407715
vt 0.991211 0.359375
vt 0.761719 0.929932
vt 0.710938 0.939514
vt 0.710938 0.929932
vt 0.898926 0.939514
vt 0.851563 0.929932
vt 0.898926 0.929932
vt 0.851563 0.776123
vt 0.898926 0.830322
vt 0.851563 0.830322
vt 0.898926 0.776123
vt 0.863281 0.167480
vt 0.896484 0.163574
vt 0.896484 0.167480
vt 0.863281 0.163574
vt 0.860352 0.163574
vt 0.860352 0.167480
vt 0.858887 0.163574
vt 0.858887 0.167480
vt 0.856445 0.163574
vt 0.856445 0.167480
vt 0.852539 0.163574
vt 0.852539 0.167480
vt 0.812012 0.163574
vt 0.812012 0.167480
vt 0.907715 0.167480
vt 0.948242 0.163574
vt 0.948242 0.167480
vt 0.907715 0.163574
vt 0.903320 0.167480
vt 0.903320 0.163574
vt 0.901367 0.167480
vt 0.901367 0.163574
vt 0.899902 0.167480
vt 0.899902 0.163574
vt 0.941406 0.363770
vt 0.945801 0.360352
vt 0.945801 0.363281
vt 0.940430 0.360840
vt 0.939453 0.364746
vt 0.936523 0.362793
vt 0.948242 0.163574
vt 0.996094 0.163574
vt 0.948242 0.167480
vt 0.996094 0.167480
vt 0.939453 0.405273
vt 0.940430 0.409180
vt 0.936523 0.407715
vt 0.941406 0.406250
vt 0.945801 0.409668
vt 0.945801 0.406738
vt 0.936523 0.407715
vt 0.937988 0.403809
vt 0.939453 0.405273
vt 0.945801 0.406738
vt 0.987305 0.407715
vt 0.945801 0.409668
vt 0.991211 0.410645
vt 0.761719 0.776123
vt 0.761719 0.830322
vt 0.710938 0.776123
vt 0.710938 0.830322
vt 0.898926 0.947510
vt 0.710938 0.947510
vt 0.898926 0.939514
vt 0.710938 0.939514
vt 0.937988 0.366211
vt 0.936523 0.362793
vt 0.939453 0.364746
vt 0.987305 0.362305
vt 0.945801 0.363281
vt 0.945801 0.360352
vt 0.991211 0.359375
vt 0.908691 0.772461
vt 0.916504 0.772339
vt 0.911621 0.781250
vt 0.898926 0.776123
vt 0.898926 0.830322
vt 0.911621 0.825195
vt 0.908691 0.833862
vt 0.916504 0.834106
vt 0.693359 0.833984
vt 0.698242 0.825195
vt 0.701172 0.833862
vt 0.710938 0.830322
vt 0.698242 0.781250
vt 0.710938 0.776123
vt 0.701172 0.772461
vt 0.693359 0.772339
vt 0.898926 0.758545
vt 0.710938 0.766479
vt 0.710938 0.758545
vt 0.898926 0.766479
vt 0.829102 0.869751
vt 0.773438 0.836304
vt 0.829102 0.836304
vt 0.773438 0.869751
vt 0.772949 0.873779
vt 0.829102 0.873779
vt 0.772461 0.876648
vt 0.830078 0.876648
vt 0.771973 0.880371
vt 0.831543 0.880371
vt 0.770996 0.885559
vt 0.833008 0.885559
vt 0.761719 0.929932
vt 0.851563 0.929932
vt 0.761719 0.776123
vt 0.851563 0.776123
vt 0.833008 0.820435
vt 0.770996 0.820435
vt 0.831543 0.825684
vt 0.771973 0.825684
vt 0.830078 0.829468
vt 0.772461 0.829468
vt 0.829102 0.832275
vt 0.772949 0.832275
vt 0.936523 0.362793
vt 0.937988 0.366211
vt 0.934570 0.365234
vt 0.937500 0.369141
vt 0.933594 0.369141
vt 0.937500 0.400879
vt 0.933594 0.400879
vt 0.934570 0.404785
vt 0.937988 0.403809
vt 0.936523 0.407715
vt 0.761719 0.776123
vt 0.710938 0.776123
vt 0.710938 0.766479
vt 0.898926 0.766479
vt 0.851563 0.776123
vt 0.898926 0.776123
vn -0.0000 -0.8987 0.4386
vn -0.0000 -0.7806 0.6250
vn -0.0000 -0.7807 0.6249
vn -0.0000 -0.9037 0.4281
vn 0.0000 -0.9954 0.0961
vn 0.0000 -0.9955 0.0950
vn 0.0000 -0.9955 -0.0950
vn 0.0000 -0.9954 -0.0961
vn 0.0000 -0.9038 -0.4280
vn 0.0000 -0.8987 -0.4386
vn 0.0000 -0.7808 -0.6248
vn 0.0000 -0.7807 -0.6249
vn -0.0000 -0.0584 0.9983
vn -0.0000 -0.0286 0.9996
vn -0.0000 -0.0627 0.9980
vn -0.0000 -0.2287 0.9735
vn -0.0000 -0.2437 0.9698
vn -0.0000 -0.4101 0.9120
vn -0.0000 1.0000 -0.0000
vn -0.9823 0.1872 -0.0018
vn -0.9826 0.1858 -0.0006
vn -0.9824 0.1870 -0.0016
vn -0.9821 0.1882 -0.0026
vn -0.0000 -0.0655 -0.9978
vn -0.0000 -0.0288 -0.9996
vn -0.0000 -0.0758 -0.9971
vn -0.0000 -0.2567 -0.9665
vn -0.0000 -0.2918 -0.9565
vn -0.0000 -0.6143 -0.7891
vn -0.0000 -0.6465 -0.7629
vn -0.0000 -0.9112 -0.4119
vn -0.0000 -0.9198 -0.3923
vn -0.0000 -0.9959 -0.0902
vn 0.0000 -0.9961 -0.0884
vn 0.0000 -0.9961 0.0883
vn -0.0000 -0.9959 0.0901
vn -0.0000 -0.9198 0.3923
vn 0.0000 -0.9112 0.4119
vn 0.0000 -0.6465 0.7630
vn 0.0000 -0.6143 0.7891
vn 0.0000 -0.2919 0.9564
vn 0.0000 -0.2568 0.9665
vn 0.0000 -0.0759 0.9971
vn 0.0001 -0.0655 0.9978
vn 0.0000 -0.0288 0.9996
vn -0.9837 0.1798 0.0002
vn -0.9837 0.1800 0.0004
vn -0.9837 0.1800 0.0001
vn -0.9836 0.1802 0.0001
vn -0.9836 0.1802 0.0000
vn -0.9836 0.1802 0.0004
vn -0.9837 0.1799 0.0002
vn -0.9837 0.1797 0.0002
vn -0.9837 0.1795 0.0001
vn -0.9837 0.1797 -0.0002
vn -0.9838 0.1795 -0.0001
vn -0.9837 0.1799 -0.0002
vn -0.9836 0.1803 -0.0004
vn -0.9837 0.1800 -0.0000
vn -0.9837 0.1798 -0.0001
vn -0.9837 0.1800 -0.0003
vn -0.9837 0.1799 -0.0004
vn 0.9396 0.3422 0.0002
vn 0.9396 0.3423 0.0003
vn 0.9396 0.3423 0.0002
vn 0.9396 0.3424 0.0011
vn 0.9396 0.3422 0.0000
vn 0.9396 0.3424 0.0012
vn 0.9394 0.3427 0.0035
vn 0.9233 0.3841 -0.0000
vn 0.9232 0.3842 -0.0000
vn 0.9405 0.3397 0.0014
vn 0.9404 0.3401 0.0005
vn 0.9408 0.3390 0.0010
vn 0.9411 0.3381 0.0008
vn 0.9408 0.3391 -0.0011
vn 0.9411 0.3381 -0.0009
vn 0.9405 0.3398 -0.0014
vn 0.9404 0.3402 -0.0005
vn 0.0000 -0.0286 -0.9996
vn 0.0000 -0.0584 -0.9983
vn 0.0000 -0.0626 -0.9980
vn 0.0000 -0.2286 -0.9735
vn 0.0000 -0.2436 -0.9699
vn 0.0000 -0.4100 -0.9121
vn -0.9806 0.1961 -0.0037
vn -0.9826 0.1859 0.0005
vn -0.9823 0.1873 0.0017
vn -0.9823 0.1871 0.0015
vn -0.9821 0.1883 0.0025
vn -0.9806 0.1961 0.0037
vn -0.9855 0.1694 -0.0004
vn -0.9856 0.1689 -0.0012
vn -0.9855 0.1695 -0.0017
vn -0.9854 0.1700 -0.0005
vn -0.9855 0.1700 0.0007
vn -0.9854 0.1703 0.0001
vn -0.9854 0.1703 -0.0000
vn -0.9854 0.1702 -0.0000
vn -0.9854 0.1703 -0.0001
vn -0.9855 0.1699 -0.0006
vn -0.9854 0.1700 0.0005
vn -0.9856 0.1694 0.0004
vn -0.9855 0.1694 0.0017
vn -0.9856 0.1688 0.0011
vn -0.9796 0.2009 -0.0005
vn -0.9795 0.2015 0.0002
vn -0.9795 0.2015 0.0001
vn -0.9796 0.2009 0.0005
vn -0.9796 0.2009 0.0006
vn -0.9795 0.2015 -0.0001
vn -0.9795 0.2015 -0.0002
vn -0.9794 0.2019 0.0003
vn -0.9795 0.2016 0.0003
vn -0.9795 0.2015 0.0003
vn -0.9795 0.2016 -0.0003
vn -0.9794 0.2018 -0.0003
vn 0.9364 0.3507 -0.0070
vn 0.9254 0.3790 0.0057
vn 0.9252 0.3793 0.0159
vn 0.9365 0.3507 0.0070
vn 0.9396 0.3424 -0.0012
vn 0.9396 0.3424 -0.0010
vn 0.9394 0.3427 -0.0033
vn 0.9396 0.3423 -0.0001
vn 0.9396 0.3423 -0.0002
vn 0.9254 0.3790 -0.0056
vn 0.9251 0.3793 -0.0159
vn 0.1543 0.9152 0.3724
vn 0.0000 0.8315 0.5556
vn 0.2126 0.8315 0.5133
vn 0.2850 0.9152 0.2850
vn 0.3929 0.8315 0.3928
vn 0.5133 0.8315 0.2126
vn 0.5133 0.8315 -0.2126
vn 0.4031 0.9152 0.0000
vn 0.5556 0.8315 0.0000
vn 0.3724 0.9152 0.1543
vn 0.0000 0.9152 0.4031
vn -0.1543 0.9152 0.3724
vn -0.2126 0.8315 0.5133
vn -0.4031 0.9152 0.0000
vn -0.3724 0.9152 0.1542
vn -0.2850 0.9152 0.2850
vn -0.3929 0.8315 0.3929
vn -0.5133 0.8315 0.2126
vn -0.5556 0.8315 0.0000
vn -0.3724 0.9152 -0.1543
vn -0.2850 0.9152 -0.2850
vn -0.1543 0.9152 -0.3724
vn -0.2126 0.8315 -0.5133
vn -0.3928 0.8315 -0.3929
vn -0.5133 0.8315 -0.2126
vn 0.1543 0.9152 -0.3724
vn 0.0000 0.9152 -0.4031
vn 0.0000 0.8314 -0.5556
vn 0.2126 0.8315 -0.5133
vn 0.2850 0.9152 -0.2850
vn 0.3724 0.9152 -0.1543
vn 0.3928 0.8315 -0.3928
vn -0.1542 0.9152 0.3724
vn -0.3929 0.8314 0.3929
vn -0.5133 0.8314 -0.2126
vn 0.2850 0.9152 -0.2851
vn 0.3928 0.8315 -0.3929
vn 0.9247 0.3806 -0.0000
vn -0.0000 0.3539 -0.9353
vn 0.0000 -0.9958 -0.0910
vn 0.0000 -0.9962 0.0873
vn 0.0000 -0.9958 0.0910
vn 0.0000 -0.9962 -0.0874
vn 0.0000 -0.9244 -0.3814
vn 0.0000 -0.9069 -0.4214
vn 0.0000 -0.6634 -0.7483
vn 0.0000 -0.5982 -0.8014
vn 0.0000 -0.3083 -0.9513
vn 0.0000 -0.2404 -0.9707
vn 0.0000 -0.0806 -0.9968
vn 0.0000 -0.0610 -0.9981
vn 0.0000 -0.0609 0.9981
vn 0.0000 -0.0805 0.9968
vn 0.0000 -0.2405 0.9707
vn 0.0000 -0.3084 0.9513
vn 0.0000 -0.5982 0.8013
vn 0.0000 -0.6634 0.7483
vn 0.0000 -0.9068 0.4215
vn 0.0000 -0.9244 0.3814
vn 0.9396 0.3423 -0.0004
vn 0.9396 0.3423 -0.0005
vn 0.9391 0.3437 -0.0000
vn 0.9387 0.3447 0.0003
vn 0.9380 0.3466 0.0008
vn 0.9387 0.3447 -0.0003
vn 0.9391 0.3437 0.0001
vn 0.9380 0.3467 -0.0008
vn 0.9396 0.3423 0.0005
vn 0.9362 0.3514 0.0058
vn 0.9253 0.3792 -0.0008
vn 0.9253 0.3793 0.0019
vn 0.9253 0.3792 -0.0007
vn 0.9253 0.3793 0.0020
vn -0.0000 0.0155 -0.9999
vn 0.9362 0.3514 -0.0058
vn 0.9253 0.3793 -0.0019
vn 0.9253 0.3792 0.0008
vn 0.9253 0.3792 0.0007
vn 0.9253 0.3793 -0.0020
vn 1.0000 -0.0000 0.0000
vn -1.0000 0.0000 0.0000
vn 0.0000 0.0155 0.9999
vn -0.0000 0.9956 -0.0939
vn -0.0000 0.9957 0.0930
vn -0.0000 0.9956 0.0939
vn -0.0000 0.9957 -0.0930
vn -0.0000 0.9067 -0.4218
vn 0.0000 0.9025 -0.4308
vn 0.0000 0.6034 -0.7975
vn 0.0000 0.5877 -0.8091
vn 0.0000 0.2496 -0.9683
vn 0.0000 0.2334 -0.9724
vn 0.0000 0.0626 -0.9980
vn 0.0000 0.0581 -0.9983
vn 0.0000 0.0263 -0.9997
vn -0.0000 0.0263 0.9997
vn -0.0000 0.0581 0.9983
vn -0.0000 0.0626 0.9980
vn -0.0000 0.2334 0.9724
vn -0.0000 0.2496 0.9684
vn -0.0000 0.5877 0.8091
vn -0.0000 0.6033 0.7975
vn -0.0000 0.9025 0.4308
vn -0.0000 0.9067 0.4218
vn 0.9408 0.3389 -0.0004
vn 0.9408 0.3389 -0.0006
vn 0.9410 0.3384 -0.0001
vn 0.9413 0.3377 0.0000
vn 0.9414 0.3372 0.0004
vn 0.9413 0.3377 -0.0001
vn 0.9414 0.3372 -0.0004
vn 0.9410 0.3384 0.0000
vn 0.9408 0.3390 0.0005
vn 0.9408 0.3389 0.0004
vn 0.0000 0.3538 0.9353
usemtl Trek47Mat.003
s 1
f 1/1/1 2/2/2 3/3/3
f 2/2/2 1/1/1 4/4/4
f 5/5/5 4/4/4 1/1/1
f 4/4/4 5/5/5 6/6/6
f 7/7/7 6/6/6 5/5/5
f 7/7/7 5/5/5 8/8/8
f 7/7/7 8/8/8 9/9/9
f 9/9/9 8/8/8 10/10/10
f 9/9/9 10/10/10 11/11/11
f 11/11/11 10/10/10 12/12/12
f 13/13/13 14/14/14 15/15/14
f 14/14/14 13/13/13 16/16/15
f 17/17/16 16/16/15 13/13/13
f 16/16/15 17/17/16 18/18/17
f 19/19/18 18/18/17 17/17/16
f 18/18/17 19/19/18 20/20/18
f 21/21/19 22/22/19 23/23/19
f 22/22/19 21/21/19 24/24/19
f 25/25/20 26/26/21 27/27/22
f 27/27/22 28/28/23 25/25/20
f 29/29/19 30/30/19 31/31/19
f 29/29/19 31/31/19 32/32/19
f 33/33/24 34/34/25 35/35/25
f 36/36/26 34/34/25 33/33/24
f 37/37/27 36/36/26 33/33/24
f 38/38/28 36/36/26 37/37/27
f 39/39/29 38/38/28 37/37/27
f 39/39/29 40/40/30 38/38/28
f 40/40/30 39/39/29 41/41/31
f 41/41/31 42/42/32 40/40/30
f 41/41/31 43/43/33 42/42/32
f 43/43/33 44/44/34 42/42/32
f 43/43/33 45/45/35 44/44/34
f 45/45/35 43/43/33 46/46/36
f 46/46/36 47/47/37 45/45/35
f 48/48/38 47/47/37 46/46/36
f 48/48/38 49/49/39 47/47/37
f 50/50/40 49/49/39 48/48/38
f 49/49/39 50/50/40 51/51/41
f 52/52/42 51/51/41 50/50/40
f 51/51/41 52/52/42 53/53/43
f 52/52/42 54/54/44 53/53/43
f 55/55/45 53/53/43 54/54/44
f 54/54/44 56/56/45 55/55/45
f 57/57/46 58/58/47 59/59/47
f 58/58/47 57/57/46 60/60/48
f 61/61/49 60/60/48 57/57/46
f 60/60/48 61/61/49 62/62/50
f 63/63/51 62/62/50 61/61/49
f 62/62/50 63/63/51 64/64/52
f 65/65/53 64/64/52 63/63/51
f 64/64/52 65/65/53 66/66/54
f 67/67/55 66/66/54 65/65/53
f 66/66/54 67/67/55 68/68/56
f 67/67/55 69/69/57 68/68/56
f 69/69/57 67/67/55 70/70/58
f 70/70/58 71/71/50 69/69/57
f 71/71/50 70/70/58 72/72/50
f 72/72/50 73/73/59 71/71/50
f 73/73/59 72/72/50 74/74/60
f 74/74/60 75/75/61 73/73/59
f 75/75/61 74/74/60 76/76/62
f 77/77/63 78/78/64 79/79/65
f 79/79/65 80/80/66 77/77/63
f 80/80/66 79/79/65 81/81/67
f 80/80/66 81/81/67 82/82/68
f 80/80/66 82/82/68 83/83/69
f 84/84/70 85/85/71 86/86/71
f 85/85/71 84/84/70 87/87/70
f 88/88/72 89/89/73 90/90/74
f 90/90/74 91/91/75 88/88/72
f 90/90/74 92/92/76 91/91/75
f 91/91/75 92/92/76 93/93/77
f 92/92/76 94/94/78 93/93/77
f 94/94/78 92/92/76 95/95/79
f 96/96/80 97/97/80 98/98/81
f 98/98/81 97/97/80 99/99/82
f 98/98/81 99/99/82 100/100/83
f 101/101/84 100/100/83 99/99/82
f 100/100/83 101/101/84 102/102/85
f 103/103/85 102/102/85 101/101/84
f 104/104/86 105/105/86 106/106/86
f 107/107/87 108/108/88 109/109/89
f 110/110/90 109/109/89 108/108/88
f 111/111/91 112/112/91 113/113/91
f 114/114/92 115/115/93 116/116/94
f 114/114/92 116/116/94 117/117/95
f 114/114/92 117/117/95 118/118/96
f 118/118/96 117/117/95 119/119/97
f 119/119/97 120/120/98 118/118/96
f 119/119/97 121/121/99 120/120/98
f 119/119/97 122/122/100 121/121/99
f 122/122/100 123/123/101 121/121/99
f 123/123/101 122/122/100 124/124/102
f 124/124/102 125/125/103 123/123/101
f 125/125/103 124/124/102 126/126/104
f 127/127/105 125/125/103 126/126/104
f 128/128/106 129/129/107 130/130/108
f 130/130/108 131/131/106 128/128/106
f 131/131/106 132/132/109 128/128/106
f 131/131/106 133/133/110 132/132/109
f 133/133/110 134/134/111 132/132/109
f 132/132/109 134/134/111 135/135/112
f 136/136/113 137/137/114 138/138/113
f 139/139/115 138/138/113 137/137/114
f 140/140/116 139/139/115 137/137/114
f 140/140/116 137/137/114 141/141/116
f 142/142/117 140/140/116 141/141/116
f 141/141/116 143/143/117 142/142/117
f 144/144/118 145/145/118 146/146/118
f 147/147/119 148/148/119 149/149/119
f 150/150/120 151/151/120 152/152/120
f 153/153/121 154/154/121 155/155/121
f 156/156/122 157/157/123 158/158/124
f 157/157/123 156/156/122 159/159/125
f 160/160/126 157/157/123 159/159/125
f 157/157/123 160/160/126 161/161/126
f 162/162/126 161/161/126 160/160/126
f 163/163/127 164/164/127 165/165/127
f 166/166/128 167/167/128 168/168/128
f 169/169/129 170/170/130 171/171/131
f 171/171/131 172/172/132 169/169/129
f 172/172/132 171/171/131 173/173/133
f 173/173/133 174/174/134 172/172/132
f 175/175/135 176/176/136 177/177/137
f 176/176/136 174/174/134 177/177/137
f 174/174/134 176/176/136 178/178/138
f 172/172/132 174/174/134 178/178/138
f 179/179/19 172/172/132 178/178/138
f 179/179/19 169/169/129 172/172/132
f 179/179/19 180/180/139 169/169/129
f 170/170/130 169/169/129 180/180/139
f 181/181/140 170/170/130 180/180/139
f 170/170/130 181/181/140 182/182/141
f 179/179/19 178/178/138 176/176/136
f 179/179/19 183/183/142 184/184/143
f 179/179/19 184/184/143 185/185/144
f 179/179/19 185/185/144 181/181/140
f 179/179/19 181/181/140 180/180/139
f 181/181/140 186/186/145 182/182/141
f 186/186/145 181/181/140 185/185/144
f 185/185/144 187/187/146 186/186/145
f 187/187/146 185/185/144 184/184/143
f 184/184/143 188/188/147 187/187/146
f 188/188/147 184/184/143 183/183/142
f 188/188/147 183/183/142 189/189/148
f 179/179/19 189/189/148 183/183/142
f 179/179/19 190/190/149 189/189/148
f 179/179/19 191/191/150 190/190/149
f 192/192/151 190/190/149 191/191/150
f 190/190/149 192/192/151 193/193/152
f 194/194/153 190/190/149 193/193/152
f 194/194/153 189/189/148 190/190/149
f 189/189/148 194/194/153 188/188/147
f 179/179/19 195/195/154 196/196/155
f 179/179/19 196/196/155 191/191/150
f 196/196/155 192/192/151 191/191/150
f 197/197/156 192/192/151 196/196/155
f 196/196/155 198/198/157 197/197/156
f 198/198/157 196/196/155 195/195/154
f 198/198/157 195/195/154 199/199/158
f 179/179/19 199/199/158 195/195/154
f 179/179/19 200/200/159 199/199/158
f 179/179/19 176/176/136 200/200/159
f 176/176/136 175/175/135 200/200/159
f 175/175/135 199/199/158 200/200/159
f 199/199/158 175/175/135 201/201/160
f 199/199/158 201/201/160 198/198/157
f 202/202/129 203/203/130 204/204/131
f 202/202/129 204/204/131 205/205/133
f 202/202/129 205/205/133 206/206/132
f 205/205/133 207/207/134 206/206/132
f 208/208/19 209/209/142 210/210/143
f 208/208/19 210/210/143 211/211/144
f 208/208/19 211/211/144 212/212/161
f 213/213/162 212/212/161 211/211/144
f 212/212/161 213/213/162 214/214/141
f 203/203/130 212/212/161 214/214/141
f 212/212/161 203/203/130 215/215/139
f 203/203/130 202/202/129 215/215/139
f 208/208/19 215/215/139 202/202/129
f 208/208/19 202/202/129 206/206/132
f 208/208/19 212/212/161 215/215/139
f 210/210/143 216/216/147 217/217/146
f 217/217/146 211/211/144 210/210/143
f 211/211/144 217/217/146 213/213/162
f 208/208/19 218/218/148 209/209/142
f 219/219/156 220/220/151 221/221/155
f 221/221/155 220/220/151 222/222/150
f 208/208/19 221/221/155 222/222/150
f 208/208/19 222/222/150 223/223/149
f 208/208/19 223/223/149 218/218/148
f 224/224/152 218/218/148 223/223/149
f 218/218/148 224/224/152 225/225/163
f 218/218/148 225/225/163 216/216/147
f 216/216/147 209/209/142 218/218/148
f 216/216/147 210/210/143 209/209/142
f 223/223/149 220/220/151 224/224/152
f 220/220/151 223/223/149 222/222/150
f 226/226/157 221/221/155 227/227/154
f 208/208/19 227/227/154 221/221/155
f 208/208/19 228/228/164 227/227/154
f 208/208/19 229/229/159 228/228/164
f 208/208/19 230/230/136 229/229/159
f 208/208/19 231/231/138 230/230/136
f 221/221/155 226/226/157 219/219/156
f 208/208/19 206/206/132 231/231/138
f 206/206/132 207/207/134 231/231/138
f 207/207/134 230/230/136 231/231/138
f 230/230/136 207/207/134 232/232/137
f 233/233/135 230/230/136 232/232/137
f 230/230/136 233/233/135 229/229/159
f 234/234/165 229/229/159 233/233/135
f 234/234/165 228/228/164 229/229/159
f 228/228/164 234/234/165 226/226/157
f 228/228/164 226/226/157 227/227/154
f 235/235/166 236/236/166 237/237/166
f 236/236/166 235/235/166 238/238/166
f 239/239/167 240/240/167 241/241/167
f 242/242/167 240/240/167 239/239/167
f 242/242/167 239/239/167 243/243/167
f 244/244/167 242/242/167 243/243/167
f 245/245/19 246/246/19 247/247/19
f 246/246/19 245/245/19 248/248/19
f 249/249/168 250/250/169 251/251/170
f 250/250/169 249/249/168 252/252/171
f 253/253/172 252/252/171 249/249/168
f 253/253/172 249/249/168 254/254/173
f 253/253/172 254/254/173 255/255/174
f 255/255/174 254/254/173 256/256/175
f 255/255/174 256/256/175 257/257/176
f 256/256/175 258/258/177 257/257/176
f 257/257/176 258/258/177 259/259/178
f 258/258/177 260/260/179 259/259/178
f 261/261/25 259/259/178 260/260/179
f 260/260/179 262/262/25 261/261/25
f 263/263/180 264/264/45 265/265/45
f 266/266/181 264/264/45 263/263/180
f 267/267/182 266/266/181 263/263/180
f 268/268/183 266/266/181 267/267/182
f 269/269/184 268/268/183 267/267/182
f 270/270/185 268/268/183 269/269/184
f 271/271/186 270/270/185 269/269/184
f 270/270/185 271/271/186 272/272/187
f 251/251/170 272/272/187 271/271/186
f 272/272/187 251/251/170 250/250/169
f 273/273/188 274/274/189 275/275/189
f 274/274/189 273/273/188 276/276/190
f 277/277/191 276/276/190 273/273/188
f 276/276/190 277/277/191 278/278/192
f 279/279/19 280/280/19 281/281/19
f 282/282/19 281/281/19 280/280/19
f 283/283/193 284/284/194 285/285/195
f 284/284/194 283/283/193 286/286/196
f 286/286/196 287/287/196 284/284/194
f 287/287/196 286/286/196 288/288/196
f 289/289/197 290/290/197 291/291/197
f 292/292/198 293/293/199 294/294/200
f 295/295/201 294/294/200 293/293/199
f 296/296/19 297/297/19 298/298/19
f 297/297/19 299/299/19 298/298/19
f 300/300/202 301/301/202 302/302/202
f 303/303/202 302/302/202 301/301/202
f 304/304/203 305/305/203 306/306/203
f 307/307/204 308/308/205 309/309/206
f 309/309/206 310/310/207 307/307/204
f 311/311/208 312/312/208 313/313/208
f 313/313/208 314/314/208 311/311/208
f 313/313/208 315/315/208 314/314/208
f 315/315/208 313/313/208 316/316/208
f 316/316/208 317/317/208 315/315/208
f 317/317/208 316/316/208 318/318/208
f 319/319/209 320/320/209 321/321/209
f 322/322/209 321/321/209 320/320/209
f 323/323/209 322/322/209 320/320/209
f 322/322/209 323/323/209 324/324/209
f 323/323/209 325/325/209 324/324/209
f 325/325/209 323/323/209 326/326/209
f 327/327/210 328/328/210 329/329/210
f 328/328/210 327/327/210 330/330/210
f 331/331/211 332/332/212 333/333/213
f 332/332/212 331/331/211 334/334/214
f 331/331/211 335/335/215 334/334/214
f 335/335/215 331/331/211 336/336/216
f 336/336/216 337/337/217 335/335/215
f 337/337/217 336/336/216 338/338/218
f 338/338/218 339/339/219 337/337/217
f 339/339/219 338/338/218 340/340/220
f 340/340/220 341/341/221 339/339/219
f 341/341/221 340/340/220 342/342/222
f 342/342/222 343/343/223 341/341/221
f 343/343/223 342/342/222 344/344/223
f 345/345/224 346/346/224 347/347/225
f 345/345/224 347/347/225 348/348/226
f 349/349/227 348/348/226 347/347/225
f 348/348/226 349/349/227 350/350/228
f 351/351/229 350/350/228 349/349/227
f 350/350/228 351/351/229 352/352/230
f 353/353/231 352/352/230 351/351/229
f 352/352/230 353/353/231 354/354/232
f 333/333/213 354/354/232 353/353/231
f 354/354/232 333/333/213 332/332/212
f 355/355/233 356/356/234 357/357/235
f 358/358/236 357/357/235 356/356/234
f 357/357/235 358/358/236 359/359/237
f 358/358/236 360/360/238 359/359/237
f 361/361/239 359/359/237 360/360/238
f 360/360/238 362/362/240 361/361/239
f 362/362/240 360/360/238 363/363/241
f 363/363/241 364/364/242 362/362/240
f 365/365/243 366/366/243 367/367/243
f 367/367/243 368/368/243 365/365/243
f 365/365/243 368/368/243 369/369/243
f 370/370/243 369/369/243 368/368/243
o Display_Display.003
v 0.587198 2.704507 -0.214260
v 0.585849 2.696707 0.254452
v 0.587198 2.704507 0.213539
v 0.585852 2.696707 -0.255177
v 0.582923 2.679516 -0.276650
v 0.582923 2.679517 0.275931
v 0.577498 2.650864 0.288811
v 0.577501 2.650864 -0.289533
v 0.566599 2.596272 0.294649
v 0.566599 2.596271 -0.295383
v 0.458052 2.068614 -0.310461
v 0.458052 2.068614 0.309763
v 1.285363 2.596279 -0.295361
v 1.501944 2.068617 0.309767
v 1.501941 2.068616 -0.310456
v 1.285363 2.596279 0.294674
v 1.264968 2.650869 0.288828
v 1.264965 2.650869 -0.289518
v 1.254527 2.679521 -0.276635
v 1.254527 2.679521 0.275948
v 1.248182 2.696713 0.254468
v 1.248179 2.696713 -0.255159
v 1.245258 2.704511 -0.214245
v 1.245258 2.704512 0.213556
vt 0.756237 0.878236
vt 0.193656 0.868874
vt 0.242762 0.878236
vt 0.805349 0.868874
vt 0.831122 0.848240
vt 0.167875 0.848241
vt 0.152416 0.813849
vt 0.846584 0.813849
vt 0.145409 0.748325
vt 0.853606 0.748324
vt 0.871704 0.114992
vt 0.127268 0.114992
vt 0.853580 0.748333
vt 0.127263 0.114996
vt 0.871698 0.114995
vt 0.145379 0.748333
vt 0.152396 0.813856
vt 0.846567 0.813856
vt 0.831104 0.848246
vt 0.167855 0.848246
vt 0.193637 0.868881
vt 0.805326 0.868881
vt 0.756219 0.878241
vt 0.242742 0.878241
vn -0.9854 0.1701 -0.0000
vn -0.9858 0.1680 -0.0000
vn -0.9854 0.1704 0.0000
vn -0.9858 0.1681 -0.0000
vn -0.9834 0.1814 -0.0000
vn -0.9814 0.1918 -0.0000
vn -0.9800 0.1988 -0.0000
vn -0.9795 0.2015 -0.0000
vn 0.9308 0.3655 -0.0000
vn 0.9251 0.3797 -0.0000
vn 0.9379 0.3468 -0.0000
vn 0.9392 0.3434 -0.0000
vn 0.9380 0.3466 -0.0000
vn 0.9380 0.3467 -0.0000
vn 0.9364 0.3508 -0.0000
vn 0.9364 0.3511 -0.0000
usemtl SightMat.003
s 1
f 371/371/244 372/372/245 373/373/246
f 372/372/245 371/371/244 374/374/247
f 375/375/248 372/372/245 374/374/247
f 372/372/245 375/375/248 376/376/248
f 375/375/248 377/377/249 376/376/248
f 378/378/249 377/377/249 375/375/248
f 377/377/249 378/378/249 379/379/250
f 380/380/250 379/379/250 378/378/249
f 381/381/251 379/379/250 380/380/250
f 379/379/250 381/381/251 382/382/251
f 383/383/252 384/384/253 385/385/253
f 384/384/253 383/383/252 386/386/252
f 383/383/252 387/387/254 386/386/252
f 387/387/254 383/383/252 388/388/254
f 389/389/255 387/387/254 388/388/254
f 387/387/254 389/389/255 390/390/255
f 389/389/255 391/391/256 390/390/255
f 391/391/256 389/389/255 392/392/257
f 393/393/258 391/391/256 392/392/257
f 391/391/256 393/393/258 394/394/259
