# Blender v2.83.1 OBJ File: ''
# www.blender.org
mtllib blueprint_2.mtl
v 0.002908 1.257786 -0.459463
v -0.037161 1.257457 -0.916301
v 0.001403 0.835546 -0.910398
v 0.002039 -0.007458 -0.458151
v -0.022587 -0.006473 0.000014
v 0.000132 0.414782 -0.000591
v 0.002908 0.414455 -0.458478
v 0.003295 -0.007785 -0.916301
v 0.001403 0.413799 -0.913677
v 0.002908 0.836202 -0.459134
v 0.003695 1.251554 -0.001561
v 0.003695 0.836694 -0.001064
v 0.003272 1.251883 0.456511
v -0.025068 -0.006146 0.457822
v -0.007517 0.415110 0.457495
v -0.002878 0.837186 0.456839
v -0.022567 1.259425 0.914333
v -0.009813 0.838006 0.914989
v 0.003923 0.415602 0.915645
v -0.029311 -0.005162 0.916301
vt 0.252400 0.707800
vt 0.002900 0.707800
vt 0.002900 0.473600
vt 0.252400 0.005400
vt 0.502000 0.005400
vt 0.502000 0.239700
vt 0.252400 0.239700
vt 0.002900 0.005400
vt 0.002900 0.239700
vt 0.252400 0.473600
vt 0.502000 0.707800
vt 0.502000 0.473600
vt 0.752000 0.707800
vt 0.752000 0.005400
vt 0.752000 0.239700
vt 0.752000 0.473600
vt 1.001000 0.707800
vt 1.001000 0.473600
vt 1.001000 0.239700
vt 1.001000 0.005400
vn -0.9995 -0.0216 0.0228
vn -0.9922 -0.0895 0.0871
vn -0.9994 -0.0237 0.0255
vn -0.9998 0.0143 -0.0157
vn -0.9982 0.0509 -0.0325
vn -0.9995 0.0253 -0.0174
vn -1.0000 0.0013 -0.0012
vn -1.0000 -0.0014 0.0004
vn -1.0000 -0.0023 0.0033
vn -1.0000 -0.0000 0.0025
vn -1.0000 0.0000 0.0004
vn -1.0000 0.0050 -0.0056
vn -0.9994 0.0113 -0.0325
vn -0.9987 0.0504 0.0016
vn -0.9997 0.0226 0.0003
vn -0.9998 0.0072 -0.0205
vn -0.9994 -0.0092 -0.0345
vn -0.9998 -0.0211 -0.0046
vn -0.9998 0.0144 0.0159
vn -0.9969 0.0787 -0.0094
usemtl train_blueprint_diffuse_shader.001
s 1
f 1/1/1 2/2/2 3/3/3
f 4/4/4 5/5/5 6/6/6
f 6/6/6 7/7/7 4/4/4
f 8/8/8 4/4/4 7/7/7
f 7/7/7 9/9/9 8/8/8
f 9/9/9 7/7/7 10/10/10
f 10/10/10 3/3/3 9/9/9
f 3/3/3 10/10/10 1/1/1
f 11/11/11 1/1/1 10/10/10
f 10/10/10 12/12/12 11/11/11
f 13/13/13 11/11/11 12/12/12
f 5/5/5 14/14/14 15/15/15
f 15/15/15 6/6/6 5/5/5
f 6/6/6 15/15/15 16/16/16
f 16/16/16 12/12/12 6/6/6
f 7/7/7 6/6/6 12/12/12
f 12/12/12 10/10/10 7/7/7
f 12/12/12 16/16/16 13/13/13
f 17/17/17 13/13/13 16/16/16
f 16/16/16 18/18/18 17/17/17
f 18/18/18 16/16/16 15/15/15
f 15/15/15 19/19/19 18/18/18
f 19/19/19 15/15/15 14/14/14
f 14/14/14 20/20/20 19/19/19
