# Blender v2.83.1 OBJ File: ''
# www.blender.org
mtllib Computer_Chair_1.mtl
v 0.072034 0.650518 -0.378441
v 0.038464 0.634346 -0.362551
v 0.026809 0.650518 -0.378441
v -0.049514 0.085831 -0.026025
v 0.000271 0.085831 -0.054769
v 0.050057 0.085830 -0.026025
v -0.027893 0.554691 0.369668
v -0.027803 0.541521 0.306693
v -0.027838 0.541521 0.369470
v 0.022611 0.286459 -0.003600
v 0.000435 0.599563 -0.019711
v 0.022611 0.599563 -0.003600
v 0.000435 0.286459 -0.019711
v -0.337172 1.124275 0.327185
v -0.365790 1.200590 0.316162
v -0.413980 1.277472 0.290979
v 0.048549 0.091099 -0.012526
v 0.030011 0.091099 -0.038167
v 0.337047 0.088502 -0.256798
v 0.351880 0.088502 -0.236282
v 0.021067 0.636098 -0.257232
v 0.079838 0.637085 -0.256595
v -0.443182 0.046956 -0.022877
v -0.387437 -0.001201 -0.046098
v -0.426013 0.008336 -0.030028
v -0.356501 0.068388 -0.058985
v -0.387437 0.095114 -0.046098
v -0.426013 0.085575 -0.030028
v -0.356501 0.025524 -0.058985
v -0.527205 1.387795 0.117124
v -0.483450 1.334312 0.224073
v -0.462744 1.351196 0.224073
v -0.543167 1.340977 0.109762
v -0.547516 1.394740 -0.000000
v -0.560435 1.346989 -0.000000
v -0.507406 1.359586 -0.000000
v -0.379162 1.155217 -0.000000
v -0.333846 1.158167 0.259135
v -0.390700 1.290487 0.290979
v -0.342334 1.213629 0.316179
v -0.313959 1.137125 0.327185
v -0.250422 0.777632 0.262177
v -0.275052 0.777704 -0.000000
v -0.262547 0.845107 0.327185
v -0.285669 0.832183 0.327185
v -0.273751 0.764593 0.262177
v -0.290152 0.764593 0.131618
v -0.290152 0.764593 -0.131618
v -0.314735 0.779378 -0.123337
v -0.314735 0.779378 0.123337
v -0.298334 0.779378 0.245614
v 0.000272 0.347858 0.060206
v -0.049514 0.347858 -0.026025
v -0.049514 0.347858 0.031462
v 0.050057 0.347858 -0.026025
v 0.050057 0.347858 0.031462
v 0.000272 0.347858 -0.054769
v 0.331618 0.118079 -0.252291
v 0.345898 0.118079 -0.232539
v 0.048549 0.158333 -0.012526
v 0.030011 0.158333 -0.038167
v 0.084316 0.930034 0.412953
v 0.077999 0.963130 0.414373
v 0.049783 0.950954 0.414783
v 0.102770 0.940648 0.412403
v 0.218341 0.706240 0.393373
v 0.236786 0.716849 0.392822
v 0.217037 0.682540 0.391300
v 0.077999 0.963138 0.359779
v 0.102770 0.940657 0.357814
v 0.236786 0.716859 0.338235
v 0.236220 0.677264 0.389360
v 0.201486 0.673398 0.390500
v 0.049783 0.972197 0.360570
v 0.049783 0.950962 0.357239
v 0.084316 0.930043 0.355408
v 0.218341 0.706249 0.335829
v 0.236220 0.677273 0.334772
v 0.201486 0.652173 0.387169
v -0.153612 0.673647 0.390522
v 0.201486 0.652182 0.332572
v -0.153612 0.652413 0.387189
v -0.153612 0.652423 0.332592
v -0.153612 0.673657 0.332977
v 0.201486 0.673407 0.332955
v 0.217039 0.682549 0.333755
v -0.163566 0.095114 0.354230
v -0.158708 0.046956 0.414422
v -0.160205 0.085575 0.395884
v -0.163566 -0.001201 0.354230
v -0.166263 0.025524 0.320825
v -0.166263 0.068388 0.320825
v -0.160205 0.008336 0.395884
v -0.091160 0.095114 0.348385
v -0.093857 0.025524 0.314981
v -0.093857 0.068388 0.314981
v -0.087799 0.008336 0.390039
v -0.086301 0.046956 0.408578
v -0.087799 0.085575 0.390039
v -0.091160 -0.001201 0.348385
v 0.371989 0.046956 -0.241988
v 0.340538 -0.001201 -0.190436
v 0.362303 0.008336 -0.226111
v 0.323086 0.068388 -0.161826
v 0.340538 0.095114 -0.190436
v 0.362303 0.085575 -0.226111
v 0.323086 0.025524 -0.161826
v 0.261072 0.068388 -0.199658
v 0.278526 -0.001201 -0.228266
v 0.261072 0.025524 -0.199658
v 0.309976 0.046956 -0.279820
v 0.300289 0.085575 -0.263942
v 0.278526 0.095114 -0.228266
v 0.300289 0.008336 -0.263942
v -0.349642 0.607818 -0.105418
v -0.085603 0.577377 -0.055055
v -0.359406 0.580932 -0.046912
v 0.014708 0.576637 -0.085106
v -0.271461 0.653773 -0.130042
v -0.343551 0.650260 -0.123337
v 0.019309 0.629448 -0.107135
v 0.076508 0.614640 -0.099095
v 0.119988 0.626671 0.000000
v 0.073799 0.617472 -0.257680
v 0.025219 0.617472 -0.257680
v -0.205922 0.653398 -0.300073
v -0.270202 0.653398 -0.241547
v 0.220698 0.591711 -0.234010
v 0.228949 0.572127 0.000000
v 0.101258 0.653398 -0.312165
v 0.060545 0.634346 -0.362551
v -0.398465 0.966147 -0.090416
v -0.367982 0.768855 -0.106743
v -0.298334 0.779378 -0.245614
v -0.337172 1.124275 -0.327185
v -0.543167 1.340977 -0.109762
v -0.483450 1.334312 -0.224073
v -0.413980 1.277472 -0.290979
v -0.365790 1.200590 -0.316162
v 0.101258 0.653398 0.312165
v 0.237329 0.624193 0.268564
v 0.185548 0.664162 0.319934
v 0.220698 0.591711 0.234010
v 0.264991 0.583686 0.000000
v 0.246922 0.650346 -0.267162
v 0.237329 0.624193 -0.268564
v 0.280245 0.605823 0.000000
v 0.144686 0.686349 -0.256621
v 0.194302 0.689297 -0.319934
v 0.128267 0.700133 -0.332851
v 0.119528 0.675041 -0.332851
v -0.220396 0.675041 -0.319957
v -0.211685 0.700054 -0.319957
v -0.280230 0.700306 -0.257467
v -0.191102 0.692514 -0.230375
v -0.289029 0.675041 -0.257467
v -0.271462 0.653773 0.130042
v -0.289029 0.675041 0.257467
v -0.280230 0.700306 0.257467
v -0.191102 0.692514 0.243824
v 0.144686 0.686349 0.270073
v 0.246922 0.650346 0.267162
v -0.220396 0.675041 0.319957
v -0.211685 0.700054 0.319957
v 0.128267 0.700133 0.332851
v 0.194302 0.689297 0.319934
v 0.119528 0.675041 0.332851
v 0.000271 0.085831 0.060206
v 0.050057 0.085830 0.031462
v -0.049514 0.085831 0.031462
v -0.367982 0.768855 0.106743
v -0.398465 0.966147 0.090416
v -0.423654 1.037451 -0.000000
v -0.426579 0.932845 0.046761
v -0.426579 0.932845 -0.046761
v -0.397458 0.759698 -0.047810
v -0.397458 0.759698 0.047809
v 0.049783 0.972197 -0.363730
v -0.245618 0.951212 -0.360419
v 0.049783 0.950962 -0.360397
v 0.077999 0.963138 -0.362939
v 0.084316 0.930043 -0.358567
v 0.102771 0.940657 -0.360974
v 0.218341 0.706249 -0.338987
v 0.201486 0.652182 -0.335732
v 0.217039 0.682548 -0.336914
v 0.201487 0.673407 -0.336114
v 0.236220 0.677273 -0.337930
v 0.236787 0.716859 -0.341395
v 0.236787 0.716849 -0.395982
v 0.102771 0.940648 -0.415563
v 0.077999 0.963130 -0.417532
v 0.201487 0.652173 -0.390328
v 0.236220 0.677264 -0.392519
v 0.217038 0.682539 -0.394459
v 0.218341 0.706240 -0.396533
v 0.201486 0.673398 -0.393660
v -0.153612 0.673647 -0.393681
v -0.153612 0.652413 -0.390349
v -0.153612 0.652423 -0.335753
v -0.153612 0.673657 -0.336136
v -0.287567 0.934208 -0.414997
v -0.273134 0.960476 -0.362707
v -0.273134 0.960468 -0.417297
v -0.245618 0.972438 -0.363751
v -0.245618 0.972429 -0.418346
v 0.049783 0.972188 -0.418325
v 0.049783 0.950954 -0.417942
v 0.084316 0.930034 -0.416113
v -0.245618 0.951203 -0.417964
v -0.266305 0.934208 -0.416477
v -0.188144 0.694568 -0.395512
v -0.181829 0.661481 -0.336546
v -0.181829 0.661472 -0.391140
v -0.206585 0.683962 -0.393106
v -0.287567 0.934216 -0.360411
v -0.206585 0.683970 -0.338517
v -0.188144 0.694577 -0.337966
v -0.266305 0.934217 -0.358933
v 0.014706 0.576637 0.085106
v 0.076508 0.614640 0.099095
v 0.084911 0.576780 0.000000
v 0.019309 0.629448 0.107135
v -0.343551 0.650260 0.123337
v -0.349642 0.607818 0.105418
v 0.021067 0.636098 0.257232
v 0.025219 0.617472 0.257680
v 0.073799 0.617472 0.257680
v 0.079838 0.637085 0.256595
v -0.205922 0.653398 0.300073
v -0.270202 0.653398 0.241547
v -0.408495 0.649336 -0.046912
v -0.398081 0.085575 0.037028
v -0.415249 0.046956 0.044180
v -0.398081 0.008336 0.037028
v -0.328568 0.025524 0.008072
v -0.359504 -0.001201 0.020959
v -0.359504 0.095114 0.020959
v -0.328568 0.068388 0.008072
v 0.286348 -0.001201 0.265023
v 0.327002 0.008336 0.274698
v 0.345096 0.046956 0.279004
v 0.286348 0.095114 0.265023
v 0.327002 0.085575 0.274698
v 0.253745 0.025524 0.257265
v 0.253745 0.068388 0.257265
v 0.270562 0.068388 0.186597
v 0.303164 -0.001201 0.194355
v 0.270562 0.025524 0.186597
v 0.343818 0.085575 0.204030
v 0.303164 0.095114 0.194355
v 0.361912 0.046956 0.208335
v 0.343818 0.008336 0.204030
v -0.359406 0.580932 0.046912
v -0.408495 0.649336 0.046912
v 0.352086 0.088502 0.243885
v 0.030348 0.091099 0.044537
v 0.049005 0.091099 0.018982
v 0.337157 0.088502 0.264332
v 0.049005 0.158333 0.018982
v 0.346120 0.118079 0.240115
v 0.030348 0.158333 0.044537
v 0.331749 0.118079 0.259800
v -0.008948 0.550633 0.235133
v -0.010354 0.548708 0.146728
v 0.000472 0.599820 0.090961
v -0.009531 0.580607 0.087835
v 0.010305 0.548708 0.146776
v 0.009005 0.550665 0.235182
v 0.027188 0.541521 0.306736
v 0.027221 0.541521 0.369512
v 0.027287 0.554738 0.369730
v 0.009510 0.580607 0.087879
v 0.000609 0.565514 0.246792
v 0.000499 0.569554 0.150119
v -0.141169 0.118080 -0.390659
v -0.119682 0.088502 -0.404983
v -0.143778 0.088502 -0.397216
v -0.117972 0.118080 -0.398138
v -0.000100 0.091099 -0.047489
v -0.000100 0.158333 -0.047489
v -0.030215 0.158333 -0.037780
v -0.030215 0.091099 -0.037780
v -0.425908 0.088502 0.016685
v -0.048387 0.091099 -0.012006
v -0.048461 0.091099 0.019633
v -0.425848 0.088502 -0.008632
v -0.119446 0.088502 0.412907
v -0.029561 0.091099 0.044881
v 0.000508 0.091099 0.054728
v -0.143505 0.088502 0.405028
v -0.075883 -0.001201 -0.382719
v -0.054068 0.068388 -0.357279
v -0.054068 0.025524 -0.357279
v -0.103087 0.085575 -0.414443
v -0.115194 0.046956 -0.428560
v -0.103087 0.008336 -0.414443
v -0.075883 0.095114 -0.382719
v -0.109209 0.025524 -0.309992
v -0.158229 0.008336 -0.367156
v -0.131025 -0.001201 -0.335432
v -0.158229 0.085575 -0.367156
v -0.131025 0.095114 -0.335432
v -0.109209 0.068388 -0.309992
v -0.170336 0.046956 -0.381274
v -0.273751 0.764593 -0.262177
v -0.250421 0.777632 -0.262177
v -0.313959 1.137125 -0.327185
v -0.333846 1.158167 -0.259135
v -0.262547 0.845107 -0.327185
v -0.285669 0.832183 -0.327185
v -0.462744 1.351196 -0.224073
v -0.342334 1.213629 -0.316179
v -0.390700 1.290487 -0.290979
v -0.527205 1.387795 -0.117124
v -0.418864 0.118080 0.016229
v -0.418809 0.118080 -0.008144
v -0.048387 0.158333 -0.012006
v -0.048461 0.158333 0.019633
v 0.072034 0.650518 0.378441
v 0.026808 0.650518 0.378441
v -0.188144 0.694577 0.334806
v -0.287567 0.934217 0.357252
v -0.266306 0.934217 0.355772
v -0.273134 0.960477 0.359547
v -0.287567 0.934208 0.411839
v -0.273134 0.960468 0.414139
v -0.245618 0.972438 0.360591
v -0.245618 0.972429 0.415187
v 0.049783 0.972188 0.415167
v -0.245618 0.951212 0.357259
v -0.188144 0.694568 0.392352
v -0.206585 0.683962 0.389946
v -0.266306 0.934208 0.413318
v -0.245618 0.951204 0.414805
v -0.181829 0.661472 0.387980
v -0.181829 0.661481 0.333387
v -0.206585 0.683970 0.335358
v -0.117703 0.118080 0.406070
v -0.140866 0.118080 0.398484
v -0.029561 0.158333 0.044881
v 0.000508 0.158333 0.054728
v 0.185548 0.664162 -0.319934
v 0.038464 0.634346 0.362551
v 0.060545 0.634346 0.362551
v -0.013272 0.286459 0.022471
v 0.014140 0.599563 0.022471
v -0.013272 0.599563 0.022471
v 0.014140 0.286459 0.022471
v -0.021742 0.599563 -0.003600
v -0.021742 0.286459 -0.003600
v -0.085603 0.577377 0.055055
vt 0.656250 0.589840
vt 0.613281 0.574220
vt 0.585449 0.588870
vt 0.110962 0.296870
vt 0.130981 0.261720
vt 0.110779 0.227540
vt 0.589355 0.277340
vt 0.596680 0.323240
vt 0.602051 0.266600
vt 0.075988 0.317380
vt 0.102478 0.557620
vt 0.075988 0.557620
vt 0.102478 0.317380
vt 0.255371 0.799800
vt 0.249756 0.850590
vt 0.244751 0.914060
vt 0.470459 0.232420
vt 0.473389 0.260740
vt 0.690430 0.230470
vt 0.689941 0.203120
vt 0.706543 0.506840
vt 0.706543 0.588870
vt 0.656250 0.506840
vt 0.251465 0.346680
vt 0.301758 0.282230
vt 0.262695 0.301760
vt 0.358154 0.346680
vt 0.326660 0.382810
vt 0.278076 0.382810
vt 0.343994 0.301760
vt 0.420166 0.974610
vt 0.327881 0.967770
vt 0.337891 0.942380
vt 0.417480 0.998050
vt 0.494873 0.978520
vt 0.497803 0.998050
vt 0.492676 0.955080
vt 0.489258 0.829100
vt 0.316895 0.823240
vt 0.282471 0.903320
vt 0.271973 0.857420
vt 0.255371 0.803710
vt 0.271484 0.809570
vt 0.319580 0.590820
vt 0.491699 0.598630
vt 0.275879 0.619140
vt 0.198486 0.995120
vt 0.182617 0.986330
vt 0.261963 0.920900
vt 0.259277 0.612300
vt 0.316162 0.576170
vt 0.407959 0.577150
vt 0.577637 0.579100
vt 0.575195 0.563480
vt 0.415771 0.562500
vt 0.315186 0.562500
vt 0.215454 0.568360
vt 0.203369 0.580080
vt 0.050384 0.261720
vt 0.110962 0.296870
vt 0.070556 0.296870
vt 0.110779 0.227540
vt 0.070678 0.227540
vt 0.130981 0.261720
vt 0.668457 0.161130
vt 0.689453 0.133790
vt 0.670898 0.180660
vt 0.427979 0.195310
vt 0.427490 0.172850
vt 0.466797 0.131840
vt 0.597656 0.057620
vt 0.610840 0.044920
vt 0.625488 0.057620
vt 0.597656 0.044920
vt 0.462402 0.057620
vt 0.462891 0.045900
vt 0.445557 0.057620
vt 0.610840 0.014650
vt 0.597656 0.014650
vt 0.462891 0.014650
vt 0.445557 0.044920
vt 0.426270 0.057620
vt 0.625488 0.014650
vt 0.625488 0.002930
vt 0.597656 0.002930
vt 0.462891 0.002930
vt 0.445557 0.014650
vt 0.426270 0.044920
vt 0.224487 0.057620
vt 0.426270 0.014650
vt 0.224487 0.045900
vt 0.224487 0.014650
vt 0.224487 0.002930
vt 0.426270 0.002930
vt 0.445557 0.002930
vt 0.326660 0.382810
vt 0.251465 0.346680
vt 0.278076 0.382810
vt 0.301758 0.282230
vt 0.343994 0.301760
vt 0.358154 0.346680
vt 0.262695 0.301760
vt 0.326660 0.461910
vt 0.344482 0.541020
vt 0.358398 0.497070
vt 0.262695 0.541020
vt 0.251953 0.497070
vt 0.278076 0.461910
vt 0.301758 0.560550
vt 0.251465 0.346680
vt 0.301758 0.282230
vt 0.262695 0.301760
vt 0.358154 0.346680
vt 0.326660 0.382810
vt 0.278076 0.382810
vt 0.343994 0.301760
vt 0.358398 0.497070
vt 0.301758 0.560550
vt 0.344482 0.541020
vt 0.251953 0.497070
vt 0.278076 0.461910
vt 0.326660 0.461910
vt 0.262695 0.541020
vt 0.815430 0.252930
vt 0.763184 0.390620
vt 0.759766 0.232420
vt 0.788574 0.434570
vt 0.845215 0.274410
vt 0.847656 0.182620
vt 0.780762 0.454100
vt 0.817383 0.454100
vt 0.806152 0.490230
vt 0.778320 0.518550
vt 0.901855 0.489260
vt 0.916016 0.499020
vt 0.902344 0.465820
vt 0.917480 0.453120
vt 0.956055 0.316410
vt 0.915527 0.276370
vt 0.732910 0.532230
vt 0.899414 0.580080
vt 0.727539 0.578120
vt 0.956543 0.507810
vt 0.639648 0.506840
vt 0.630859 0.573240
vt 0.601074 0.506840
vt 0.585449 0.506840
vt 0.095092 0.707030
vt 0.124878 0.577150
vt 0.099670 0.569340
vt 0.202881 0.579100
vt 0.094848 0.711910
vt 0.257080 0.795900
vt 0.097290 0.984370
vt 0.182617 0.986330
vt 0.244751 0.914060
vt 0.260498 0.849610
vt 0.032379 0.974610
vt 0.096252 0.981450
vt 0.095092 0.708980
vt 0.952637 0.505860
vt 0.923340 0.594730
vt 0.956055 0.566410
vt 0.899414 0.580080
vt 0.727539 0.600590
vt 0.551758 0.631840
vt 0.543457 0.612300
vt 0.727051 0.614260
vt 0.561035 0.699220
vt 0.517578 0.658200
vt 0.519531 0.707030
vt 0.501953 0.708010
vt 0.505859 0.929690
vt 0.520020 0.922850
vt 0.564941 0.962890
vt 0.580078 0.907230
vt 0.557129 0.977540
vt 0.657227 0.991210
vt 0.588379 0.991210
vt 0.819824 0.990230
vt 0.921387 0.978520
vt 0.910156 0.960940
vt 0.895020 0.906250
vt 0.911621 0.698240
vt 0.930176 0.631840
vt 0.933594 0.608400
vt 0.972168 0.935550
vt 0.955078 0.922850
vt 0.953125 0.703120
vt 0.953125 0.656250
vt 0.942383 0.636720
vt 0.971680 0.650390
vt 0.956055 0.615230
vt 0.972656 0.703120
vt 0.050384 0.261720
vt 0.070678 0.227540
vt 0.070556 0.296870
vt 0.100281 0.569340
vt 0.124878 0.577150
vt 0.095153 0.706050
vt 0.095092 0.708980
vt 0.096252 0.981450
vt 0.035980 0.750000
vt 0.064453 0.685550
vt 0.006198 0.685550
vt 0.005897 0.565430
vt 0.064453 0.565430
vt 0.102478 0.569340
vt 0.625488 0.014650
vt 0.793945 0.002930
vt 0.625488 0.002930
vt 0.610840 0.014650
vt 0.597656 0.002930
vt 0.597656 0.014650
vt 0.462891 0.002930
vt 0.426270 0.014650
vt 0.445557 0.002930
vt 0.426270 0.002930
vt 0.445557 0.014650
vt 0.462891 0.014650
vt 0.462891 0.045900
vt 0.597656 0.044920
vt 0.610840 0.044920
vt 0.426270 0.044920
vt 0.445557 0.044920
vt 0.445557 0.057620
vt 0.462402 0.057620
vt 0.426270 0.057620
vt 0.224487 0.057620
vt 0.224487 0.045900
vt 0.224487 0.014650
vt 0.224487 0.002930
vt 0.826660 0.044920
vt 0.811035 0.014650
vt 0.811035 0.044920
vt 0.793945 0.014650
vt 0.793945 0.044920
vt 0.625488 0.044920
vt 0.625488 0.057620
vt 0.597656 0.057620
vt 0.793945 0.057620
vt 0.826660 0.057620
vt 0.968750 0.056640
vt 0.997070 0.044920
vt 0.983398 0.014650
vt 0.983398 0.044920
vt 0.997070 0.057620
vt 0.968750 0.044920
vt 0.826660 0.014650
vt 0.968750 0.014650
vt 0.997070 0.014650
vt 0.997070 0.002930
vt 0.968750 0.002930
vt 0.826660 0.002930
vt 0.776367 0.473630
vt 0.729004 0.528320
vt 0.806152 0.490230
vt 0.747559 0.495120
vt 0.817383 0.454100
vt 0.781250 0.454100
vt 0.847656 0.189450
vt 0.815430 0.252930
vt 0.845215 0.274410
vt 0.917480 0.453120
vt 0.902344 0.465820
vt 0.901855 0.489260
vt 0.746094 0.497070
vt 0.916016 0.499020
vt 0.956055 0.316410
vt 0.915527 0.276370
vt 0.738281 0.536130
vt 0.425781 0.089840
vt 0.224365 0.090820
vt 0.445557 0.089840
vt 0.462402 0.089840
vt 0.597656 0.089840
vt 0.625488 0.089840
vt 0.793945 0.089840
vt 0.826660 0.089840
vt 0.968750 0.089840
vt 0.997070 0.089840
vt 0.759766 0.102540
vt 0.839355 0.187500
vt 0.759766 0.179690
vt 0.813965 0.102540
vt 0.847656 0.105470
vt 0.278076 0.461910
vt 0.251953 0.497070
vt 0.262695 0.541020
vt 0.344482 0.541020
vt 0.301758 0.560550
vt 0.326660 0.461910
vt 0.358398 0.497070
vt 0.301758 0.282230
vt 0.262695 0.301760
vt 0.251465 0.346680
vt 0.326660 0.382810
vt 0.278076 0.382810
vt 0.343994 0.301760
vt 0.358154 0.346680
vt 0.358398 0.497070
vt 0.301758 0.560550
vt 0.344482 0.541020
vt 0.278076 0.461910
vt 0.326660 0.461910
vt 0.251953 0.497070
vt 0.262695 0.541020
vt 0.847656 0.105470
vt 0.813965 0.102540
vt 0.759766 0.102540
vt 0.829590 0.194340
vt 0.759766 0.217770
vt 0.760254 0.183590
vt 0.701172 0.103520
vt 0.700684 0.183590
vt 0.700684 0.216800
vt 0.832520 0.208980
vt 0.759766 0.217770
vt 0.760254 0.183590
vt 0.690430 0.230470
vt 0.470459 0.232420
vt 0.473389 0.260740
vt 0.689941 0.203120
vt 0.427490 0.172850
vt 0.689453 0.133790
vt 0.466797 0.131840
vt 0.668457 0.161130
vt 0.427979 0.195310
vt 0.670898 0.180660
vt 0.581055 0.381840
vt 0.581055 0.446290
vt 0.564941 0.495120
vt 0.581055 0.494140
vt 0.597656 0.448240
vt 0.598633 0.387700
vt 0.643066 0.341800
vt 0.529785 0.265620
vt 0.542969 0.276370
vt 0.687988 0.298830
vt 0.596680 0.494140
vt 0.533691 0.326170
vt 0.547852 0.380860
vt 0.563477 0.378910
vt 0.548340 0.448240
vt 0.564453 0.447270
vt 0.548340 0.494140
vt 0.668457 0.161130
vt 0.689941 0.203120
vt 0.689453 0.133790
vt 0.670898 0.180660
vt 0.470459 0.232420
vt 0.427979 0.195310
vt 0.427490 0.172850
vt 0.466797 0.131840
vt 0.690430 0.230470
vt 0.473389 0.260740
vt 0.690430 0.230470
vt 0.470459 0.232420
vt 0.473389 0.260740
vt 0.689941 0.203120
vt 0.690430 0.230470
vt 0.470459 0.232420
vt 0.473389 0.260740
vt 0.689941 0.203120
vt 0.301758 0.282230
vt 0.358154 0.346680
vt 0.343994 0.301760
vt 0.278076 0.382810
vt 0.251465 0.346680
vt 0.262695 0.301760
vt 0.326660 0.382810
vt 0.344482 0.541020
vt 0.262695 0.541020
vt 0.301758 0.560550
vt 0.278076 0.461910
vt 0.326660 0.461910
vt 0.358398 0.497070
vt 0.251953 0.497070
vt 0.315186 0.562500
vt 0.407959 0.577150
vt 0.415771 0.562500
vt 0.316162 0.576170
vt 0.319580 0.590820
vt 0.271484 0.809570
vt 0.316895 0.823240
vt 0.275879 0.619140
vt 0.259277 0.612300
vt 0.337891 0.942380
vt 0.271973 0.857420
vt 0.282471 0.903320
vt 0.249756 0.850590
vt 0.254883 0.799800
vt 0.198486 0.995120
vt 0.261963 0.920900
vt 0.420166 0.974610
vt 0.327881 0.967770
vt 0.417480 0.998050
vt 0.668457 0.161130
vt 0.689453 0.133790
vt 0.670898 0.180660
vt 0.427979 0.195310
vt 0.427490 0.172850
vt 0.466797 0.131840
vt 0.706543 0.506840
vt 0.656250 0.589840
vt 0.656250 0.506840
vt 0.706543 0.588870
vt 0.036285 0.750000
vt 0.034484 0.978520
vt 0.095153 0.706050
vt 0.064453 0.685550
vt 0.102783 0.569340
vt 0.064453 0.565430
vt 0.847656 0.181640
vt 0.997070 0.105470
vt 0.997070 0.181640
vt 0.968750 0.002930
vt 0.826660 0.014650
vt 0.826660 0.002930
vt 0.811035 0.014650
vt 0.826660 0.044920
vt 0.811035 0.044920
vt 0.793945 0.014650
vt 0.793945 0.044920
vt 0.625488 0.044920
vt 0.793945 0.002930
vt 0.968750 0.056640
vt 0.968750 0.044920
vt 0.826660 0.057620
vt 0.793945 0.057620
vt 0.983398 0.044920
vt 0.997070 0.057620
vt 0.997070 0.044920
vt 0.983398 0.014650
vt 0.997070 0.014650
vt 0.997070 0.002930
vt 0.968750 0.014650
vt 0.668457 0.161130
vt 0.689453 0.133790
vt 0.670898 0.180660
vt 0.427979 0.195310
vt 0.427490 0.172850
vt 0.466797 0.131840
vt 0.968750 0.089840
vt 0.997070 0.089840
vt 0.826660 0.089840
vt 0.793945 0.089840
vt 0.625488 0.089840
vt 0.597656 0.089840
vt 0.462402 0.089840
vt 0.445557 0.089840
vt 0.425781 0.089840
vt 0.224365 0.090820
vt 0.501953 0.649410
vt 0.538086 0.635740
vt 0.525391 0.620120
vt 0.776367 0.473630
vt 0.724121 0.532230
vt 0.639648 0.506840
vt 0.613281 0.574220
vt 0.601074 0.506840
vt 0.630859 0.573240
vt 0.585449 0.588870
vt 0.585449 0.506840
vt 0.997070 0.222660
vt 0.848633 0.222660
vt 0.006496 0.317380
vt 0.042999 0.557620
vt 0.006496 0.557620
vt 0.042999 0.317380
vt 0.134888 0.557620
vt 0.134888 0.317380
vt 0.171387 0.557620
vt 0.171387 0.317380
vt 0.967285 0.516600
vt 0.956055 0.566410
vt 0.952637 0.506840
vt 0.967773 0.305660
vt 0.925293 0.262700
vt 0.923340 0.594730
vt 0.228394 0.461910
vt 0.228516 0.382810
vt 0.179810 0.461910
vt 0.179688 0.382810
vt 0.518555 0.382810
vt 0.465576 0.461910
vt 0.518066 0.461910
vt 0.466064 0.382810
vt 0.423584 0.461910
vt 0.424072 0.382810
vt 0.370361 0.461910
vt 0.370361 0.382810
vt 0.215454 0.568360
vt 0.202393 0.577150
vt 0.967285 0.516600
vt 0.961914 0.512700
vt 0.967773 0.305660
vt 0.925293 0.262700
vt 0.214233 0.584960
vt 0.179810 0.461910
vt 0.228516 0.382810
vt 0.179688 0.382810
vt 0.228394 0.461910
vt 0.370361 0.382810
vt 0.370361 0.461910
vt 0.424072 0.382810
vt 0.423584 0.461910
vt 0.466064 0.382810
vt 0.465576 0.461910
vt 0.518555 0.382810
vt 0.518066 0.461910
vt 0.518555 0.382810
vt 0.465576 0.461910
vt 0.518066 0.461910
vt 0.466064 0.382810
vt 0.423584 0.461910
vt 0.424072 0.382810
vt 0.370361 0.461910
vt 0.370361 0.382810
vt 0.228394 0.461910
vt 0.228516 0.382810
vt 0.179810 0.461910
vt 0.179688 0.382810
vt 0.518555 0.382810
vt 0.465576 0.461910
vt 0.518066 0.461910
vt 0.466064 0.382810
vt 0.423584 0.461910
vt 0.424072 0.382810
vt 0.370361 0.461910
vt 0.370361 0.382810
vt 0.228394 0.461910
vt 0.228516 0.382810
vt 0.179810 0.461910
vt 0.179688 0.382810
vt 0.001599 0.002930
vt 0.033386 0.227540
vt 0.001599 0.227540
vt 0.033386 0.002930
vt 0.070678 0.002930
vt 0.110779 0.002930
vt 0.142578 0.227540
vt 0.142578 0.002930
vt 0.180054 0.227540
vt 0.180054 0.002930
vt 0.220093 0.227540
vt 0.220093 0.002930
vt 0.763184 0.390620
vt 0.786621 0.433590
vt 0.759766 0.232420
vt 0.700684 0.231450
vt 0.696289 0.389650
vt 0.673828 0.452150
vt 0.727539 0.496090
vt 0.518555 0.382810
vt 0.465576 0.461910
vt 0.518066 0.461910
vt 0.466064 0.382810
vt 0.423584 0.461910
vt 0.424072 0.382810
vt 0.370361 0.461910
vt 0.370361 0.382810
vt 0.228394 0.461910
vt 0.228516 0.382810
vt 0.179810 0.461910
vt 0.179688 0.382810
vn 0.7270 -0.1754 -0.6639
vn -0.1516 -0.8920 -0.4259
vn -0.8429 -0.3124 -0.4381
vn -0.6250 -0.7500 -0.2165
vn -0.1768 -0.3535 -0.9186
vn 0.5000 -0.7500 -0.4330
vn -0.6708 0.5676 0.4774
vn -0.7842 -0.6102 -0.1123
vn -0.4059 -0.8191 0.4054
vn 0.8516 -0.0000 -0.5242
vn 0.2353 -0.0000 -0.9719
vn 0.9971 -0.0000 -0.0765
vn -0.2353 0.0000 -0.9719
vn -0.6429 -0.1524 0.7507
vn -0.2363 0.1249 0.9636
vn -0.4713 0.1920 0.8608
vn 0.4181 -0.7039 0.5741
vn -0.4141 -0.7071 -0.5732
vn -0.1342 -0.6181 -0.7746
vn 0.9619 -0.2304 -0.1472
vn -0.6596 -0.7334 -0.1643
vn 0.8348 -0.5179 -0.1866
vn -0.8321 -0.0895 -0.5473
vn -0.0512 -0.6251 -0.7789
vn -0.5583 -0.8179 -0.1392
vn 0.2267 0.3850 -0.8946
vn -0.1783 0.8057 -0.5648
vn -0.7732 0.6322 -0.0497
vn 0.6990 -0.2682 -0.6629
vn -0.3470 0.8771 0.3320
vn -0.7591 0.1616 0.6306
vn 0.4063 0.8674 0.2874
vn -0.9468 -0.0553 0.3171
vn -0.6885 0.7252 0.0000
vn -0.9838 -0.1795 -0.0000
vn 0.7113 0.7028 0.0000
vn 0.9202 0.3915 -0.0000
vn 0.8989 0.3630 -0.2452
vn 0.3662 0.6387 0.6767
vn 0.4816 0.3894 0.7851
vn 0.7163 0.2093 0.6657
vn 0.9576 -0.2871 0.0247
vn 0.8609 -0.5087 -0.0001
vn 0.5360 -0.3400 0.7727
vn -0.3254 -0.3480 0.8792
vn -0.0090 -0.8802 0.4745
vn -0.0905 -0.9959 0.0064
vn -0.0045 -1.0000 -0.0076
vn -0.2802 -0.8091 -0.5166
vn -0.4648 -0.6420 0.6097
vn -0.8088 -0.5358 0.2426
vn -0.1250 0.7500 0.6495
vn -0.5000 0.7500 -0.4330
vn -0.8839 0.3535 0.3062
vn 0.6250 0.7500 -0.2165
vn 0.7071 0.3535 0.6124
vn 0.1768 0.3535 -0.9186
vn 0.3417 0.7184 -0.6059
vn 0.7940 0.4784 0.3750
vn 0.3443 0.8887 0.3027
vn -0.4764 0.4510 -0.7547
vn -0.4190 -0.5601 0.7146
vn 0.3318 0.6122 0.7178
vn -0.1042 -0.4353 0.8942
vn 0.5582 0.4377 0.7049
vn -0.6170 -0.2865 0.7330
vn 0.6893 0.1838 0.7008
vn -0.6032 0.1627 0.7808
vn 0.3907 0.6394 -0.6622
vn 0.5715 0.4814 -0.6645
vn 0.8188 0.1893 -0.5420
vn 0.6514 -0.2961 0.6986
vn -0.2386 0.5863 0.7742
vn 0.1400 0.7435 -0.6539
vn -0.2181 -0.7223 -0.6563
vn -0.5338 -0.3780 -0.7564
vn -0.5452 0.0018 -0.8383
vn 0.5828 -0.3563 -0.7303
vn 0.2742 -0.6938 0.6659
vn 0.1922 0.6065 0.7715
vn 0.1390 -0.5607 -0.8163
vn -0.1351 -0.8972 0.4205
vn -0.1179 -0.6870 -0.7170
vn 0.1042 0.4354 -0.8942
vn -0.1308 0.8162 -0.5628
vn -0.4614 0.4740 -0.7500
vn -0.8255 0.5636 0.0297
vn -0.6828 -0.1068 0.7228
vn -0.2861 0.6323 0.7200
vn -0.7566 -0.6251 -0.1920
vn -0.6503 -0.2306 -0.7239
vn -0.4040 0.5365 -0.7409
vn -0.3049 -0.8179 0.4879
vn 0.8056 0.5238 -0.2770
vn 0.6918 -0.3850 -0.6109
vn 0.2696 0.2683 -0.9248
vn 0.7764 -0.4537 0.4374
vn 0.6522 0.1279 0.7472
vn 0.3792 0.8179 0.4327
vn 0.3371 -0.9373 -0.0886
vn 0.9949 -0.0895 -0.0462
vn 0.4993 -0.6251 0.6000
vn 0.5334 -0.8179 -0.2155
vn 0.3425 0.3850 0.8570
vn 0.4762 0.8057 0.3522
vn 0.6546 0.6323 -0.4143
vn -0.1758 -0.2682 0.9472
vn -0.9864 0.1613 0.0323
vn -0.6535 -0.6726 -0.3472
vn -0.6944 -0.5365 0.4795
vn -0.2840 0.1068 -0.9529
vn -0.2968 0.7031 -0.6461
vn -0.4760 0.8710 0.1214
vn 0.0688 -0.6323 -0.7717
vn -0.2957 -0.6857 -0.6651
vn -0.0295 -0.9864 -0.1614
vn -0.5292 -0.8154 -0.2347
vn 0.1546 -0.8659 -0.4758
vn -0.3685 -0.7299 -0.5757
vn -0.5988 0.0076 -0.8008
vn -0.3369 -0.7987 -0.4986
vn 0.1355 -0.9627 -0.2341
vn 0.3525 -0.9358 0.0000
vn 0.4848 -0.8642 -0.1349
vn -0.5778 -0.8122 -0.0801
vn -0.1579 -0.8906 -0.4264
vn -0.4374 -0.8810 -0.1804
vn 0.0649 -0.9668 -0.2471
vn -0.0773 -0.9970 -0.0000
vn 0.0114 -0.8834 -0.4685
vn 0.2578 -0.8810 -0.3968
vn -0.8911 -0.2089 -0.4028
vn -0.6820 -0.0510 -0.7295
vn -0.8088 -0.5358 -0.2426
vn -0.6429 -0.1524 -0.7507
vn -0.9468 -0.0553 -0.3171
vn -0.7591 0.1616 -0.6306
vn -0.4713 0.1920 -0.8608
vn -0.2363 0.1249 -0.9636
vn 0.0114 -0.8834 0.4685
vn 0.5664 -0.6084 0.5559
vn 0.3224 -0.4233 0.8467
vn 0.0649 -0.9668 0.2471
vn 0.7599 -0.6500 0.0000
vn 0.9213 0.1343 -0.3649
vn 0.5664 -0.6084 -0.5559
vn 0.8654 0.5011 -0.0008
vn 0.2043 0.9728 0.1090
vn 0.4681 0.4937 -0.7329
vn 0.0696 0.7485 -0.6594
vn 0.0524 -0.3899 -0.9193
vn -0.3646 -0.1866 -0.9123
vn -0.2230 0.7979 -0.5599
vn -0.6678 0.6809 -0.3006
vn 0.0489 0.9973 0.0539
vn -0.8200 -0.4922 -0.2923
vn -0.3925 -0.8095 0.4367
vn -0.8887 -0.3417 0.3057
vn -0.4474 0.8412 0.3037
vn 0.0395 0.9972 -0.0638
vn 0.2250 0.9633 -0.1462
vn 0.9228 0.1376 0.3598
vn -0.3646 -0.1866 0.9123
vn -0.2211 0.8021 0.5548
vn 0.0697 0.7576 0.6490
vn 0.4642 0.5052 0.7275
vn 0.0524 -0.3899 0.9193
vn 0.1250 -0.7500 0.6495
vn 0.8839 -0.3535 0.3062
vn -0.7071 -0.3535 0.6124
vn -0.6820 -0.0510 0.7295
vn -0.8911 -0.2089 0.4028
vn -0.9969 -0.0782 0.0000
vn -0.9659 -0.0551 0.2531
vn -0.9523 -0.0315 -0.3035
vn -0.9709 -0.0485 -0.2345
vn -0.9431 -0.0539 0.3280
vn 0.1400 0.7436 0.6539
vn 0.2629 -0.4263 0.8655
vn -0.2181 -0.7222 0.6564
vn 0.3908 0.6394 0.6621
vn -0.5338 -0.3780 0.7564
vn 0.5715 0.4814 0.6645
vn -0.5452 0.0018 0.8383
vn 0.1390 -0.5607 0.8162
vn -0.4614 0.4740 0.7500
vn -0.1308 0.8162 0.5628
vn 0.5828 -0.3563 0.7303
vn 0.8188 0.1893 0.5420
vn 0.6893 0.1838 -0.7008
vn 0.5582 0.4377 -0.7049
vn 0.3317 0.6122 -0.7178
vn 0.2743 -0.6938 -0.6659
vn 0.6514 -0.2961 -0.6986
vn -0.6032 0.1627 -0.7808
vn -0.6169 -0.2865 -0.7330
vn -0.2385 0.5863 -0.7742
vn 0.1922 0.6065 -0.7715
vn -0.1351 -0.8972 -0.4205
vn -0.1178 -0.6870 0.7170
vn 0.1042 0.4354 0.8942
vn -0.6956 0.0929 -0.7124
vn -0.5208 0.5218 0.6756
vn -0.4377 0.5335 -0.7237
vn -0.1770 0.8885 0.4234
vn -0.1203 0.5238 -0.8433
vn 0.0928 0.8211 -0.5632
vn -0.1042 -0.4354 -0.8942
vn -0.4190 -0.5601 -0.7146
vn 0.1353 -0.6827 -0.7180
vn 0.5250 -0.3686 -0.7671
vn 0.4752 0.2115 -0.8541
vn -0.3318 -0.6121 0.7178
vn -0.3910 -0.6393 -0.6622
vn -0.7260 -0.4328 -0.5344
vn -0.7072 0.0284 0.7064
vn -0.6783 -0.4750 0.5606
vn 0.3617 0.4536 0.8145
vn 0.6208 0.0444 0.7827
vn 0.1751 -0.8262 0.5355
vn 0.1355 -0.9627 0.2341
vn 0.5709 -0.8210 0.0000
vn -0.3369 -0.7987 0.4986
vn -0.4352 0.1954 0.8789
vn -0.2964 -0.6877 0.6628
vn -0.6596 -0.7334 0.1643
vn -0.5778 -0.8122 0.0801
vn 0.4848 -0.8642 0.1349
vn 0.8348 -0.5179 0.1866
vn -0.1579 -0.8906 0.4264
vn -0.4374 -0.8810 0.1804
vn -0.9042 -0.3293 -0.2720
vn -0.0219 0.5869 0.8093
vn -0.7242 0.1488 0.6734
vn -0.1761 -0.4537 0.8736
vn 0.7453 -0.3226 0.5835
vn 0.1885 -0.9373 0.2932
vn 0.5058 0.7488 0.4284
vn 0.9629 0.2682 -0.0294
vn -0.4164 -0.6251 0.6602
vn 0.3698 -0.8179 0.4407
vn 0.4764 -0.1068 0.8727
vn -0.2268 0.5636 0.7943
vn 0.5963 0.6323 0.4946
vn -0.8894 -0.2306 0.3947
vn -0.8295 0.5365 0.1553
vn -0.3355 0.1613 -0.9281
vn 0.1282 -0.6726 -0.7288
vn -0.6706 -0.5366 -0.5123
vn 0.5228 0.7031 -0.4820
vn -0.2625 0.8710 -0.4152
vn 0.8185 0.1068 -0.5645
vn 0.7552 -0.6323 -0.1730
vn -0.6738 -0.7032 0.2268
vn -0.9458 -0.1770 0.2723
vn 0.6954 -0.6180 -0.3667
vn -0.4172 -0.7038 0.5750
vn 0.4175 -0.7070 -0.5708
vn 0.4372 -0.2305 0.8693
vn 0.5709 0.4511 -0.6860
vn 0.6819 0.7184 0.1378
vn -0.1818 0.8888 0.4207
vn -0.1117 0.4785 0.8710
vn -0.9643 -0.2280 -0.1350
vn -0.8596 -0.5110 0.0016
vn -0.5269 0.7565 0.3873
vn -0.4988 -0.7592 -0.4182
vn 0.8559 -0.4644 -0.2276
vn 0.8736 -0.4722 -0.1178
vn 0.4655 -0.8796 -0.0985
vn 0.4052 -0.4208 0.8116
vn 0.7519 0.6140 0.2400
vn 0.9976 -0.0543 -0.0429
vn 0.2567 0.9659 -0.0342
vn 0.0320 0.9692 0.2443
vn -0.4707 0.7186 -0.5120
vn 0.1569 -0.2301 -0.9604
vn -0.7780 -0.6184 -0.1108
vn 0.6014 0.4783 -0.6400
vn 0.6750 -0.7039 -0.2212
vn 0.3940 0.8887 -0.2344
vn -0.8647 0.4509 0.2211
vn -0.6728 -0.7071 0.2177
vn -0.3455 -0.6185 0.7058
vn -0.0020 -0.7039 -0.7103
vn -0.0006 -0.7071 0.7071
vn -0.8650 -0.2301 -0.4460
vn 0.5641 -0.6182 0.5474
vn -0.6758 -0.7040 -0.2184
vn 0.6721 -0.7071 0.2199
vn -0.6916 -0.2303 0.6846
vn 0.7641 -0.5237 -0.3767
vn 0.9209 0.3850 -0.0609
vn 0.8465 -0.2682 0.4599
vn 0.2362 0.4537 -0.8593
vn -0.0712 -0.1279 -0.9892
vn -0.0401 -0.8179 -0.5739
vn 0.3003 0.9373 -0.1768
vn -0.3246 -0.3226 0.8891
vn -0.8852 -0.4537 0.1025
vn -0.2206 -0.9373 0.2699
vn -0.7765 0.5869 0.2293
vn -0.2511 0.7488 0.6134
vn 0.3255 0.2682 0.9067
vn -0.8642 0.1489 -0.4806
vn -0.0090 -0.8802 -0.4745
vn 0.9576 -0.2871 -0.0247
vn 0.7163 0.2093 -0.6657
vn 0.8989 0.3630 0.2452
vn 0.5360 -0.3400 -0.7727
vn -0.3254 -0.3480 -0.8792
vn 0.4063 0.8674 -0.2874
vn 0.4816 0.3894 -0.7851
vn 0.3662 0.6387 -0.6767
vn -0.3470 0.8771 -0.3320
vn -0.6323 0.7186 0.2895
vn -0.4229 0.4783 -0.7696
vn -0.1012 0.8887 -0.4472
vn -0.0566 0.4509 0.8908
vn 0.7270 -0.1754 0.6639
vn -0.8429 -0.3124 0.4381
vn 0.3617 0.4536 -0.8145
vn -0.7073 0.0284 -0.7064
vn 0.6208 0.0444 -0.7827
vn -0.5208 0.5218 -0.6756
vn -0.6956 0.0929 0.7124
vn -0.4377 0.5335 0.7237
vn -0.1770 0.8885 -0.4234
vn -0.1203 0.5238 0.8433
vn 0.0928 0.8211 0.5632
vn 0.2629 -0.4263 -0.8655
vn 0.4752 0.2115 0.8541
vn -0.7260 -0.4329 0.5344
vn 0.5250 -0.3686 0.7671
vn 0.1353 -0.6827 0.7180
vn -0.3910 -0.6393 0.6622
vn -0.3318 -0.6121 -0.7178
vn -0.6783 -0.4750 -0.5607
vn 0.0798 0.7185 0.6909
vn -0.8628 0.4784 0.1636
vn -0.4564 0.8888 -0.0425
vn 0.8293 0.4510 0.3300
vn 0.3224 -0.4233 -0.8467
vn -0.1516 -0.8920 0.4259
vn 0.2578 -0.8810 0.3968
vn -0.3808 0.0000 0.9246
vn 0.3808 -0.0000 0.9246
vn -0.7617 0.0000 0.6479
vn 0.7617 -0.0000 0.6480
vn -0.8516 0.0000 -0.5242
vn -0.9971 0.0000 -0.0765
vn -0.0230 -0.9940 0.1073
usemtl chair_operations
s 1
f 1/1/1 2/2/2 3/3/3
f 4/4/4 5/5/5 6/6/6
f 7/7/7 8/8/8 9/9/9
f 10/10/10 11/11/11 12/12/12
f 11/11/11 10/10/10 13/13/13
f 14/14/14 15/15/15 16/16/16
f 17/17/17 18/18/18 19/19/19
f 17/17/17 19/19/19 20/20/20
f 21/21/21 1/1/1 3/22/3
f 1/1/1 21/21/21 22/23/22
f 23/24/23 24/25/24 25/26/25
f 26/27/26 24/25/24 23/24/23
f 26/27/26 23/24/23 27/28/27
f 27/28/27 23/24/23 28/29/28
f 26/27/26 29/30/29 24/25/24
f 30/31/30 31/32/31 32/33/32
f 31/32/31 30/31/30 33/34/33
f 33/34/33 34/35/34 35/36/35
f 34/35/34 33/34/33 30/31/30
f 36/37/36 34/35/34 30/31/30
f 32/33/32 36/37/36 30/31/30
f 36/37/36 32/33/32 37/38/37
f 32/33/32 38/39/38 37/38/37
f 38/39/38 32/33/32 39/40/39
f 40/41/40 38/39/38 39/40/39
f 39/40/39 15/15/15 40/41/40
f 14/42/14 40/41/40 15/15/15
f 15/15/15 39/40/39 16/16/16
f 38/39/38 40/41/40 41/43/41
f 41/43/41 42/44/42 38/39/38
f 42/44/42 37/38/37 38/39/38
f 37/38/37 42/44/42 43/45/43
f 42/44/42 41/43/41 44/46/44
f 16/16/16 32/47/32 31/48/31
f 32/47/32 16/16/16 39/49/39
f 40/41/40 14/42/14 41/43/41
f 45/50/45 41/43/41 14/42/14
f 41/43/41 45/50/45 44/46/44
f 46/51/46 44/46/44 45/50/45
f 44/46/44 46/51/46 42/44/42
f 47/52/47 42/44/42 46/51/46
f 42/44/42 47/52/47 43/45/43
f 48/53/48 43/45/43 47/52/47
f 47/52/47 49/54/49 48/53/48
f 49/54/49 47/52/47 50/55/50
f 47/52/47 51/56/51 50/55/50
f 51/56/51 47/52/47 46/51/46
f 46/57/46 45/50/45 51/58/51
f 52/59/52 53/60/53 54/61/54
f 55/62/55 52/59/52 56/63/56
f 52/59/52 55/62/55 53/60/53
f 55/62/55 57/64/57 53/60/53
f 58/65/58 20/20/20 19/66/19
f 59/67/59 17/17/17 20/20/20
f 20/20/20 58/65/58 59/67/59
f 58/65/58 60/68/60 59/67/59
f 60/68/60 58/65/58 61/69/61
f 19/66/19 61/69/61 58/65/58
f 19/66/19 18/70/18 61/69/61
f 17/17/17 59/67/59 60/68/60
f 62/71/62 63/72/63 64/73/64
f 63/72/63 62/71/62 65/74/65
f 66/75/66 65/74/65 62/71/62
f 65/74/65 66/75/66 67/76/67
f 68/77/68 67/76/67 66/75/66
f 65/74/65 69/78/69 63/72/63
f 69/78/69 65/74/65 70/79/70
f 67/76/67 70/79/70 65/74/65
f 70/79/70 67/76/67 71/80/71
f 72/81/72 71/80/71 67/76/67
f 67/76/67 68/77/68 72/81/72
f 73/82/73 72/81/72 68/77/68
f 74/83/74 69/78/69 75/84/75
f 69/78/69 76/85/76 75/84/75
f 76/85/76 69/78/69 70/79/70
f 70/79/70 77/86/77 76/85/76
f 77/86/77 70/79/70 71/80/71
f 78/87/78 77/86/77 71/80/71
f 71/80/71 72/81/72 78/87/78
f 79/88/79 78/87/78 72/81/72
f 72/81/72 73/82/73 79/88/79
f 80/89/80 79/88/79 73/82/73
f 78/87/78 79/88/79 81/90/81
f 79/88/79 80/89/80 82/91/82
f 82/91/82 81/90/81 79/88/79
f 81/90/81 82/91/82 83/92/83
f 84/93/84 81/90/81 83/92/83
f 81/90/81 84/93/84 85/94/85
f 86/95/86 81/90/81 85/94/85
f 81/90/81 86/95/86 78/87/78
f 77/86/77 78/87/78 86/95/86
f 87/96/87 88/97/88 89/98/89
f 90/99/90 88/97/88 87/96/87
f 90/99/90 87/96/87 91/100/91
f 91/100/91 87/96/87 92/101/92
f 90/99/90 93/102/93 88/97/88
f 94/103/94 95/104/95 96/105/96
f 97/106/97 95/104/95 94/103/94
f 97/106/97 94/103/94 98/107/98
f 98/107/98 94/103/94 99/108/99
f 97/106/97 100/109/100 95/104/95
f 101/110/101 102/111/102 103/112/103
f 104/113/104 102/111/102 101/110/101
f 104/113/104 101/110/101 105/114/105
f 105/114/105 101/110/101 106/115/106
f 104/113/104 107/116/107 102/111/102
f 108/117/108 109/118/109 110/119/110
f 111/120/111 109/118/109 108/117/108
f 111/120/111 108/117/108 112/121/112
f 112/121/112 108/117/108 113/122/113
f 111/120/111 114/123/114 109/118/109
f 115/124/115 116/125/116 117/126/117
f 116/125/116 115/124/115 118/127/118
f 119/128/119 115/124/115 120/129/120
f 119/128/119 118/130/118 115/124/115
f 118/130/118 119/128/119 121/131/121
f 118/130/118 121/131/121 122/132/122
f 123/133/123 124/134/124 22/135/22
f 124/134/124 123/133/123 122/132/122
f 122/132/122 125/136/125 124/134/124
f 125/136/125 122/132/122 121/131/121
f 121/131/121 21/137/21 125/136/125
f 119/128/119 21/137/21 121/131/121
f 21/137/21 119/128/119 126/138/126
f 127/139/127 126/138/126 119/128/119
f 123/140/123 128/141/128 129/142/129
f 123/140/123 130/143/130 128/141/128
f 130/143/130 123/140/123 22/135/22
f 21/137/21 130/143/130 22/135/22
f 126/138/126 130/143/130 21/137/21
f 124/144/124 1/1/1 22/23/22
f 2/2/2 1/1/1 131/145/131
f 1/1/1 124/144/124 131/145/131
f 124/144/124 2/2/2 131/145/131
f 2/2/2 124/144/124 125/146/125
f 125/146/125 3/3/3 2/2/2
f 3/3/3 125/146/125 21/147/21
f 132/148/132 49/149/49 133/150/133
f 134/151/134 49/149/49 132/152/132
f 134/151/134 132/152/132 135/153/135
f 136/154/136 135/153/135 132/152/132
f 137/155/137 135/153/135 136/154/136
f 137/155/137 138/156/138 135/153/135
f 135/153/135 138/156/138 139/157/139
f 35/158/35 136/159/136 132/160/132
f 140/161/140 141/162/141 142/163/142
f 143/164/143 141/162/141 140/161/140
f 143/164/143 144/165/144 141/162/141
f 144/165/144 143/164/143 129/142/129
f 145/166/145 144/165/144 146/167/146
f 144/165/144 145/166/145 147/168/147
f 148/169/148 147/168/147 145/166/145
f 149/170/149 148/169/148 145/166/145
f 150/171/150 148/169/148 149/170/149
f 149/170/149 151/172/151 150/171/150
f 152/173/152 150/171/150 151/172/151
f 150/171/150 152/173/152 153/174/153
f 152/173/152 154/175/154 153/174/153
f 154/175/154 155/176/155 153/174/153
f 155/176/155 150/171/150 153/174/153
f 150/171/150 155/176/155 148/169/148
f 154/175/154 152/173/152 156/177/156
f 119/178/119 156/177/156 127/179/127
f 157/180/157 156/177/156 119/178/119
f 158/181/158 156/177/156 157/180/157
f 158/181/158 154/175/154 156/177/156
f 154/175/154 158/181/158 159/182/159
f 159/182/159 155/176/155 154/175/154
f 155/176/155 159/182/159 160/183/160
f 160/183/160 148/169/148 155/176/155
f 148/169/148 160/183/160 161/184/161
f 161/184/161 147/168/147 148/169/148
f 162/185/162 147/168/147 161/184/161
f 162/185/162 144/165/144 147/168/147
f 144/165/144 162/185/162 141/186/141
f 163/187/163 159/182/159 158/181/158
f 159/182/159 163/187/163 164/188/164
f 160/183/160 159/182/159 164/188/164
f 165/189/165 160/183/160 164/188/164
f 160/183/160 165/189/165 161/184/161
f 166/190/166 161/184/161 165/189/165
f 162/185/162 161/184/161 166/190/166
f 162/191/162 142/192/142 141/193/141
f 142/192/142 162/191/162 166/190/166
f 166/190/166 167/194/167 142/192/142
f 167/194/167 166/190/166 165/189/165
f 165/189/165 163/187/163 167/194/167
f 163/187/163 165/189/165 164/188/164
f 168/195/168 6/6/6 169/196/169
f 6/6/6 168/195/168 4/4/4
f 170/197/170 4/4/4 168/195/168
f 171/198/171 50/199/50 172/200/172
f 51/58/51 172/201/172 50/199/50
f 14/14/14 51/58/51 45/50/45
f 172/201/172 51/58/51 14/14/14
f 172/201/172 14/14/14 33/202/33
f 172/201/172 33/202/33 35/158/35
f 35/158/35 173/203/173 172/201/172
f 174/204/174 172/201/172 173/203/173
f 175/205/175 174/204/174 173/203/173
f 176/206/176 174/204/174 175/205/175
f 174/204/174 176/206/176 177/207/177
f 171/208/171 174/204/174 177/207/177
f 174/204/174 171/208/171 172/201/172
f 31/48/31 14/14/14 16/16/16
f 33/202/33 14/14/14 31/48/31
f 178/209/178 179/210/179 180/211/180
f 180/211/180 181/212/181 178/209/178
f 182/213/182 181/212/181 180/211/180
f 181/212/181 182/213/182 183/214/183
f 184/215/184 183/214/183 182/213/182
f 185/216/185 186/217/186 187/218/187
f 186/217/186 185/216/185 188/219/188
f 188/219/188 184/215/184 186/217/186
f 184/215/184 188/219/188 189/220/189
f 183/214/183 184/215/184 189/220/189
f 190/221/190 183/214/183 189/220/189
f 183/214/183 190/221/190 191/222/191
f 191/222/191 181/212/181 183/214/183
f 181/212/181 191/222/191 192/223/192
f 192/223/192 178/209/178 181/212/181
f 193/224/193 188/219/188 185/216/185
f 188/219/188 193/224/193 194/225/194
f 194/225/194 189/220/189 188/219/188
f 189/220/189 194/225/194 190/221/190
f 190/221/190 195/226/195 196/227/196
f 195/226/195 190/221/190 194/225/194
f 194/225/194 197/228/197 195/226/195
f 197/228/197 194/225/194 193/224/193
f 193/224/193 198/229/198 197/228/197
f 198/229/198 193/224/193 199/230/199
f 185/216/185 199/230/199 193/224/193
f 199/230/199 185/216/185 200/231/200
f 185/216/185 201/232/201 200/231/200
f 201/232/201 185/216/185 187/218/187
f 202/233/202 203/234/203 204/235/204
f 205/236/205 204/235/204 203/234/203
f 204/235/204 205/236/205 206/237/206
f 205/236/205 207/238/207 206/237/206
f 208/239/208 206/237/206 207/238/207
f 207/238/207 192/223/192 208/239/208
f 192/223/192 209/240/209 208/239/208
f 209/240/209 192/223/192 191/222/191
f 191/222/191 196/227/196 209/240/209
f 196/227/196 191/222/191 190/221/190
f 206/237/206 208/239/208 210/241/210
f 206/237/206 210/241/210 204/235/204
f 211/242/211 204/235/204 210/241/210
f 204/235/204 211/242/211 202/233/202
f 212/243/212 202/233/202 211/242/211
f 199/244/199 213/245/213 214/246/214
f 199/244/199 214/246/214 198/247/198
f 214/246/214 212/243/212 198/247/198
f 212/243/212 214/246/214 215/248/215
f 202/233/202 212/243/212 215/248/215
f 215/248/215 216/249/216 202/233/202
f 203/234/203 202/233/202 216/249/216
f 216/249/216 215/248/215 217/250/217
f 214/246/214 217/250/217 215/248/215
f 213/245/213 199/244/199 200/251/200
f 201/252/201 213/245/213 200/251/200
f 218/253/218 213/245/213 201/252/201
f 178/209/178 192/223/192 207/238/207
f 207/238/207 205/236/205 178/209/178
f 179/210/179 178/209/178 205/236/205
f 179/210/179 205/236/205 203/234/203
f 203/234/203 219/254/219 179/210/179
f 219/254/219 203/234/203 216/249/216
f 216/249/216 218/253/218 219/254/219
f 218/253/218 216/249/216 217/250/217
f 213/245/213 218/253/218 217/250/217
f 217/250/217 214/246/214 213/245/213
f 220/255/220 123/256/123 221/257/221
f 123/256/123 220/255/220 222/258/222
f 223/259/223 220/260/220 221/257/221
f 224/261/224 225/262/225 157/263/157
f 220/260/220 157/263/157 225/262/225
f 157/263/157 220/260/220 223/259/223
f 226/264/226 157/263/157 223/259/223
f 227/265/227 226/264/226 223/259/223
f 221/257/221 227/265/227 223/259/223
f 227/265/227 221/257/221 228/266/228
f 123/267/123 228/266/228 221/257/221
f 228/266/228 123/267/123 229/268/229
f 157/263/157 230/269/230 231/270/231
f 157/263/157 226/264/226 230/269/230
f 226/264/226 140/161/140 230/269/230
f 229/268/229 140/161/140 226/264/226
f 123/271/123 140/161/140 229/268/229
f 140/161/140 123/271/123 143/164/143
f 143/164/143 123/271/123 129/142/129
f 187/272/187 198/229/198 201/273/201
f 198/229/198 187/272/187 197/228/197
f 186/274/186 197/228/197 187/272/187
f 197/228/197 186/274/186 195/226/195
f 184/275/184 195/226/195 186/274/186
f 195/226/195 184/275/184 196/227/196
f 182/276/182 196/227/196 184/275/184
f 196/227/196 182/276/182 209/240/209
f 180/277/180 209/240/209 182/276/182
f 209/240/209 180/277/180 208/239/208
f 180/277/180 210/241/210 208/239/208
f 210/241/210 180/277/180 179/278/179
f 179/278/179 211/242/211 210/241/210
f 211/242/211 179/278/179 219/279/219
f 219/279/219 212/243/212 211/242/211
f 212/243/212 219/279/219 218/280/218
f 218/280/218 198/247/198 212/243/212
f 198/247/198 218/280/218 201/281/201
f 176/282/176 120/283/120 232/284/232
f 120/283/120 176/282/176 133/285/133
f 120/129/120 133/285/133 49/286/49
f 233/287/233 234/288/234 235/289/235
f 236/290/236 235/289/235 237/291/237
f 233/287/233 235/289/235 236/290/236
f 233/287/233 236/290/236 238/292/238
f 238/292/238 236/290/236 239/293/239
f 240/294/240 241/295/241 242/296/242
f 243/297/243 242/296/242 244/298/244
f 240/294/240 242/296/242 243/297/243
f 240/294/240 243/297/243 245/299/245
f 245/299/245 243/297/243 246/300/246
f 247/301/247 248/302/248 249/303/249
f 250/304/250 247/301/247 251/305/251
f 252/306/252 247/301/247 250/304/250
f 252/306/252 248/302/248 247/301/247
f 252/306/252 253/307/253 248/302/248
f 224/261/224 50/308/50 171/309/171
f 177/310/177 224/311/224 171/309/171
f 224/311/224 254/312/254 225/262/225
f 254/312/254 224/311/224 255/313/255
f 224/311/224 177/310/177 255/313/255
f 176/314/176 255/313/255 177/310/177
f 255/313/255 176/314/176 232/315/232
f 232/315/232 254/312/254 255/313/255
f 254/312/254 232/315/232 117/316/117
f 120/317/120 117/318/117 232/319/232
f 117/318/117 120/317/120 115/124/115
f 256/320/256 257/321/257 258/322/258
f 257/321/257 256/320/256 259/323/259
f 260/324/260 256/325/256 258/326/258
f 256/325/256 260/324/260 261/327/261
f 262/328/262 261/327/261 260/324/260
f 261/327/261 262/328/262 263/329/263
f 257/321/257 263/329/263 262/328/262
f 263/329/263 257/321/257 259/323/259
f 259/323/259 261/327/261 263/329/263
f 261/327/261 259/323/259 256/325/256
f 7/7/7 264/330/264 8/8/8
f 265/331/265 266/332/266 267/333/267
f 267/333/267 268/334/268 265/331/265
f 269/335/269 265/331/265 268/334/268
f 265/331/265 269/335/269 264/330/264
f 270/336/270 264/330/264 269/335/269
f 264/330/264 270/336/270 8/8/8
f 270/336/270 9/9/9 8/8/8
f 271/337/271 7/7/7 9/9/9
f 7/7/7 271/337/271 272/338/272
f 9/9/9 270/336/270 271/339/271
f 268/334/268 267/333/267 273/340/273
f 271/337/271 270/341/270 272/338/272
f 269/342/269 272/338/272 270/341/270
f 272/338/272 269/342/269 274/343/274
f 268/344/268 274/343/274 269/342/269
f 274/343/274 268/344/268 275/345/275
f 273/346/273 275/345/275 268/344/268
f 275/345/275 273/346/273 266/332/266
f 266/332/266 265/331/265 275/345/275
f 264/330/264 275/345/275 265/331/265
f 275/345/275 264/330/264 274/343/274
f 264/330/264 7/7/7 274/343/274
f 272/338/272 274/343/274 7/7/7
f 276/347/276 277/348/277 278/349/278
f 279/350/279 280/351/280 277/348/277
f 277/348/277 276/347/276 279/350/279
f 276/347/276 281/352/281 279/350/279
f 281/352/281 276/347/276 282/353/282
f 278/349/278 282/353/282 276/347/276
f 282/353/282 278/349/278 283/354/283
f 280/351/280 279/350/279 281/352/281
f 278/355/278 280/351/280 283/356/283
f 280/351/280 278/355/278 277/348/277
f 284/357/284 285/358/285 286/359/286
f 285/358/285 284/357/284 287/360/287
f 288/361/288 289/362/289 290/363/290
f 289/362/289 288/361/288 291/364/291
f 292/365/292 293/366/293 294/367/294
f 295/368/295 293/366/293 292/365/292
f 295/368/295 292/365/292 296/369/296
f 296/369/296 292/365/292 297/370/297
f 295/368/295 298/371/298 293/366/293
f 299/372/299 300/373/300 301/374/301
f 302/375/302 300/373/300 299/372/299
f 302/375/302 299/372/299 303/376/303
f 303/376/303 299/372/299 304/377/304
f 302/375/302 305/378/305 300/373/300
f 134/379/134 48/380/48 49/381/49
f 48/380/48 134/379/134 306/382/306
f 307/383/307 308/384/308 309/385/309
f 308/384/308 307/383/307 310/386/310
f 311/387/311 308/384/308 310/386/310
f 310/386/310 306/382/306 311/387/311
f 306/382/306 310/386/310 307/383/307
f 307/383/307 48/380/48 306/382/306
f 48/380/48 307/383/307 43/45/43
f 307/383/307 37/38/37 43/45/43
f 37/38/37 307/383/307 309/385/309
f 309/385/309 312/388/312 37/38/37
f 312/388/312 36/37/36 37/38/37
f 313/389/313 309/385/309 308/384/308
f 312/388/312 309/385/309 314/390/314
f 309/385/309 313/389/313 314/390/314
f 139/391/139 314/390/314 313/389/313
f 313/389/313 135/392/135 139/391/139
f 135/392/135 313/389/313 308/384/308
f 308/384/308 311/387/311 135/392/135
f 314/390/314 139/391/139 138/156/138
f 138/156/138 312/393/312 314/394/314
f 312/393/312 138/156/138 137/155/137
f 34/35/34 36/37/36 315/395/315
f 36/37/36 312/388/312 315/395/315
f 137/396/137 315/395/315 312/388/312
f 315/395/315 137/396/137 136/397/136
f 136/397/136 34/35/34 315/395/315
f 34/35/34 136/397/136 35/36/35
f 316/398/316 287/360/287 284/399/284
f 317/400/317 285/358/285 287/360/287
f 287/360/287 316/398/316 317/400/317
f 316/398/316 318/401/318 317/400/317
f 318/401/318 316/398/316 319/402/319
f 284/399/284 319/402/319 316/398/316
f 319/402/319 284/399/284 286/403/286
f 285/358/285 317/400/317 318/401/318
f 226/404/226 320/405/320 229/406/229
f 320/405/320 226/404/226 321/407/321
f 173/408/173 35/409/35 132/410/132
f 175/411/175 173/408/173 132/410/132
f 133/412/133 175/411/175 132/410/132
f 175/411/175 133/412/133 176/413/176
f 224/414/224 49/415/49 50/308/50
f 49/415/49 224/414/224 120/416/120
f 322/417/322 323/418/323 324/419/324
f 325/420/325 324/419/324 323/418/323
f 326/421/326 325/420/325 323/418/323
f 325/420/325 326/421/326 327/422/327
f 327/422/327 328/423/328 325/420/325
f 328/423/328 327/422/327 329/424/329
f 330/425/330 328/423/328 329/424/329
f 328/423/328 330/425/330 74/83/74
f 74/83/74 331/426/331 328/423/328
f 331/426/331 74/83/74 75/84/75
f 325/420/325 328/423/328 331/426/331
f 324/419/324 325/420/325 331/426/331
f 332/427/332 326/421/326 333/428/333
f 326/421/326 332/427/332 334/429/334
f 334/429/334 327/422/327 326/421/326
f 327/422/327 334/429/334 335/430/335
f 327/422/327 335/430/335 329/424/329
f 64/73/64 329/424/329 335/430/335
f 329/424/329 64/73/64 330/425/330
f 64/73/64 63/72/63 330/425/330
f 63/72/63 74/83/74 330/425/330
f 74/83/74 63/72/63 69/78/69
f 332/427/332 336/431/336 80/432/80
f 80/432/80 336/431/336 82/433/82
f 337/434/337 82/433/82 336/431/336
f 82/433/82 337/434/337 83/435/83
f 83/435/83 337/434/337 84/436/84
f 337/434/337 322/417/322 84/436/84
f 322/417/322 337/434/337 338/437/338
f 323/418/323 322/417/322 338/437/338
f 333/428/333 323/418/323 338/437/338
f 323/418/323 333/428/333 326/421/326
f 336/431/336 332/427/332 333/428/333
f 338/437/338 336/431/336 333/428/333
f 336/431/336 338/437/338 337/434/337
f 339/438/339 291/364/291 288/439/288
f 340/440/340 289/362/289 291/364/291
f 291/364/291 339/438/339 340/440/340
f 339/438/339 341/441/341 340/440/340
f 341/441/341 339/438/339 342/442/342
f 288/439/288 342/442/342 339/438/339
f 342/442/342 288/439/288 290/443/290
f 289/362/289 340/440/340 341/441/341
f 322/444/322 80/432/80 84/445/84
f 80/432/80 322/444/322 332/427/332
f 324/446/324 332/427/332 322/444/322
f 332/427/332 324/446/324 334/429/334
f 331/447/331 334/429/334 324/446/324
f 334/429/334 331/447/331 335/430/335
f 75/448/75 335/430/335 331/447/331
f 335/430/335 75/448/75 64/73/64
f 75/448/75 62/71/62 64/73/64
f 62/71/62 75/448/75 76/449/76
f 76/449/76 66/75/66 62/71/62
f 66/75/66 76/449/76 77/450/77
f 77/450/77 68/77/68 66/75/66
f 68/77/68 77/450/77 86/451/86
f 86/451/86 73/82/73 68/77/68
f 73/82/73 86/451/86 85/452/85
f 85/452/85 80/89/80 73/82/73
f 80/89/80 85/452/85 84/453/84
f 151/172/151 149/170/149 343/454/343
f 145/455/145 343/454/343 149/170/149
f 343/454/343 145/455/145 146/456/146
f 118/457/118 123/458/123 222/258/222
f 123/458/123 118/457/118 122/132/122
f 228/459/228 344/460/344 227/461/227
f 344/460/344 228/459/228 345/462/345
f 228/459/228 320/405/320 345/462/345
f 320/405/320 344/460/344 345/462/345
f 344/460/344 320/405/320 321/463/321
f 321/463/321 227/461/227 344/460/344
f 227/461/227 321/463/321 226/464/226
f 320/405/320 228/459/228 229/406/229
f 224/414/224 119/465/119 120/416/120
f 119/465/119 224/414/224 157/466/157
f 346/467/346 347/468/347 348/469/348
f 347/468/347 346/467/346 349/470/349
f 349/470/349 12/12/12 347/468/347
f 12/12/12 349/470/349 10/10/10
f 13/13/13 350/471/350 11/11/11
f 350/471/350 13/13/13 351/472/351
f 351/472/351 348/473/348 350/471/350
f 348/473/348 351/472/351 346/474/346
f 151/475/151 343/476/343 130/477/130
f 126/138/126 151/475/151 130/477/130
f 151/475/151 126/138/126 152/478/152
f 126/138/126 156/479/156 152/478/152
f 156/479/156 126/138/126 127/139/127
f 146/480/146 130/143/130 343/476/343
f 146/480/146 128/141/128 130/143/130
f 144/165/144 128/141/128 146/480/146
f 128/141/128 144/165/144 129/142/129
f 106/115/106 111/481/111 112/121/112
f 111/481/111 106/115/106 101/482/101
f 101/482/101 114/483/114 111/481/111
f 114/483/114 101/482/101 103/484/103
f 103/485/103 109/486/109 114/487/114
f 109/486/109 103/485/103 102/488/102
f 102/488/102 110/489/110 109/486/109
f 110/489/110 102/488/102 107/490/107
f 107/490/107 108/491/108 110/489/110
f 108/491/108 107/490/107 104/492/104
f 104/492/104 113/122/113 108/491/108
f 113/122/113 104/492/104 105/114/105
f 105/114/105 112/121/112 113/122/113
f 112/121/112 105/114/105 106/115/106
f 306/493/306 134/494/134 311/387/311
f 167/495/167 140/496/140 142/163/142
f 167/495/167 230/269/230 140/496/140
f 230/269/230 167/495/167 163/497/163
f 158/498/158 230/269/230 163/497/163
f 230/269/230 158/498/158 231/270/231
f 231/270/231 158/498/158 157/263/157
f 311/387/311 134/499/134 135/392/135
f 300/500/300 296/501/296 297/502/297
f 296/501/296 300/500/300 305/503/305
f 305/503/305 295/368/295 296/501/296
f 295/368/295 305/503/305 302/375/302
f 302/375/302 298/371/298 295/368/295
f 298/371/298 302/375/302 303/376/303
f 303/376/303 293/504/293 298/371/298
f 293/504/293 303/376/303 304/505/304
f 304/505/304 294/506/294 293/504/293
f 294/506/294 304/505/304 299/507/299
f 299/507/299 292/508/292 294/506/294
f 292/508/292 299/507/299 301/509/301
f 301/509/301 297/510/297 292/508/292
f 297/510/297 301/509/301 300/511/300
f 25/512/25 237/513/237 235/514/235
f 237/513/237 25/512/25 24/515/24
f 24/515/24 236/516/236 237/513/237
f 236/516/236 24/515/24 29/517/29
f 29/517/29 239/518/239 236/516/236
f 239/518/239 29/517/29 26/519/26
f 26/519/26 238/292/238 239/518/239
f 238/292/238 26/519/26 27/28/27
f 27/28/27 233/287/233 238/292/238
f 233/287/233 27/28/27 28/29/28
f 28/29/28 234/520/234 233/287/233
f 234/520/234 28/29/28 23/521/23
f 23/521/23 235/522/235 234/520/234
f 235/522/235 23/521/23 25/523/25
f 241/524/241 248/525/248 253/526/253
f 248/525/248 241/524/241 240/527/240
f 240/527/240 249/528/249 248/525/248
f 249/528/249 240/527/240 245/529/245
f 245/529/245 247/530/247 249/528/249
f 247/530/247 245/529/245 246/531/246
f 246/531/246 251/305/251 247/530/247
f 251/305/251 246/531/246 243/297/243
f 243/297/243 250/304/250 251/305/251
f 250/304/250 243/297/243 244/298/244
f 244/298/244 252/532/252 250/304/250
f 252/532/252 244/298/244 242/533/242
f 242/533/242 253/534/253 252/532/252
f 253/534/253 242/533/242 241/535/241
f 170/536/170 52/537/52 54/538/54
f 52/537/52 170/536/170 168/539/168
f 168/539/168 56/63/56 52/537/52
f 56/63/56 168/539/168 169/540/169
f 169/540/169 55/62/55 56/63/56
f 55/62/55 169/540/169 6/541/6
f 6/541/6 57/542/57 55/62/55
f 57/542/57 6/541/6 5/543/5
f 5/543/5 53/544/53 57/542/57
f 53/544/53 5/543/5 4/545/4
f 4/545/4 54/546/54 53/544/53
f 54/546/54 4/545/4 170/547/170
f 225/262/225 352/548/352 220/549/220
f 352/548/352 225/262/225 254/550/254
f 117/551/117 352/548/352 254/550/254
f 352/548/352 117/551/117 116/552/116
f 118/553/118 352/548/352 116/552/116
f 220/260/220 352/548/352 118/553/118
f 220/260/220 118/553/118 222/554/222
f 93/555/93 100/556/100 97/557/97
f 100/556/100 93/555/93 90/558/90
f 90/558/90 95/559/95 100/556/100
f 95/559/95 90/558/90 91/560/91
f 91/560/91 96/561/96 95/559/95
f 96/561/96 91/560/91 92/562/92
f 92/562/92 94/103/94 96/561/96
f 94/103/94 92/562/92 87/96/87
f 87/96/87 99/108/99 94/103/94
f 99/108/99 87/96/87 89/98/89
f 89/98/89 98/563/98 99/108/99
f 98/563/98 89/98/89 88/564/88
f 88/564/88 97/565/97 98/563/98
f 97/565/97 88/564/88 93/566/93
