# Blender v2.82 (sub 7) OBJ File: ''
# www.blender.org
mtllib Urn-Fixed.mtl
o bin_low_meshId0_name
v 0.255770 0.000385 -0.617480
v 0.472600 0.000385 -0.472600
v 0.000000 0.001305 -0.000000
v 0.000000 0.000385 -0.668350
v 0.000000 0.074685 -0.592580
v -0.226770 0.074685 -0.547470
v 0.000000 0.074685 -0.000000
v 0.226770 0.074685 -0.547470
v -0.472600 0.000385 -0.472600
v -0.255770 0.000385 -0.617480
v 0.668350 0.000385 -0.000000
v 0.617480 0.000385 0.255770
v 0.472600 0.000384 0.472600
v -0.472600 0.000384 0.472600
v -0.617480 0.000385 0.255770
v -0.668350 0.000385 -0.000000
v 0.255770 0.000384 0.617480
v 0.000000 0.000384 0.668350
v -0.617480 0.000385 -0.255770
v 0.617480 0.000385 -0.255770
v -0.255770 0.000384 0.617480
v 0.547470 0.074685 -0.226770
v 0.419020 0.074685 -0.419020
v -0.547470 0.074685 -0.226770
v -0.592580 0.074685 -0.000000
v -0.547470 0.074685 0.226770
v 0.226770 0.074685 0.547470
v 0.419020 0.074685 0.419020
v 0.547470 0.074685 0.226770
v -0.419020 0.074685 -0.419020
v -0.226770 0.074685 0.547470
v 0.000000 0.074685 0.592580
v -0.419020 0.074685 0.419020
v 0.592580 0.074685 -0.000000
v 0.000000 0.184635 -0.713380
v 0.273000 0.184635 -0.659080
v 0.303650 0.605525 -0.733080
v 0.000000 0.605525 -0.793480
v 0.000000 1.413765 -0.827210
v 0.316560 1.413765 -0.764240
v 0.000000 2.232985 -0.781930
v 0.299230 2.232985 -0.722410
v 0.297310 2.324005 -0.717770
v 0.000000 2.324005 -0.776900
v 0.000000 2.324005 -0.703710
v 0.269300 2.324005 -0.650140
v 0.265290 2.313005 -0.640460
v 0.000000 2.313005 -0.693230
v 0.000000 1.413765 -0.737530
v 0.282240 1.413765 -0.681390
v 0.000000 0.605525 -0.707460
v 0.270740 0.605525 -0.653610
v 0.504440 0.184635 -0.504440
v 0.561080 0.605525 -0.561080
v 0.584920 1.413765 -0.584920
v 0.552910 2.232985 -0.552910
v 0.549350 2.324005 -0.549350
v 0.497600 2.324005 -0.497600
v 0.490190 2.313005 -0.490190
v 0.521520 1.413765 -0.521520
v 0.500250 0.605525 -0.500250
v 0.659080 0.184635 -0.273000
v 0.733080 0.605525 -0.303650
v 0.764240 1.413765 -0.316560
v 0.722410 2.232985 -0.299230
v 0.717770 2.324005 -0.297310
v 0.650140 2.324005 -0.269300
v 0.640460 2.313004 -0.265290
v 0.681390 1.413765 -0.282240
v 0.653610 0.605525 -0.270740
v 0.713380 0.184635 -0.000000
v 0.793480 0.605525 -0.000000
v 0.827210 1.413765 0.000000
v 0.781930 2.232985 0.000000
v 0.776900 2.324005 0.000000
v 0.703710 2.324005 0.000000
v 0.693230 2.313004 0.000000
v 0.737530 1.413765 0.000000
v 0.707460 0.605525 -0.000000
v 0.659080 0.184635 0.273000
v 0.733080 0.605525 0.303650
v 0.764240 1.413765 0.316560
v 0.722410 2.232985 0.299230
v 0.717770 2.324005 0.297310
v 0.650140 2.324005 0.269300
v 0.640460 2.313004 0.265290
v 0.681390 1.413765 0.282240
v 0.653610 0.605525 0.270730
v 0.504440 0.184635 0.504430
v 0.561080 0.605524 0.561080
v 0.584920 1.413764 0.584920
v 0.552910 2.232985 0.552910
v 0.549350 2.324005 0.549350
v 0.497600 2.324005 0.497600
v 0.490190 2.313004 0.490190
v 0.521520 1.413764 0.521520
v 0.500250 0.605525 0.500250
v 0.273000 0.184635 0.659080
v 0.303650 0.605524 0.733080
v 0.316560 1.413764 0.764240
v 0.299230 2.232985 0.722410
v 0.297310 2.324005 0.717770
v 0.269300 2.324005 0.650140
v 0.265290 2.313004 0.640460
v 0.282240 1.413764 0.681390
v 0.270740 0.605524 0.653610
v 0.000000 0.184635 0.713380
v 0.000000 0.605524 0.793480
v 0.000000 1.413764 0.827210
v 0.000000 2.232985 0.781930
v 0.000000 2.324005 0.776900
v 0.000000 2.324005 0.703710
v 0.000000 2.313004 0.693230
v 0.000000 1.413764 0.737530
v 0.000000 0.605524 0.707460
v -0.273000 0.184635 0.659080
v -0.303650 0.605524 0.733080
v -0.316560 1.413764 0.764240
v -0.299230 2.232985 0.722410
v -0.297310 2.324005 0.717770
v -0.269300 2.324005 0.650140
v -0.265290 2.313004 0.640460
v -0.282240 1.413764 0.681390
v -0.270740 0.605524 0.653610
v -0.504440 0.184635 0.504430
v -0.561080 0.605524 0.561080
v -0.584920 1.413764 0.584920
v -0.552910 2.232985 0.552910
v -0.549350 2.324005 0.549350
v -0.497600 2.324005 0.497590
v -0.490190 2.313004 0.490190
v -0.521520 1.413764 0.521520
v -0.500250 0.605525 0.500250
v -0.659080 0.184635 0.273000
v -0.733080 0.605525 0.303650
v -0.764240 1.413765 0.316560
v -0.722410 2.232985 0.299230
v -0.717770 2.324005 0.297310
v -0.650140 2.324005 0.269300
v -0.640460 2.313004 0.265290
v -0.681390 1.413765 0.282240
v -0.653610 0.605525 0.270730
v -0.713380 0.184635 -0.000000
v -0.793480 0.605525 -0.000000
v -0.827210 1.413765 0.000000
v -0.781930 2.232985 0.000000
v -0.776900 2.324005 0.000000
v -0.703710 2.324005 0.000000
v -0.693230 2.313004 0.000000
v -0.737530 1.413765 0.000000
v -0.707460 0.605525 -0.000000
v -0.659080 0.184635 -0.273000
v -0.733080 0.605525 -0.303650
v -0.764240 1.413765 -0.316560
v -0.722410 2.232985 -0.299230
v -0.717770 2.324005 -0.297310
v -0.650140 2.324005 -0.269300
v -0.640460 2.313004 -0.265290
v -0.681390 1.413765 -0.282240
v -0.653610 0.605525 -0.270740
v -0.504440 0.184635 -0.504440
v -0.561080 0.605525 -0.561080
v -0.584920 1.413765 -0.584920
v -0.552910 2.232985 -0.552910
v -0.549350 2.324005 -0.549350
v -0.497600 2.324005 -0.497600
v -0.490190 2.313005 -0.490190
v -0.521520 1.413765 -0.521520
v -0.500250 0.605525 -0.500250
v -0.273000 0.184635 -0.659080
v -0.303650 0.605525 -0.733080
v -0.316560 1.413765 -0.764240
v -0.299230 2.232985 -0.722410
v -0.297310 2.324005 -0.717770
v -0.269300 2.324005 -0.650140
v -0.265290 2.313005 -0.640460
v -0.282240 1.413765 -0.681390
v -0.270740 0.605525 -0.653610
v 0.000000 2.251365 -0.792530
v 0.000000 2.306895 -0.789380
v 0.302080 2.306895 -0.729300
v 0.303290 2.251365 -0.732200
v 0.558180 2.306895 -0.558180
v 0.560400 2.251365 -0.560400
v 0.729300 2.306895 -0.302080
v 0.732200 2.251365 -0.303290
v 0.789380 2.306895 0.000000
v 0.792530 2.251365 0.000000
v 0.729300 2.306895 0.302080
v 0.732200 2.251365 0.303290
v 0.558180 2.306894 0.558180
v 0.560400 2.251364 0.560400
v 0.302080 2.306894 0.729300
v 0.303290 2.251364 0.732200
v 0.000000 2.306894 0.789390
v 0.000000 2.251364 0.792530
v -0.302080 2.306894 0.729300
v -0.303290 2.251364 0.732200
v -0.558180 2.306894 0.558180
v -0.560400 2.251364 0.560400
v -0.729300 2.306895 0.302080
v -0.732200 2.251365 0.303290
v -0.789380 2.306895 0.000000
v -0.792530 2.251365 0.000000
v -0.729300 2.306895 -0.302080
v -0.732200 2.251365 -0.303290
v -0.558180 2.306905 -0.558180
v -0.560400 2.251365 -0.560400
v -0.302080 2.306895 -0.729300
v -0.303290 2.251365 -0.732200
v 0.000000 0.230905 -0.702550
v 0.268850 0.230905 -0.649070
v 0.496780 0.230905 -0.496780
v 0.649070 0.230905 -0.268850
v 0.702550 0.230905 -0.000000
v 0.649070 0.230905 0.268850
v 0.496780 0.230905 0.496780
v 0.268850 0.230904 0.649070
v 0.000000 0.230904 0.702550
v -0.268850 0.230904 0.649070
v -0.496780 0.230905 0.496780
v -0.649070 0.230905 0.268850
v -0.702550 0.230905 -0.000000
v -0.649070 0.230905 -0.268850
v -0.496780 0.230905 -0.496780
v -0.268850 0.230905 -0.649070
v 0.000000 0.205655 -0.712100
v 0.272510 0.205655 -0.657890
v 0.503530 0.205655 -0.503530
v 0.657890 0.205655 -0.272510
v 0.712100 0.205655 -0.000000
v 0.657890 0.205655 0.272510
v 0.503530 0.205655 0.503530
v 0.272510 0.205654 0.657890
v 0.000000 0.205654 0.712100
v -0.272510 0.205654 0.657890
v -0.503530 0.205655 0.503530
v -0.657890 0.205655 0.272510
v -0.712100 0.205655 -0.000000
v -0.657890 0.205655 -0.272510
v -0.503530 0.205655 -0.503530
v -0.272510 0.205655 -0.657890
vt 0.870207 0.250153
vt 0.837480 0.274732
vt 0.792059 0.180176
vt 0.891037 0.214920
vt 0.487434 0.094473
vt 0.518628 0.078904
vt 0.542167 0.165099
vt 0.464573 0.120795
vt 0.886614 0.134756
vt 0.896799 0.174398
vt 0.757316 0.279154
vt 0.722083 0.258324
vt 0.697504 0.225597
vt 0.746638 0.085621
vt 0.786281 0.075437
vt 0.826803 0.081198
vt 0.687320 0.185955
vt 0.693081 0.145433
vt 0.862035 0.102028
vt 0.797837 0.284916
vt 0.713911 0.110200
vt 0.455972 0.188639
vt 0.453525 0.153862
vt 0.586472 0.087505
vt 0.612793 0.110366
vt 0.628363 0.141560
vt 0.565707 0.251295
vt 0.530930 0.253742
vt 0.497863 0.242694
vt 0.553405 0.076457
vt 0.619762 0.209404
vt 0.596901 0.235726
vt 0.630810 0.176337
vt 0.471541 0.219833
vt 0.199069 0.140990
vt 0.166639 0.124143
vt 0.193108 0.077663
vt 0.224056 0.097259
vt 0.141309 0.355398
vt 0.193836 0.361640
vt 0.181216 0.500155
vt 0.126129 0.496114
vt 0.175039 0.641217
vt 0.122108 0.638532
vt 0.532475 0.028739
vt 0.585236 0.035769
vt 0.581096 0.047901
vt 0.533293 0.041532
vt 0.865486 0.982348
vt 0.826293 0.984261
vt 0.821226 0.854876
vt 0.862282 0.851829
vt 0.810534 0.739103
vt 0.849541 0.733959
vt 0.799023 0.661909
vt 0.832407 0.656556
vt 0.189515 0.874876
vt 0.157545 0.892759
vt 0.133647 0.844907
vt 0.166945 0.829846
vt 0.920077 0.355166
vt 0.972484 0.347990
vt 0.990166 0.488413
vt 0.935160 0.493435
vt 0.996723 0.630737
vt 0.943848 0.634364
vt 0.481040 0.042432
vt 0.486692 0.053939
vt 0.254794 0.982133
vt 0.215617 0.979623
vt 0.220675 0.849108
vt 0.261661 0.852804
vt 0.235412 0.731386
vt 0.274323 0.737179
vt 0.253910 0.654267
vt 0.287214 0.660180
vt 0.113594 0.795574
vt 0.147953 0.783074
vt 0.867999 0.360135
vt 0.880720 0.498367
vt 0.890111 0.639046
vt 0.438760 0.074765
vt 0.448384 0.083234
vt 0.294673 0.985613
vt 0.302236 0.856571
vt 0.312931 0.741170
vt 0.322043 0.663830
vt 0.097268 0.744953
vt 0.132451 0.734996
vt 0.816159 0.364080
vt 0.826699 0.502649
vt 0.835639 0.643415
vt 0.412071 0.120817
vt 0.424203 0.124958
vt 0.335228 0.988900
vt 0.342485 0.859831
vt 0.351251 0.744198
vt 0.357865 0.666569
vt 0.084661 0.693296
vt 0.120472 0.685903
vt 0.764390 0.367356
vt 0.772913 0.506208
vt 0.780722 0.647116
vt 0.405036 0.173577
vt 0.417830 0.172759
vt 0.376248 0.991643
vt 0.382520 0.862465
vt 0.389409 0.746576
vt 0.394255 0.668755
vt 0.075799 0.640871
vt 0.112047 0.636059
vt 0.712608 0.370024
vt 0.719235 0.509060
vt 0.725570 0.650089
vt 0.418730 0.225012
vt 0.430237 0.219361
vt 0.417549 0.993761
vt 0.422430 0.864476
vt 0.427501 0.748397
vt 0.430943 0.670459
vt 0.070698 0.587949
vt 0.107196 0.585725
vt 0.660795 0.372079
vt 0.665597 0.511226
vt 0.670297 0.652342
vt 0.451066 0.267291
vt 0.459534 0.257666
vt 0.459012 0.995248
vt 0.462274 0.865883
vt 0.465574 0.749684
vt 0.467780 0.671676
vt 0.069356 0.534797
vt 0.105920 0.535156
vt 0.608954 0.373503
vt 0.611969 0.512715
vt 0.614961 0.653888
vt 0.497120 0.293976
vt 0.501261 0.281844
vt 0.500564 0.996116
vt 0.502083 0.866702
vt 0.503644 0.750434
vt 0.504692 0.672389
vt 0.071771 0.481666
vt 0.108214 0.484613
vt 0.557096 0.374287
vt 0.558338 0.513530
vt 0.559597 0.654731
vt 0.549880 0.301008
vt 0.549063 0.288215
vt 0.542164 0.996369
vt 0.541873 0.866939
vt 0.541712 0.750645
vt 0.541641 0.672585
vt 0.077979 0.428753
vt 0.114129 0.434373
vt 0.505232 0.374429
vt 0.504700 0.513672
vt 0.504227 0.654876
vt 0.601317 0.287317
vt 0.595665 0.275810
vt 0.583786 0.996007
vt 0.581648 0.866599
vt 0.579766 0.750318
vt 0.578613 0.672259
vt 0.088567 0.376772
vt 0.124396 0.383906
vt 0.453374 0.373930
vt 0.451053 0.513141
vt 0.448872 0.654318
vt 0.643598 0.254984
vt 0.633973 0.246515
vt 0.625274 0.994991
vt 0.621302 0.865618
vt 0.617933 0.749391
vt 0.615676 0.671383
vt 0.099085 0.325088
vt 0.134849 0.332538
vt 0.401533 0.372800
vt 0.397385 0.511932
vt 0.393565 0.653051
vt 0.670285 0.208930
vt 0.658153 0.204790
vt 0.665861 0.993324
vt 0.660770 0.863994
vt 0.656371 0.747830
vt 0.653344 0.669881
vt 0.109656 0.273091
vt 0.145103 0.282149
vt 0.349713 0.371055
vt 0.343665 0.510037
vt 0.338368 0.651062
vt 0.677317 0.156170
vt 0.664524 0.156988
vt 0.705718 0.991608
vt 0.700221 0.862342
vt 0.694959 0.746302
vt 0.691475 0.668414
vt 0.124909 0.222018
vt 0.159520 0.233797
vt 0.297895 0.368702
vt 0.289824 0.507437
vt 0.283394 0.648340
vt 0.663623 0.104735
vt 0.652116 0.110387
vt 0.745992 0.989667
vt 0.740130 0.860586
vt 0.733429 0.744891
vt 0.728518 0.667142
vt 0.143932 0.172318
vt 0.177566 0.186650
vt 0.245994 0.365680
vt 0.235735 0.504117
vt 0.228851 0.644941
vt 0.631289 0.062455
vt 0.622821 0.072080
vt 0.786434 0.987079
vt 0.780540 0.857983
vt 0.771847 0.742474
vt 0.764210 0.665002
vt 0.144546 0.040434
vt 0.146229 0.050291
vt 0.091796 0.060236
vt 0.089890 0.050369
vt 0.972236 0.040194
vt 0.970696 0.050125
vt 0.915927 0.042229
vt 0.917248 0.032318
vt 0.861127 0.035534
vt 0.862249 0.025583
vt 0.806212 0.029926
vt 0.807140 0.019954
vt 0.751198 0.025351
vt 0.751939 0.015363
vt 0.696109 0.021781
vt 0.696665 0.011781
vt 0.640964 0.019209
vt 0.641334 0.009201
vt 0.585784 0.017648
vt 0.585962 0.007635
vt 0.530591 0.017153
vt 0.530564 0.007138
vt 0.475408 0.017824
vt 0.475158 0.007812
vt 0.420265 0.019792
vt 0.419776 0.009790
vt 0.365193 0.023135
vt 0.364456 0.013148
vt 0.310225 0.027886
vt 0.309239 0.017920
vt 0.255396 0.034037
vt 0.254164 0.024098
vt 0.200728 0.041540
vt 0.199263 0.031634
vt 0.146899 0.054017
vt 0.092972 0.063889
vt 0.969655 0.053819
vt 0.915391 0.045977
vt 0.860699 0.039302
vt 0.805860 0.033703
vt 0.750917 0.029134
vt 0.695898 0.025568
vt 0.640824 0.022999
vt 0.585718 0.021441
vt 0.530603 0.020947
vt 0.475505 0.021616
vt 0.420451 0.023581
vt 0.365472 0.026919
vt 0.310599 0.031662
vt 0.255862 0.037802
vt 0.201285 0.045292
vt 0.089640 0.046533
vt 0.143945 0.036693
vt 0.198711 0.027879
vt 0.253698 0.020332
vt 0.308866 0.014144
vt 0.364177 0.009363
vt 0.419590 0.005999
vt 0.475062 0.004017
vt 0.530551 0.003342
vt 0.586028 0.003838
vt 0.641474 0.005406
vt 0.696876 0.007990
vt 0.752220 0.011577
vt 0.807493 0.016173
vt 0.862673 0.021811
vt 0.917714 0.028557
vt 0.972346 0.036352
vt 0.202047 0.295916
vt 0.154515 0.289278
vt 0.958104 0.282116
vt 0.910697 0.289599
vt 0.861452 0.294330
vt 0.811187 0.298063
vt 0.760462 0.301207
vt 0.709549 0.303799
vt 0.658561 0.305808
vt 0.607540 0.307205
vt 0.556504 0.307976
vt 0.505462 0.308116
vt 0.454425 0.307629
vt 0.403411 0.306530
vt 0.352462 0.304846
vt 0.301690 0.302607
vt 0.251367 0.299770
vt 0.163024 0.122424
vt 0.158401 0.120153
vt 0.184537 0.073740
vt 0.189357 0.075846
vt 0.153700 0.894371
vt 0.148771 0.896211
vt 0.125202 0.848444
vt 0.129943 0.846428
vt 0.104943 0.798668
vt 0.109799 0.796923
vt 0.088418 0.747451
vt 0.093386 0.746049
vt 0.075654 0.695159
vt 0.080710 0.694115
vt 0.066682 0.642089
vt 0.071799 0.641408
vt 0.061517 0.588519
vt 0.066670 0.588202
vt 0.060159 0.534728
vt 0.065321 0.534771
vt 0.062597 0.481000
vt 0.067746 0.481388
vt 0.068811 0.427635
vt 0.073929 0.428366
vt 0.079458 0.375199
vt 0.084554 0.376174
vt 0.090092 0.322942
vt 0.095162 0.324046
vt 0.100792 0.270494
vt 0.105782 0.271839
vt 0.116232 0.218997
vt 0.121109 0.220684
vt 0.135469 0.168754
vt 0.140220 0.170762
vt 0.580242 0.050404
vt 0.533462 0.044172
vt 0.487857 0.056313
vt 0.450370 0.084981
vt 0.426706 0.125812
vt 0.420469 0.172591
vt 0.432610 0.218195
vt 0.461281 0.255680
vt 0.502115 0.279341
vt 0.548894 0.285575
vt 0.594499 0.273436
vt 0.631987 0.244768
vt 0.655650 0.203936
vt 0.661885 0.157157
vt 0.649742 0.111553
vt 0.621074 0.074065
vn -0.0008 -1.0000 0.0012
vn -0.0003 -1.0000 0.0014
vn 0.0000 1.0000 0.0000
vn 0.0008 -1.0000 0.0012
vn 0.0003 -1.0000 0.0014
vn -0.0014 -1.0000 -0.0003
vn -0.0012 -1.0000 -0.0008
vn 0.0012 -1.0000 -0.0008
vn 0.0014 -1.0000 -0.0003
vn -0.0008 -1.0000 -0.0012
vn -0.0003 -1.0000 -0.0014
vn 0.0014 -1.0000 0.0003
vn 0.0012 -1.0000 0.0008
vn -0.0012 -1.0000 0.0008
vn -0.0014 -1.0000 0.0003
vn 0.0003 -1.0000 -0.0014
vn 0.0008 -1.0000 -0.0012
vn -0.0000 -0.7508 -0.6605
vn -0.0000 -0.0877 -0.9961
vn 0.3812 -0.0875 -0.9203
vn 0.2527 -0.7508 -0.6102
vn 0.3790 -0.1378 -0.9151
vn -0.0000 -0.1378 -0.9905
vn -0.0000 0.0067 -1.0000
vn 0.3827 0.0067 -0.9239
vn 0.0000 -0.2402 -0.9707
vn 0.3715 -0.2402 -0.8968
vn 0.1898 0.8684 -0.4581
vn -0.0000 0.8684 -0.4958
vn 0.0000 0.9364 0.3511
vn -0.1342 0.9365 0.3241
vn -0.3562 0.3656 0.8599
vn -0.0000 0.3656 0.9308
vn -0.0000 -0.0060 1.0000
vn -0.3827 -0.0060 0.9239
vn -0.0000 0.1235 0.9923
vn -0.3798 0.1235 0.9168
vn 0.0000 0.7415 0.6709
vn -0.2568 0.7415 0.6199
vn 0.7044 -0.0875 -0.7044
vn 0.4670 -0.7508 -0.4671
vn 0.7004 -0.1378 -0.7004
vn 0.7071 0.0067 -0.7071
vn 0.6864 -0.2401 -0.6864
vn 0.3505 0.8685 -0.3505
vn -0.2480 0.9365 0.2480
vn -0.6582 0.3656 0.6582
vn -0.7071 -0.0060 0.7071
vn -0.7017 0.1235 0.7017
vn -0.4744 0.7415 0.4744
vn 0.9203 -0.0875 -0.3812
vn 0.6102 -0.7508 -0.2527
vn 0.9151 -0.1378 -0.3790
vn 0.9239 0.0067 -0.3827
vn 0.8968 -0.2402 -0.3715
vn 0.4581 0.8684 -0.1898
vn -0.3241 0.9365 0.1342
vn -0.8599 0.3656 0.3562
vn -0.9239 -0.0060 0.3827
vn -0.9168 0.1235 0.3798
vn -0.6199 0.7415 0.2568
vn 0.9961 -0.0877 -0.0000
vn 0.6605 -0.7508 -0.0000
vn 0.9905 -0.1378 -0.0000
vn 1.0000 0.0067 -0.0000
vn 0.9707 -0.2402 0.0000
vn 0.4958 0.8684 -0.0000
vn -0.3507 0.9365 -0.0000
vn -0.9308 0.3656 -0.0000
vn -1.0000 -0.0060 -0.0000
vn -0.9923 0.1235 -0.0000
vn -0.6709 0.7415 0.0000
vn 0.9203 -0.0875 0.3812
vn 0.6102 -0.7508 0.2527
vn 0.9151 -0.1378 0.3790
vn 0.9239 0.0067 0.3827
vn 0.8968 -0.2402 0.3715
vn 0.4581 0.8684 0.1898
vn -0.3241 0.9365 -0.1342
vn -0.8599 0.3656 -0.3562
vn -0.9239 -0.0060 -0.3827
vn -0.9168 0.1235 -0.3797
vn -0.6199 0.7415 -0.2568
vn 0.7044 -0.0877 0.7044
vn 0.4670 -0.7509 0.4670
vn 0.7004 -0.1378 0.7004
vn 0.7071 0.0067 0.7071
vn 0.6864 -0.2401 0.6864
vn 0.3505 0.8685 0.3505
vn -0.2480 0.9365 -0.2480
vn -0.6582 0.3656 -0.6582
vn -0.7071 -0.0060 -0.7071
vn -0.7017 0.1235 -0.7017
vn -0.4744 0.7415 -0.4744
vn 0.3812 -0.0875 0.9203
vn 0.2527 -0.7508 0.6102
vn 0.3790 -0.1378 0.9151
vn 0.3827 0.0067 0.9239
vn 0.3715 -0.2402 0.8968
vn 0.1898 0.8684 0.4581
vn -0.1342 0.9365 -0.3241
vn -0.3562 0.3656 -0.8599
vn -0.3827 -0.0060 -0.9239
vn -0.3798 0.1235 -0.9168
vn -0.2568 0.7415 -0.6199
vn 0.0000 -0.0877 0.9961
vn 0.0000 -0.7508 0.6605
vn 0.0000 -0.1378 0.9905
vn 0.0000 0.0067 1.0000
vn -0.0000 -0.2402 0.9707
vn 0.0000 0.8685 0.4957
vn -0.0000 0.9364 -0.3511
vn -0.0000 0.3651 -0.9310
vn 0.0000 -0.0060 -1.0000
vn 0.0000 0.1235 -0.9923
vn -0.0000 0.7415 -0.6709
vn -0.3812 -0.0875 0.9203
vn -0.2527 -0.7508 0.6102
vn -0.3790 -0.1378 0.9151
vn -0.3827 0.0067 0.9239
vn -0.3715 -0.2402 0.8968
vn -0.1898 0.8684 0.4581
vn 0.1342 0.9365 -0.3241
vn 0.3562 0.3656 -0.8599
vn 0.3827 -0.0060 -0.9239
vn 0.3798 0.1235 -0.9168
vn 0.2568 0.7415 -0.6199
vn -0.7044 -0.0877 0.7044
vn -0.4670 -0.7508 0.4670
vn -0.7004 -0.1378 0.7004
vn -0.7071 0.0067 0.7071
vn -0.6864 -0.2401 0.6864
vn -0.3505 0.8685 0.3505
vn 0.2481 0.9364 -0.2481
vn 0.6582 0.3654 -0.6582
vn 0.7071 -0.0060 -0.7071
vn 0.7017 0.1235 -0.7017
vn 0.4744 0.7415 -0.4744
vn -0.9203 -0.0875 0.3812
vn -0.6102 -0.7508 0.2527
vn -0.9151 -0.1378 0.3790
vn -0.9239 0.0067 0.3827
vn -0.8968 -0.2402 0.3715
vn -0.4581 0.8684 0.1898
vn 0.3241 0.9365 -0.1342
vn 0.8599 0.3656 -0.3562
vn 0.9239 -0.0060 -0.3827
vn 0.9168 0.1235 -0.3798
vn 0.6199 0.7415 -0.2568
vn -0.9961 -0.0877 0.0000
vn -0.6605 -0.7508 0.0000
vn -0.9905 -0.1378 0.0000
vn -1.0000 0.0067 0.0000
vn -0.9707 -0.2402 -0.0000
vn -0.4958 0.8684 0.0000
vn 0.3507 0.9365 0.0000
vn 0.9308 0.3656 0.0000
vn 1.0000 -0.0060 0.0000
vn 0.9923 0.1235 -0.0000
vn 0.6709 0.7415 -0.0000
vn -0.9203 -0.0875 -0.3812
vn -0.6102 -0.7508 -0.2527
vn -0.9151 -0.1378 -0.3790
vn -0.9239 0.0067 -0.3827
vn -0.8968 -0.2402 -0.3715
vn -0.4581 0.8684 -0.1898
vn 0.3241 0.9365 0.1342
vn 0.8599 0.3656 0.3562
vn 0.9239 -0.0060 0.3827
vn 0.9168 0.1235 0.3798
vn 0.6199 0.7415 0.2568
vn -0.7044 -0.0875 -0.7044
vn -0.4671 -0.7508 -0.4670
vn -0.7004 -0.1378 -0.7004
vn -0.7071 0.0067 -0.7071
vn -0.6864 -0.2401 -0.6864
vn -0.3504 0.8686 -0.3504
vn 0.2480 0.9365 0.2480
vn 0.6582 0.3656 0.6582
vn 0.7071 -0.0060 0.7071
vn 0.7017 0.1235 0.7017
vn 0.4744 0.7415 0.4744
vn -0.3812 -0.0875 -0.9203
vn -0.2527 -0.7508 -0.6102
vn -0.3790 -0.1378 -0.9151
vn -0.3827 0.0067 -0.9239
vn -0.3715 -0.2402 -0.8968
vn -0.1898 0.8684 -0.4581
vn 0.1342 0.9365 0.3241
vn 0.3562 0.3656 0.8599
vn 0.3827 -0.0060 0.9239
vn 0.3798 0.1235 0.9168
vn 0.2568 0.7415 0.6199
vn -0.0000 -0.2235 -0.9747
vn -0.0000 0.3261 -0.9453
vn 0.3618 0.3260 -0.8734
vn 0.3730 -0.2236 -0.9005
vn 0.6685 0.3261 -0.6685
vn 0.6892 -0.2235 -0.6892
vn 0.8734 0.3260 -0.3618
vn 0.9005 -0.2235 -0.3730
vn 0.9453 0.3261 -0.0000
vn 0.9747 -0.2235 -0.0000
vn 0.8734 0.3260 0.3618
vn 0.9006 -0.2232 0.3730
vn 0.6685 0.3261 0.6685
vn 0.6892 -0.2235 0.6892
vn 0.3618 0.3260 0.8734
vn 0.3730 -0.2235 0.9005
vn 0.0000 0.3261 0.9453
vn -0.0000 -0.2236 0.9747
vn -0.3618 0.3260 0.8734
vn -0.3730 -0.2236 0.9005
vn -0.6685 0.3261 0.6685
vn -0.6892 -0.2235 0.6892
vn -0.8734 0.3260 0.3618
vn -0.9005 -0.2235 0.3730
vn -0.9453 0.3261 0.0000
vn -0.9747 -0.2235 0.0000
vn -0.8734 0.3260 -0.3618
vn -0.9005 -0.2236 -0.3730
vn -0.6684 0.3262 -0.6684
vn -0.6892 -0.2235 -0.6892
vn -0.3617 0.3260 -0.8734
vn -0.3730 -0.2232 -0.9006
vn -0.0000 0.0641 -0.9979
vn 0.3819 0.0641 -0.9220
vn 0.7057 0.0640 -0.7057
vn 0.9220 0.0641 -0.3819
vn 0.9979 0.0641 -0.0000
vn 0.9220 0.0641 0.3819
vn 0.7057 0.0640 0.7057
vn 0.3819 0.0641 0.9220
vn 0.0000 0.0641 0.9979
vn -0.3819 0.0641 0.9220
vn -0.7057 0.0640 0.7057
vn -0.9220 0.0641 0.3819
vn -0.9979 0.0641 0.0000
vn -0.9220 0.0641 -0.3819
vn -0.7057 0.0640 -0.7057
vn -0.3819 0.0641 -0.9220
vn -0.0000 0.2059 -0.9786
vn 0.3745 0.2061 -0.9040
vn 0.6919 0.2060 -0.6919
vn 0.9040 0.2061 -0.3745
vn 0.9786 0.2059 -0.0000
vn 0.9040 0.2061 0.3745
vn 0.6919 0.2059 0.6920
vn 0.3745 0.2061 0.9040
vn 0.0000 0.2059 0.9786
vn -0.3745 0.2061 0.9040
vn -0.6919 0.2059 0.6920
vn -0.9040 0.2061 0.3745
vn -0.9786 0.2059 0.0000
vn -0.9040 0.2061 -0.3745
vn -0.6919 0.2060 -0.6919
vn -0.3745 0.2061 -0.9040
usemtl Default_OBJ
s off
f 1/1/1 2/2/1 3/3/1
f 3/3/2 4/4/2 1/1/2
f 5/5/3 6/6/3 7/7/3
f 7/7/3 8/8/3 5/5/3
f 3/3/4 9/9/4 10/10/4
f 10/10/5 4/4/5 3/3/5
f 3/3/6 11/11/6 12/12/6
f 12/12/7 13/13/7 3/3/7
f 3/3/8 14/14/8 15/15/8
f 15/15/9 16/16/9 3/3/9
f 3/3/10 13/13/10 17/17/10
f 17/17/11 18/18/11 3/3/11
f 3/3/12 16/16/12 19/19/12
f 19/19/13 9/9/13 3/3/13
f 3/3/14 2/2/14 20/20/14
f 20/20/15 11/11/15 3/3/15
f 3/3/16 18/18/16 21/21/16
f 21/21/17 14/14/17 3/3/17
f 7/7/3 22/22/3 23/23/3
f 23/23/3 8/8/3 7/7/3
f 7/7/3 24/24/3 25/25/3
f 25/25/3 26/26/3 7/7/3
f 7/7/3 27/27/3 28/28/3
f 28/28/3 29/29/3 7/7/3
f 7/7/3 6/6/3 30/30/3
f 30/30/3 24/24/3 7/7/3
f 7/7/3 31/31/3 32/32/3
f 32/32/3 27/27/3 7/7/3
f 7/7/3 26/26/3 33/33/3
f 33/33/3 31/31/3 7/7/3
f 7/7/3 29/29/3 34/34/3
f 34/34/3 22/22/3 7/7/3
s 1
f 4/35/18 35/36/19 36/37/20
f 36/37/20 1/38/21 4/35/18
f 37/39/22 38/40/23 39/41/24
f 39/41/24 40/42/25 37/39/22
f 39/41/24 41/43/26 42/44/27
f 42/44/27 40/42/25 39/41/24
f 43/45/28 44/46/29 45/47/30
f 45/47/30 46/48/31 43/45/28
f 47/49/32 48/50/33 49/51/34
f 49/51/34 50/52/35 47/49/32
f 50/52/35 49/51/34 51/53/36
f 51/53/36 52/54/37 50/52/35
f 51/53/36 5/55/38 8/56/39
f 8/56/39 52/54/37 51/53/36
f 1/57/21 36/58/20 53/59/40
f 53/59/40 2/60/41 1/57/21
f 54/61/42 37/62/22 40/63/25
f 40/63/25 55/64/43 54/61/42
f 40/63/25 42/65/27 56/66/44
f 56/66/44 55/64/43 40/63/25
f 57/67/45 43/45/28 46/48/31
f 46/48/31 58/68/46 57/67/45
f 59/69/47 47/70/32 50/71/35
f 50/71/35 60/72/48 59/69/47
f 60/72/48 50/71/35 52/73/37
f 52/73/37 61/74/49 60/72/48
f 52/73/37 8/75/39 23/76/50
f 23/76/50 61/74/49 52/73/37
f 2/60/41 53/59/40 62/77/51
f 62/77/51 20/78/52 2/60/41
f 63/79/53 54/61/42 55/64/43
f 55/64/43 64/80/54 63/79/53
f 55/64/43 56/66/44 65/81/55
f 65/81/55 64/80/54 55/64/43
f 66/82/56 57/67/45 58/68/46
f 58/68/46 67/83/57 66/82/56
f 68/84/58 59/69/47 60/72/48
f 60/72/48 69/85/59 68/84/58
f 69/85/59 60/72/48 61/74/49
f 61/74/49 70/86/60 69/85/59
f 61/74/49 23/76/50 22/87/61
f 22/87/61 70/86/60 61/74/49
f 20/78/52 62/77/51 71/88/62
f 71/88/62 11/89/63 20/78/52
f 72/90/64 63/79/53 64/80/54
f 64/80/54 73/91/65 72/90/64
f 64/80/54 65/81/55 74/92/66
f 74/92/66 73/91/65 64/80/54
f 75/93/67 66/82/56 67/83/57
f 67/83/57 76/94/68 75/93/67
f 77/95/69 68/84/58 69/85/59
f 69/85/59 78/96/70 77/95/69
f 78/96/70 69/85/59 70/86/60
f 70/86/60 79/97/71 78/96/70
f 70/86/60 22/87/61 34/98/72
f 34/98/72 79/97/71 70/86/60
f 11/89/63 71/88/62 80/99/73
f 80/99/73 12/100/74 11/89/63
f 81/101/75 72/90/64 73/91/65
f 73/91/65 82/102/76 81/101/75
f 73/91/65 74/92/66 83/103/77
f 83/103/77 82/102/76 73/91/65
f 84/104/78 75/93/67 76/94/68
f 76/94/68 85/105/79 84/104/78
f 86/106/80 77/95/69 78/96/70
f 78/96/70 87/107/81 86/106/80
f 87/107/81 78/96/70 79/97/71
f 79/97/71 88/108/82 87/107/81
f 79/97/71 34/98/72 29/109/83
f 29/109/83 88/108/82 79/97/71
f 12/100/74 80/99/73 89/110/84
f 89/110/84 13/111/85 12/100/74
f 90/112/86 81/101/75 82/102/76
f 82/102/76 91/113/87 90/112/86
f 82/102/76 83/103/77 92/114/88
f 92/114/88 91/113/87 82/102/76
f 93/115/89 84/104/78 85/105/79
f 85/105/79 94/116/90 93/115/89
f 95/117/91 86/106/80 87/107/81
f 87/107/81 96/118/92 95/117/91
f 96/118/92 87/107/81 88/108/82
f 88/108/82 97/119/93 96/118/92
f 88/108/82 29/109/83 28/120/94
f 28/120/94 97/119/93 88/108/82
f 13/111/85 89/110/84 98/121/95
f 98/121/95 17/122/96 13/111/85
f 99/123/97 90/112/86 91/113/87
f 91/113/87 100/124/98 99/123/97
f 91/113/87 92/114/88 101/125/99
f 101/125/99 100/124/98 91/113/87
f 102/126/100 93/115/89 94/116/90
f 94/116/90 103/127/101 102/126/100
f 104/128/102 95/117/91 96/118/92
f 96/118/92 105/129/103 104/128/102
f 105/129/103 96/118/92 97/119/93
f 97/119/93 106/130/104 105/129/103
f 97/119/93 28/120/94 27/131/105
f 27/131/105 106/130/104 97/119/93
f 17/122/96 98/121/95 107/132/106
f 107/132/106 18/133/107 17/122/96
f 108/134/108 99/123/97 100/124/98
f 100/124/98 109/135/109 108/134/108
f 100/124/98 101/125/99 110/136/110
f 110/136/110 109/135/109 100/124/98
f 111/137/111 102/126/100 103/127/101
f 103/127/101 112/138/112 111/137/111
f 113/139/113 104/128/102 105/129/103
f 105/129/103 114/140/114 113/139/113
f 114/140/114 105/129/103 106/130/104
f 106/130/104 115/141/115 114/140/114
f 106/130/104 27/131/105 32/142/116
f 32/142/116 115/141/115 106/130/104
f 18/133/107 107/132/106 116/143/117
f 116/143/117 21/144/118 18/133/107
f 117/145/119 108/134/108 109/135/109
f 109/135/109 118/146/120 117/145/119
f 109/135/109 110/136/110 119/147/121
f 119/147/121 118/146/120 109/135/109
f 120/148/122 111/137/111 112/138/112
f 112/138/112 121/149/123 120/148/122
f 122/150/124 113/139/113 114/140/114
f 114/140/114 123/151/125 122/150/124
f 123/151/125 114/140/114 115/141/115
f 115/141/115 124/152/126 123/151/125
f 115/141/115 32/142/116 31/153/127
f 31/153/127 124/152/126 115/141/115
f 21/144/118 116/143/117 125/154/128
f 125/154/128 14/155/129 21/144/118
f 126/156/130 117/145/119 118/146/120
f 118/146/120 127/157/131 126/156/130
f 118/146/120 119/147/121 128/158/132
f 128/158/132 127/157/131 118/146/120
f 129/159/133 120/148/122 121/149/123
f 121/149/123 130/160/134 129/159/133
f 131/161/135 122/150/124 123/151/125
f 123/151/125 132/162/136 131/161/135
f 132/162/136 123/151/125 124/152/126
f 124/152/126 133/163/137 132/162/136
f 124/152/126 31/153/127 33/164/138
f 33/164/138 133/163/137 124/152/126
f 14/155/129 125/154/128 134/165/139
f 134/165/139 15/166/140 14/155/129
f 135/167/141 126/156/130 127/157/131
f 127/157/131 136/168/142 135/167/141
f 127/157/131 128/158/132 137/169/143
f 137/169/143 136/168/142 127/157/131
f 138/170/144 129/159/133 130/160/134
f 130/160/134 139/171/145 138/170/144
f 140/172/146 131/161/135 132/162/136
f 132/162/136 141/173/147 140/172/146
f 141/173/147 132/162/136 133/163/137
f 133/163/137 142/174/148 141/173/147
f 133/163/137 33/164/138 26/175/149
f 26/175/149 142/174/148 133/163/137
f 15/166/140 134/165/139 143/176/150
f 143/176/150 16/177/151 15/166/140
f 144/178/152 135/167/141 136/168/142
f 136/168/142 145/179/153 144/178/152
f 136/168/142 137/169/143 146/180/154
f 146/180/154 145/179/153 136/168/142
f 147/181/155 138/170/144 139/171/145
f 139/171/145 148/182/156 147/181/155
f 149/183/157 140/172/146 141/173/147
f 141/173/147 150/184/158 149/183/157
f 150/184/158 141/173/147 142/174/148
f 142/174/148 151/185/159 150/184/158
f 142/174/148 26/175/149 25/186/160
f 25/186/160 151/185/159 142/174/148
f 16/177/151 143/176/150 152/187/161
f 152/187/161 19/188/162 16/177/151
f 153/189/163 144/178/152 145/179/153
f 145/179/153 154/190/164 153/189/163
f 145/179/153 146/180/154 155/191/165
f 155/191/165 154/190/164 145/179/153
f 156/192/166 147/181/155 148/182/156
f 148/182/156 157/193/167 156/192/166
f 158/194/168 149/183/157 150/184/158
f 150/184/158 159/195/169 158/194/168
f 159/195/169 150/184/158 151/185/159
f 151/185/159 160/196/170 159/195/169
f 151/185/159 25/186/160 24/197/171
f 24/197/171 160/196/170 151/185/159
f 19/188/162 152/187/161 161/198/172
f 161/198/172 9/199/173 19/188/162
f 162/200/174 153/189/163 154/190/164
f 154/190/164 163/201/175 162/200/174
f 154/190/164 155/191/165 164/202/176
f 164/202/176 163/201/175 154/190/164
f 165/203/177 156/192/166 157/193/167
f 157/193/167 166/204/178 165/203/177
f 167/205/179 158/194/168 159/195/169
f 159/195/169 168/206/180 167/205/179
f 168/206/180 159/195/169 160/196/170
f 160/196/170 169/207/181 168/206/180
f 160/196/170 24/197/171 30/208/182
f 30/208/182 169/207/181 160/196/170
f 9/199/173 161/198/172 170/209/183
f 170/209/183 10/210/184 9/199/173
f 171/211/185 162/200/174 163/201/175
f 163/201/175 172/212/186 171/211/185
f 163/201/175 164/202/176 173/213/187
f 173/213/187 172/212/186 163/201/175
f 174/214/188 165/203/177 166/204/178
f 166/204/178 175/215/189 174/214/188
f 176/216/190 167/205/179 168/206/180
f 168/206/180 177/217/191 176/216/190
f 177/217/191 168/206/180 169/207/181
f 169/207/181 178/218/192 177/217/191
f 169/207/181 30/208/182 6/219/193
f 6/219/193 178/218/192 169/207/181
f 10/210/184 170/209/183 35/36/19
f 35/36/19 4/35/18 10/210/184
f 38/40/23 171/211/185 172/212/186
f 172/212/186 39/41/24 38/40/23
f 172/212/186 173/213/187 41/43/26
f 41/43/26 39/41/24 172/212/186
f 44/46/29 174/214/188 175/215/189
f 175/215/189 45/47/30 44/46/29
f 48/50/33 176/216/190 177/217/191
f 177/217/191 49/51/34 48/50/33
f 49/51/34 177/217/191 178/218/192
f 178/218/192 51/53/36 49/51/34
f 178/218/192 6/219/193 5/55/38
f 5/55/38 51/53/36 178/218/192
f 179/220/194 180/221/195 181/222/196
f 181/222/196 182/223/197 179/220/194
f 182/224/197 181/225/196 183/226/198
f 183/226/198 184/227/199 182/224/197
f 184/227/199 183/226/198 185/228/200
f 185/228/200 186/229/201 184/227/199
f 186/229/201 185/228/200 187/230/202
f 187/230/202 188/231/203 186/229/201
f 188/231/203 187/230/202 189/232/204
f 189/232/204 190/233/205 188/231/203
f 190/233/205 189/232/204 191/234/206
f 191/234/206 192/235/207 190/233/205
f 192/235/207 191/234/206 193/236/208
f 193/236/208 194/237/209 192/235/207
f 194/237/209 193/236/208 195/238/210
f 195/238/210 196/239/211 194/237/209
f 196/239/211 195/238/210 197/240/212
f 197/240/212 198/241/213 196/239/211
f 198/241/213 197/240/212 199/242/214
f 199/242/214 200/243/215 198/241/213
f 200/243/215 199/242/214 201/244/216
f 201/244/216 202/245/217 200/243/215
f 202/245/217 201/244/216 203/246/218
f 203/246/218 204/247/219 202/245/217
f 204/247/219 203/246/218 205/248/220
f 205/248/220 206/249/221 204/247/219
f 206/249/221 205/248/220 207/250/222
f 207/250/222 208/251/223 206/249/221
f 208/251/223 207/250/222 209/252/224
f 209/252/224 210/253/225 208/251/223
f 210/253/225 209/252/224 180/221/195
f 180/221/195 179/220/194 210/253/225
f 180/221/195 44/254/29 43/255/28
f 43/255/28 181/222/196 180/221/195
f 181/225/196 43/256/28 57/257/45
f 57/257/45 183/226/198 181/225/196
f 183/226/198 57/257/45 66/258/56
f 66/258/56 185/228/200 183/226/198
f 185/228/200 66/258/56 75/259/67
f 75/259/67 187/230/202 185/228/200
f 187/230/202 75/259/67 84/260/78
f 84/260/78 189/232/204 187/230/202
f 189/232/204 84/260/78 93/261/89
f 93/261/89 191/234/206 189/232/204
f 191/234/206 93/261/89 102/262/100
f 102/262/100 193/236/208 191/234/206
f 193/236/208 102/262/100 111/263/111
f 111/263/111 195/238/210 193/236/208
f 195/238/210 111/263/111 120/264/122
f 120/264/122 197/240/212 195/238/210
f 197/240/212 120/264/122 129/265/133
f 129/265/133 199/242/214 197/240/212
f 199/242/214 129/265/133 138/266/144
f 138/266/144 201/244/216 199/242/214
f 201/244/216 138/266/144 147/267/155
f 147/267/155 203/246/218 201/244/216
f 203/246/218 147/267/155 156/268/166
f 156/268/166 205/248/220 203/246/218
f 205/248/220 156/268/166 165/269/177
f 165/269/177 207/250/222 205/248/220
f 207/250/222 165/269/177 174/270/188
f 174/270/188 209/252/224 207/250/222
f 209/252/224 174/270/188 44/254/29
f 44/254/29 180/221/195 209/252/224
f 182/223/197 42/271/27 41/272/26
f 41/272/26 179/220/194 182/223/197
f 179/220/194 41/272/26 173/273/187
f 173/273/187 210/253/225 179/220/194
f 210/253/225 173/273/187 164/274/176
f 164/274/176 208/251/223 210/253/225
f 208/251/223 164/274/176 155/275/165
f 155/275/165 206/249/221 208/251/223
f 206/249/221 155/275/165 146/276/154
f 146/276/154 204/247/219 206/249/221
f 204/247/219 146/276/154 137/277/143
f 137/277/143 202/245/217 204/247/219
f 202/245/217 137/277/143 128/278/132
f 128/278/132 200/243/215 202/245/217
f 200/243/215 128/278/132 119/279/121
f 119/279/121 198/241/213 200/243/215
f 198/241/213 119/279/121 110/280/110
f 110/280/110 196/239/211 198/241/213
f 196/239/211 110/280/110 101/281/99
f 101/281/99 194/237/209 196/239/211
f 194/237/209 101/281/99 92/282/88
f 92/282/88 192/235/207 194/237/209
f 192/235/207 92/282/88 83/283/77
f 83/283/77 190/233/205 192/235/207
f 190/233/205 83/283/77 74/284/66
f 74/284/66 188/231/203 190/233/205
f 188/231/203 74/284/66 65/285/55
f 65/285/55 186/229/201 188/231/203
f 186/229/201 65/285/55 56/286/44
f 56/286/44 184/227/199 186/229/201
f 184/227/199 56/286/44 42/287/27
f 42/287/27 182/224/197 184/227/199
f 211/288/226 38/40/23 37/39/22
f 37/39/22 212/289/227 211/288/226
f 212/290/227 37/62/22 54/61/42
f 54/61/42 213/291/228 212/290/227
f 213/291/228 54/61/42 63/79/53
f 63/79/53 214/292/229 213/291/228
f 214/292/229 63/79/53 72/90/64
f 72/90/64 215/293/230 214/292/229
f 215/293/230 72/90/64 81/101/75
f 81/101/75 216/294/231 215/293/230
f 216/294/231 81/101/75 90/112/86
f 90/112/86 217/295/232 216/294/231
f 217/295/232 90/112/86 99/123/97
f 99/123/97 218/296/233 217/295/232
f 218/296/233 99/123/97 108/134/108
f 108/134/108 219/297/234 218/296/233
f 219/297/234 108/134/108 117/145/119
f 117/145/119 220/298/235 219/297/234
f 220/298/235 117/145/119 126/156/130
f 126/156/130 221/299/236 220/298/235
f 221/299/236 126/156/130 135/167/141
f 135/167/141 222/300/237 221/299/236
f 222/300/237 135/167/141 144/178/152
f 144/178/152 223/301/238 222/300/237
f 223/301/238 144/178/152 153/189/163
f 153/189/163 224/302/239 223/301/238
f 224/302/239 153/189/163 162/200/174
f 162/200/174 225/303/240 224/302/239
f 225/303/240 162/200/174 171/211/185
f 171/211/185 226/304/241 225/303/240
f 226/304/241 171/211/185 38/40/23
f 38/40/23 211/288/226 226/304/241
f 227/305/242 211/306/226 212/307/227
f 212/307/227 228/308/243 227/305/242
f 228/309/243 212/310/227 213/311/228
f 213/311/228 229/312/244 228/309/243
f 229/312/244 213/311/228 214/313/229
f 214/313/229 230/314/245 229/312/244
f 230/314/245 214/313/229 215/315/230
f 215/315/230 231/316/246 230/314/245
f 231/316/246 215/315/230 216/317/231
f 216/317/231 232/318/247 231/316/246
f 232/318/247 216/317/231 217/319/232
f 217/319/232 233/320/248 232/318/247
f 233/320/248 217/319/232 218/321/233
f 218/321/233 234/322/249 233/320/248
f 234/322/249 218/321/233 219/323/234
f 219/323/234 235/324/250 234/322/249
f 235/324/250 219/323/234 220/325/235
f 220/325/235 236/326/251 235/324/250
f 236/326/251 220/325/235 221/327/236
f 221/327/236 237/328/252 236/326/251
f 237/328/252 221/327/236 222/329/237
f 222/329/237 238/330/253 237/328/252
f 238/330/253 222/329/237 223/331/238
f 223/331/238 239/332/254 238/330/253
f 239/332/254 223/331/238 224/333/239
f 224/333/239 240/334/255 239/332/254
f 240/334/255 224/333/239 225/335/240
f 225/335/240 241/336/256 240/334/255
f 241/336/256 225/335/240 226/337/241
f 226/337/241 242/338/257 241/336/256
f 242/338/257 226/337/241 211/306/226
f 211/306/226 227/305/242 242/338/257
f 46/48/31 45/47/30 48/339/33
f 48/339/33 47/340/32 46/48/31
f 58/68/46 46/48/31 47/340/32
f 47/340/32 59/341/47 58/68/46
f 67/83/57 58/68/46 59/341/47
f 59/341/47 68/342/58 67/83/57
f 76/94/68 67/83/57 68/342/58
f 68/342/58 77/343/69 76/94/68
f 85/105/79 76/94/68 77/343/69
f 77/343/69 86/344/80 85/105/79
f 94/116/90 85/105/79 86/344/80
f 86/344/80 95/345/91 94/116/90
f 103/127/101 94/116/90 95/345/91
f 95/345/91 104/346/102 103/127/101
f 112/138/112 103/127/101 104/346/102
f 104/346/102 113/347/113 112/138/112
f 121/149/123 112/138/112 113/347/113
f 113/347/113 122/348/124 121/149/123
f 130/160/134 121/149/123 122/348/124
f 122/348/124 131/349/135 130/160/134
f 139/171/145 130/160/134 131/349/135
f 131/349/135 140/350/146 139/171/145
f 148/182/156 139/171/145 140/350/146
f 140/350/146 149/351/157 148/182/156
f 157/193/167 148/182/156 149/351/157
f 149/351/157 158/352/168 157/193/167
f 166/204/178 157/193/167 158/352/168
f 158/352/168 167/353/179 166/204/178
f 175/215/189 166/204/178 167/353/179
f 167/353/179 176/354/190 175/215/189
f 45/47/30 175/215/189 176/354/190
f 176/354/190 48/339/33 45/47/30
f 36/37/20 35/36/19 227/305/242
f 227/305/242 228/308/243 36/37/20
f 53/59/40 36/58/20 228/309/243
f 228/309/243 229/312/244 53/59/40
f 62/77/51 53/59/40 229/312/244
f 229/312/244 230/314/245 62/77/51
f 71/88/62 62/77/51 230/314/245
f 230/314/245 231/316/246 71/88/62
f 80/99/73 71/88/62 231/316/246
f 231/316/246 232/318/247 80/99/73
f 89/110/84 80/99/73 232/318/247
f 232/318/247 233/320/248 89/110/84
f 98/121/95 89/110/84 233/320/248
f 233/320/248 234/322/249 98/121/95
f 107/132/106 98/121/95 234/322/249
f 234/322/249 235/324/250 107/132/106
f 116/143/117 107/132/106 235/324/250
f 235/324/250 236/326/251 116/143/117
f 125/154/128 116/143/117 236/326/251
f 236/326/251 237/328/252 125/154/128
f 134/165/139 125/154/128 237/328/252
f 237/328/252 238/330/253 134/165/139
f 143/176/150 134/165/139 238/330/253
f 238/330/253 239/332/254 143/176/150
f 152/187/161 143/176/150 239/332/254
f 239/332/254 240/334/255 152/187/161
f 161/198/172 152/187/161 240/334/255
f 240/334/255 241/336/256 161/198/172
f 170/209/183 161/198/172 241/336/256
f 241/336/256 242/338/257 170/209/183
f 35/36/19 170/209/183 242/338/257
f 242/338/257 227/305/242 35/36/19
